^F:\__REPOSITORY__\_H3ERA_PLUGINS_\ELEMLORD\ELEMLORD\ELEMLORD.CPP|F:\__REPOSITORY__\_H3ERA_PLUGINS_\ELEMLORD\HEROES.CPP
F:\__REPOSITORY__\_H3ERA_PLUGINS_\ELEMLORD\ELEMLORD\RELEASE\VC140.PDB
F:\__REPOSITORY__\_H3ERA_PLUGINS_\ELEMLORD\ELEMLORD\RELEASE\ELEMLORD.OBJ
F:\__REPOSITORY__\_H3ERA_PLUGINS_\ELEMLORD\ELEMLORD\RELEASE\HEROES.OBJ
^F:\__REPOSITORY__\_H3ERA_PLUGINS_\ELEMLORD\HEROES.CPP
F:\__REPOSITORY__\_H3ERA_PLUGINS_\ELEMLORD\ELEMLORD\RELEASE\VC140.PDB
^F:\__REPOSITORY__\_H3ERA_PLUGINS_\ELEMLORD\ELEMLORD\ELEMLORD.CPP
F:\__REPOSITORY__\_H3ERA_PLUGINS_\ELEMLORD\ELEMLORD\RELEASE\VC140.PDB
F:\__REPOSITORY__\_H3ERA_PLUGINS_\ELEMLORD\ELEMLORD\RELEASE\ELEMLORD.OBJ
