^E:\DEV\__REPOSITORY__\_H3ERA_PLUGINS_\BETTER_SPELLS_SUPPORT\BETTER_SPELLS_SUPPORT\PCH.CPP
/c /Zi /nologo /W3 /WX- /diagnostics:column /sdl /O2 /Oi /Oy- /GL /D WIN32 /D NDEBUG /D BETTERSPELLSSUPPORT_EXPORTS /D _WINDOWS /D _USRDLL /D _WINDLL /D _UNICODE /D UNICODE /Gm- /EHsc /MD /GS /Gy /fp:precise /permissive- /Zc:wchar_t /Zc:forScope /Zc:inline /Yc"pch.h" /Fp"RELEASE\BETTER_SPELLS_SUPPORT.PCH" /Fo"RELEASE\\" /Fd"RELEASE\VC142.PDB" /Gd /TP /analyze- /FC E:\DEV\__REPOSITORY__\_H3ERA_PLUGINS_\BETTER_SPELLS_SUPPORT\BETTER_SPELLS_SUPPORT\PCH.CPP
^E:\DEV\__REPOSITORY__\_H3ERA_PLUGINS_\BETTER_SPELLS_SUPPORT\BETTER_SPELLS_SUPPORT\DLLMAIN.CPP
/c /Zi /nologo /W3 /WX- /diagnostics:column /sdl /O2 /Oi /Oy- /GL /D WIN32 /D NDEBUG /D BETTERSPELLSSUPPORT_EXPORTS /D _WINDOWS /D _USRDLL /D _WINDLL /D _UNICODE /D UNICODE /Gm- /EHsc /MD /GS /Gy /fp:precise /permissive- /Zc:wchar_t /Zc:forScope /Zc:inline /Yu"pch.h" /Fp"RELEASE\BETTER_SPELLS_SUPPORT.PCH" /Fo"RELEASE\\" /Fd"RELEASE\VC142.PDB" /Gd /TP /analyze- /FC E:\DEV\__REPOSITORY__\_H3ERA_PLUGINS_\BETTER_SPELLS_SUPPORT\BETTER_SPELLS_SUPPORT\DLLMAIN.CPP
