^E:\DEV\__REPOSITORY__\_H3ERA_PLUGINS_\BETTER_SPELLS_SUPPORT\BETTER_SPELLS_SUPPORT\RELEASE\DLLMAIN.OBJ|E:\DEV\__REPOSITORY__\_H3ERA_PLUGINS_\BETTER_SPELLS_SUPPORT\BETTER_SPELLS_SUPPORT\RELEASE\PCH.OBJ
E:\DEV\__REPOSITORY__\_H3ERA_PLUGINS_\BETTER_SPELLS_SUPPORT\BETTER_SPELLS_SUPPORT\RELEASE\BETTER_SPELLS_SUPPORT.ERA
E:\DEV\__REPOSITORY__\_H3ERA_PLUGINS_\BETTER_SPELLS_SUPPORT\BETTER_SPELLS_SUPPORT\RELEASE\BETTER_SPELLS_SUPPORT.PDB
