﻿  game bug fixes.cpp
E:\DEV\__REPOSITORY__\_h3era_Plugins_\game bug fixes\HoMM3_ids.h(547,1): warning C4005: 'HID_LORD_HAART': macro redefinition
E:\DEV\__REPOSITORY__\_h3era_Plugins_\game bug fixes\HoMM3_ids.h(401): message : see previous definition of 'HID_LORD_HAART'
E:\DEV\__REPOSITORY__\_h3era_Plugins_\game bug fixes\HoMM3_ids.h(638,1): warning C4005: 'SPL_DISPEL': macro redefinition
E:\DEV\__REPOSITORY__\_h3era_Plugins_\game bug fixes\HoMM3_ids.h(594): message : see previous definition of 'SPL_DISPEL'
E:\DEV\__REPOSITORY__\_h3era_Plugins_\game bug fixes\patcher_x86_commented.hpp(123,1): warning C4005: '_bool_': macro redefinition
E:\DEV\__REPOSITORY__\_h3era_Plugins_\game bug fixes\Base.h(64): message : see previous definition of '_bool_'
E:\DEV\__REPOSITORY__\_h3era_Plugins_\game bug fixes\patcher_x86_commented.hpp(523,1): warning C4010: single-line comment contains line-continuation character
E:\DEV\__REPOSITORY__\_h3era_Plugins_\game bug fixes\patcher_x86_commented.hpp(524,1): warning C4010: single-line comment contains line-continuation character
E:\DEV\__REPOSITORY__\_h3era_Plugins_\game bug fixes\HoMM3_Res.h(17,16): warning C4359: '_BinTreeItem_': Alignment specifier is less than actual alignment (4), and will be ignored.
E:\DEV\__REPOSITORY__\_h3era_Plugins_\game bug fixes\HoMM3_Res.h(34,16): warning C4359: '_BinTree_': Alignment specifier is less than actual alignment (4), and will be ignored.
E:\DEV\__REPOSITORY__\_h3era_Plugins_\game bug fixes\HoMM3_Res.h(72,16): warning C4359: '_Wav_': Alignment specifier is less than actual alignment (4), and will be ignored.
E:\DEV\__REPOSITORY__\_h3era_Plugins_\game bug fixes\HoMM3_Res.h(85,16): warning C4359: '_Sample_': Alignment specifier is less than actual alignment (4), and will be ignored.
E:\DEV\__REPOSITORY__\_h3era_Plugins_\game bug fixes\HoMM3_Res.h(100,16): warning C4359: '_Palette16_': Alignment specifier is less than actual alignment (4), and will be ignored.
E:\DEV\__REPOSITORY__\_h3era_Plugins_\game bug fixes\HoMM3_Res.h(115,16): warning C4359: '_Palette24_': Alignment specifier is less than actual alignment (4), and will be ignored.
E:\DEV\__REPOSITORY__\_h3era_Plugins_\game bug fixes\HoMM3_Res.h(120,16): warning C4359: '_Pcx_': Alignment specifier is less than actual alignment (4), and will be ignored.
E:\DEV\__REPOSITORY__\_h3era_Plugins_\game bug fixes\HoMM3_Res.h(131,16): warning C4359: '_DefFrame_': Alignment specifier is less than actual alignment (4), and will be ignored.
E:\DEV\__REPOSITORY__\_h3era_Plugins_\game bug fixes\HoMM3_Res.h(152,16): warning C4359: '_DefGroup_': Alignment specifier is less than actual alignment (4), and will be ignored.
E:\DEV\__REPOSITORY__\_h3era_Plugins_\game bug fixes\HoMM3_Res.h(162,16): warning C4359: '_Def_': Alignment specifier is less than actual alignment (4), and will be ignored.
E:\DEV\__REPOSITORY__\_h3era_Plugins_\game bug fixes\HoMM3_Res.h(227,17): warning C4359: '_Fnt_::_CharSize_': Alignment specifier is less than actual alignment (4), and will be ignored.
E:\DEV\__REPOSITORY__\_h3era_Plugins_\game bug fixes\HoMM3_Res.h(225,16): warning C4359: '_Fnt_': Alignment specifier is less than actual alignment (4), and will be ignored.
E:\DEV\__REPOSITORY__\_h3era_Plugins_\game bug fixes\HoMM3_Res.h(255,16): warning C4359: '_TXT_': Alignment specifier is less than actual alignment (4), and will be ignored.
E:\DEV\__REPOSITORY__\_h3era_Plugins_\game bug fixes\HoMM3_Res.h(264,16): warning C4359: '_Pcx8_': Alignment specifier is less than actual alignment (4), and will be ignored.
E:\DEV\__REPOSITORY__\_h3era_Plugins_\game bug fixes\HoMM3_Res.h(289,16): warning C4359: '_Pcx16_': Alignment specifier is less than actual alignment (4), and will be ignored.
E:\DEV\__REPOSITORY__\_h3era_Plugins_\game bug fixes\HoMM3_Res.h(332,16): warning C4359: '_RedrawBorders_': Alignment specifier is less than actual alignment (4), and will be ignored.
E:\DEV\__REPOSITORY__\_h3era_Plugins_\game bug fixes\HoMM3_GUI.h(54,16): warning C4359: '_DlgMsg_': Alignment specifier is less than actual alignment (4), and will be ignored.
E:\DEV\__REPOSITORY__\_h3era_Plugins_\game bug fixes\HoMM3_GUI.h(69,16): warning C4359: '_WndMgr_': Alignment specifier is less than actual alignment (4), and will be ignored.
E:\DEV\__REPOSITORY__\_h3era_Plugins_\game bug fixes\HoMM3_GUI.h(135,16): warning C4359: '_Dlg_': Alignment specifier is less than actual alignment (4), and will be ignored.
E:\DEV\__REPOSITORY__\_h3era_Plugins_\game bug fixes\HoMM3_GUI.h(255,16): warning C4359: '_DlgItem_': Alignment specifier is less than actual alignment (4), and will be ignored.
E:\DEV\__REPOSITORY__\_h3era_Plugins_\game bug fixes\HoMM3_GUI.h(299,16): warning C4359: '_DlgScroll_': Alignment specifier is less than actual alignment (4), and will be ignored.
E:\DEV\__REPOSITORY__\_h3era_Plugins_\game bug fixes\HoMM3_GUI.h(325,16): warning C4359: '_DlgStaticPcx8_': Alignment specifier is less than actual alignment (4), and will be ignored.
E:\DEV\__REPOSITORY__\_h3era_Plugins_\game bug fixes\HoMM3_GUI.h(349,16): warning C4359: '_DlgStaticText_': Alignment specifier is less than actual alignment (4), and will be ignored.
E:\DEV\__REPOSITORY__\_h3era_Plugins_\game bug fixes\HoMM3_GUI.h(370,16): warning C4359: '_DlgStaticTextPcx8ed_': Alignment specifier is less than actual alignment (4), and will be ignored.
E:\DEV\__REPOSITORY__\_h3era_Plugins_\game bug fixes\HoMM3_GUI.h(392,16): warning C4359: '_DlgTextEdit_': Alignment specifier is less than actual alignment (4), and will be ignored.
E:\DEV\__REPOSITORY__\_h3era_Plugins_\game bug fixes\HoMM3_GUI.h(441,16): warning C4359: '_DlgStaticDef_': Alignment specifier is less than actual alignment (4), and will be ignored.
E:\DEV\__REPOSITORY__\_h3era_Plugins_\game bug fixes\HoMM3_GUI.h(469,16): warning C4359: '_DlgStaticPcx16_': Alignment specifier is less than actual alignment (4), and will be ignored.
E:\DEV\__REPOSITORY__\_h3era_Plugins_\game bug fixes\HoMM3_GUI.h(481,16): warning C4359: '_DlgButton_': Alignment specifier is less than actual alignment (4), and will be ignored.
E:\DEV\__REPOSITORY__\_h3era_Plugins_\game bug fixes\HoMM3_GUI.h(511,16): warning C4359: '_DlgTextButton_': Alignment specifier is less than actual alignment (4), and will be ignored.
E:\DEV\__REPOSITORY__\_h3era_Plugins_\game bug fixes\HoMM3_GUI.h(535,16): warning C4359: '_DlgCallbackButton_': Alignment specifier is less than actual alignment (4), and will be ignored.
E:\DEV\__REPOSITORY__\_h3era_Plugins_\game bug fixes\HoMM3_GUI.h(557,16): warning C4359: '_DlgScrollableText_': Alignment specifier is less than actual alignment (4), and will be ignored.
E:\DEV\__REPOSITORY__\_h3era_Plugins_\game bug fixes\homm3.h(284,16): warning C4359: '_Resources_': Alignment specifier is less than actual alignment (4), and will be ignored.
E:\DEV\__REPOSITORY__\_h3era_Plugins_\game bug fixes\homm3.h(295,16): warning C4359: '_Army_': Alignment specifier is less than actual alignment (4), and will be ignored.
E:\DEV\__REPOSITORY__\_h3era_Plugins_\game bug fixes\homm3.h(314,16): warning C4359: '_CreatureInfo_': Alignment specifier is less than actual alignment (4), and will be ignored.
E:\DEV\__REPOSITORY__\_h3era_Plugins_\game bug fixes\homm3.h(350,16): warning C4359: '_HeroInfo_': Alignment specifier is less than actual alignment (4), and will be ignored.
E:\DEV\__REPOSITORY__\_h3era_Plugins_\game bug fixes\homm3.h(367,16): warning C4359: '_TurnTimeStruct_': Alignment specifier is less than actual alignment (4), and will be ignored.
E:\DEV\__REPOSITORY__\_h3era_Plugins_\game bug fixes\homm3.h(386,16): warning C4359: '_HString_': Alignment specifier is less than actual alignment (4), and will be ignored.
E:\DEV\__REPOSITORY__\_h3era_Plugins_\game bug fixes\homm3.h(391,16): warning C4359: '_HStringA_': Alignment specifier is less than actual alignment (4), and will be ignored.
E:\DEV\__REPOSITORY__\_h3era_Plugins_\game bug fixes\homm3.h(396,16): warning C4359: '_HStringF_': Alignment specifier is less than actual alignment (4), and will be ignored.
E:\DEV\__REPOSITORY__\_h3era_Plugins_\game bug fixes\homm3.h(403,16): warning C4359: '_GlobalEvent_': Alignment specifier is less than actual alignment (4), and will be ignored.
E:\DEV\__REPOSITORY__\_h3era_Plugins_\game bug fixes\homm3.h(413,16): warning C4359: '_MapItem_': Alignment specifier is less than actual alignment (4), and will be ignored.
E:\DEV\__REPOSITORY__\_h3era_Plugins_\game bug fixes\homm3.h(456,16): warning C4359: '_Artifact_': Alignment specifier is less than actual alignment (4), and will be ignored.
E:\DEV\__REPOSITORY__\_h3era_Plugins_\game bug fixes\homm3.h(463,16): warning C4359: '_ArtInfo_': Alignment specifier is less than actual alignment (4), and will be ignored.
E:\DEV\__REPOSITORY__\_h3era_Plugins_\game bug fixes\homm3.h(480,16): warning C4359: '_ArtSlotInfo_': Alignment specifier is less than actual alignment (4), and will be ignored.
E:\DEV\__REPOSITORY__\_h3era_Plugins_\game bug fixes\homm3.h(491,16): warning C4359: '_Hero_': Alignment specifier is less than actual alignment (4), and will be ignored.
E:\DEV\__REPOSITORY__\_h3era_Plugins_\game bug fixes\homm3.h(620,16): warning C4359: '_Player_': Alignment specifier is less than actual alignment (4), and will be ignored.
E:\DEV\__REPOSITORY__\_h3era_Plugins_\game bug fixes\homm3.h(656,16): warning C4359: '_Town_': Alignment specifier is less than actual alignment (4), and will be ignored.
E:\DEV\__REPOSITORY__\_h3era_Plugins_\game bug fixes\homm3.h(724,16): warning C4359: '_Spell_': Alignment specifier is less than actual alignment (4), and will be ignored.
E:\DEV\__REPOSITORY__\_h3era_Plugins_\game bug fixes\homm3.h(743,16): warning C4359: '_CreatureAnim_': Alignment specifier is less than actual alignment (4), and will be ignored.
E:\DEV\__REPOSITORY__\_h3era_Plugins_\game bug fixes\homm3.h(749,16): warning C4359: '_BattleStack_': Alignment specifier is less than actual alignment (4), and will be ignored.
E:\DEV\__REPOSITORY__\_h3era_Plugins_\game bug fixes\homm3.h(987,16): warning C4359: '_ArrowTower_': Alignment specifier is less than actual alignment (4), and will be ignored.
E:\DEV\__REPOSITORY__\_h3era_Plugins_\game bug fixes\homm3.h(1006,16): warning C4359: '_CastleElement_': Alignment specifier is less than actual alignment (4), and will be ignored.
E:\DEV\__REPOSITORY__\_h3era_Plugins_\game bug fixes\homm3.h(1025,16): warning C4359: '_BattleHex_': Alignment specifier is less than actual alignment (4), and will be ignored.
E:\DEV\__REPOSITORY__\_h3era_Plugins_\game bug fixes\homm3.h(1048,16): warning C4359: '_BattleAnim_': Alignment specifier is less than actual alignment (4), and will be ignored.
E:\DEV\__REPOSITORY__\_h3era_Plugins_\game bug fixes\homm3.h(1067,16): warning C4359: '_BattleMgr_': Alignment specifier is less than actual alignment (4), and will be ignored.
E:\DEV\__REPOSITORY__\_h3era_Plugins_\game bug fixes\homm3.h(1344,16): warning C4359: '_TownStartInfo_': Alignment specifier is less than actual alignment (4), and will be ignored.
E:\DEV\__REPOSITORY__\_h3era_Plugins_\game bug fixes\homm3.h(1357,16): warning C4359: '_ArmyStartInfo_': Alignment specifier is less than actual alignment (4), and will be ignored.
E:\DEV\__REPOSITORY__\_h3era_Plugins_\game bug fixes\homm3.h(1363,16): warning C4359: '_HeroStartInfo_': Alignment specifier is less than actual alignment (4), and will be ignored.
E:\DEV\__REPOSITORY__\_h3era_Plugins_\game bug fixes\homm3.h(1438,16): warning C4359: '_TmplPosMsk_': Alignment specifier is less than actual alignment (4), and will be ignored.
E:\DEV\__REPOSITORY__\_h3era_Plugins_\game bug fixes\homm3.h(1473,16): warning C4359: '_TmplTerrMsk_': Alignment specifier is less than actual alignment (4), and will be ignored.
E:\DEV\__REPOSITORY__\_h3era_Plugins_\game bug fixes\homm3.h(1510,16): warning C4359: '_Template_': Alignment specifier is less than actual alignment (4), and will be ignored.
E:\DEV\__REPOSITORY__\_h3era_Plugins_\game bug fixes\homm3.h(1536,16): warning C4359: '_Object_': Alignment specifier is less than actual alignment (2), and will be ignored.
E:\DEV\__REPOSITORY__\_h3era_Plugins_\game bug fixes\homm3.h(1555,16): warning C4359: '_PlaceHolder_': Alignment specifier is less than actual alignment (4), and will be ignored.
E:\DEV\__REPOSITORY__\_h3era_Plugins_\game bug fixes\homm3.h(1576,16): warning C4359: '_GameMap_': Alignment specifier is less than actual alignment (4), and will be ignored.
E:\DEV\__REPOSITORY__\_h3era_Plugins_\game bug fixes\homm3.h(1619,16): warning C4359: '_GameMgr_': Alignment specifier is less than actual alignment (4), and will be ignored.
E:\DEV\__REPOSITORY__\_h3era_Plugins_\game bug fixes\homm3.h(1900,16): warning C4359: '_GarrisonBar_': Alignment specifier is less than actual alignment (4), and will be ignored.
E:\DEV\__REPOSITORY__\_h3era_Plugins_\game bug fixes\homm3.h(1919,16): warning C4359: '_TownMgr_': Alignment specifier is less than actual alignment (4), and will be ignored.
E:\DEV\__REPOSITORY__\_h3era_Plugins_\game bug fixes\homm3.h(1975,16): warning C4359: '_AdvMgr_': Alignment specifier is less than actual alignment (4), and will be ignored.
E:\DEV\__REPOSITORY__\_h3era_Plugins_\game bug fixes\homm3.h(2012,16): warning C4359: '_SwapMan_': Alignment specifier is less than actual alignment (4), and will be ignored.
E:\DEV\__REPOSITORY__\_h3era_Plugins_\game bug fixes\homm3.h(2062,16): warning C4359: '_InputMgr_': Alignment specifier is less than actual alignment (4), and will be ignored.
E:\DEV\__REPOSITORY__\_h3era_Plugins_\game bug fixes\homm3.h(2149,16): warning C4359: '_CrBankState_': Alignment specifier is less than actual alignment (4), and will be ignored.
E:\DEV\__REPOSITORY__\_h3era_Plugins_\game bug fixes\homm3.h(2186,16): warning C4359: '_CrBankType_': Alignment specifier is less than actual alignment (4), and will be ignored.
E:\DEV\__REPOSITORY__\_h3era_Plugins_\game bug fixes\homm3.h(2218,16): warning C4359: '_Dwelling_': Alignment specifier is less than actual alignment (4), and will be ignored.
E:\DEV\__REPOSITORY__\_h3era_Plugins_\game bug fixes\homm3.h(2273,16): warning C4359: '_ZoneTreasure_': Alignment specifier is less than actual alignment (4), and will be ignored.
E:\DEV\__REPOSITORY__\_h3era_Plugins_\game bug fixes\homm3.h(2287,16): warning C4359: '_ZoneConnection_': Alignment specifier is less than actual alignment (4), and will be ignored.
E:\DEV\__REPOSITORY__\_h3era_Plugins_\game bug fixes\homm3.h(2322,16): warning C4359: '_ZoneSettings_': Alignment specifier is less than actual alignment (4), and will be ignored.
E:\DEV\__REPOSITORY__\_h3era_Plugins_\game bug fixes\game bug fixes.cpp(33,20): error C2039: 'waterwalk_cast_power': is not a member of '_Hero_'
E:\DEV\__REPOSITORY__\_h3era_Plugins_\game bug fixes\homm3.h(491): message : see declaration of '_Hero_'
E:\DEV\__REPOSITORY__\_h3era_Plugins_\game bug fixes\game bug fixes.cpp(47,8): error C2039: 'GetSpecialTerrain': is not a member of '_Hero_'
E:\DEV\__REPOSITORY__\_h3era_Plugins_\game bug fixes\homm3.h(491): message : see declaration of '_Hero_'
E:\DEV\__REPOSITORY__\_h3era_Plugins_\game bug fixes\game bug fixes.cpp(207,38): error C2065: 'DIID_CANCEL': undeclared identifier
E:\DEV\__REPOSITORY__\_h3era_Plugins_\game bug fixes\game bug fixes.cpp(219,17): error C2065: 'o_ADVEVENT_TXT': undeclared identifier
E:\DEV\__REPOSITORY__\_h3era_Plugins_\game bug fixes\game bug fixes.cpp(219,7): error C3861: 'b_MsgBoxD': identifier not found
E:\DEV\__REPOSITORY__\_h3era_Plugins_\game bug fixes\game bug fixes.cpp(336,6): error C2039: 'IsPlayerHuman': is not a member of '_GameMgr_'
E:\DEV\__REPOSITORY__\_h3era_Plugins_\game bug fixes\homm3.h(1619): message : see declaration of '_GameMgr_'
E:\DEV\__REPOSITORY__\_h3era_Plugins_\game bug fixes\game bug fixes.cpp(337,7): error C2039: 'IsPlayerHuman': is not a member of '_GameMgr_'
E:\DEV\__REPOSITORY__\_h3era_Plugins_\game bug fixes\homm3.h(1619): message : see declaration of '_GameMgr_'
E:\DEV\__REPOSITORY__\_h3era_Plugins_\game bug fixes\game bug fixes.cpp(356,17): warning C4154: deletion of an array expression; conversion to pointer supplied
E:\DEV\__REPOSITORY__\_h3era_Plugins_\game bug fixes\game bug fixes.cpp(396,62): error C2039: 'GetSpell_Specialisation_PowerBonuses': is not a member of '_Hero_'
E:\DEV\__REPOSITORY__\_h3era_Plugins_\game bug fixes\homm3.h(491): message : see declaration of '_Hero_'
E:\DEV\__REPOSITORY__\_h3era_Plugins_\game bug fixes\game bug fixes.cpp(558,59): error C2664: 'Patch *PatcherInstance::WriteHexPatch(_ptr_,char *)': cannot convert argument 2 from 'const char [27]' to 'char *'
E:\DEV\__REPOSITORY__\_h3era_Plugins_\game bug fixes\game bug fixes.cpp(558,31): message : Conversion from string literal loses const qualifier (see /Zc:strictStrings)
E:\DEV\__REPOSITORY__\_h3era_Plugins_\game bug fixes\patcher_x86_commented.hpp(348,27): message : see declaration of 'PatcherInstance::WriteHexPatch'
E:\DEV\__REPOSITORY__\_h3era_Plugins_\game bug fixes\game bug fixes.cpp(559,56): error C2664: 'Patch *PatcherInstance::WriteHexPatch(_ptr_,char *)': cannot convert argument 2 from 'const char [24]' to 'char *'
E:\DEV\__REPOSITORY__\_h3era_Plugins_\game bug fixes\game bug fixes.cpp(559,31): message : Conversion from string literal loses const qualifier (see /Zc:strictStrings)
E:\DEV\__REPOSITORY__\_h3era_Plugins_\game bug fixes\patcher_x86_commented.hpp(348,27): message : see declaration of 'PatcherInstance::WriteHexPatch'
E:\DEV\__REPOSITORY__\_h3era_Plugins_\game bug fixes\game bug fixes.cpp(560,56): error C2664: 'Patch *PatcherInstance::WriteHexPatch(_ptr_,char *)': cannot convert argument 2 from 'const char [24]' to 'char *'
E:\DEV\__REPOSITORY__\_h3era_Plugins_\game bug fixes\game bug fixes.cpp(560,31): message : Conversion from string literal loses const qualifier (see /Zc:strictStrings)
E:\DEV\__REPOSITORY__\_h3era_Plugins_\game bug fixes\patcher_x86_commented.hpp(348,27): message : see declaration of 'PatcherInstance::WriteHexPatch'
E:\DEV\__REPOSITORY__\_h3era_Plugins_\game bug fixes\game bug fixes.cpp(561,47): error C2664: 'Patch *PatcherInstance::WriteHexPatch(_ptr_,char *)': cannot convert argument 2 from 'const char [15]' to 'char *'
E:\DEV\__REPOSITORY__\_h3era_Plugins_\game bug fixes\game bug fixes.cpp(561,31): message : Conversion from string literal loses const qualifier (see /Zc:strictStrings)
E:\DEV\__REPOSITORY__\_h3era_Plugins_\game bug fixes\patcher_x86_commented.hpp(348,27): message : see declaration of 'PatcherInstance::WriteHexPatch'
E:\DEV\__REPOSITORY__\_h3era_Plugins_\game bug fixes\game bug fixes.cpp(562,53): error C2664: 'Patch *PatcherInstance::WriteHexPatch(_ptr_,char *)': cannot convert argument 2 from 'const char [21]' to 'char *'
E:\DEV\__REPOSITORY__\_h3era_Plugins_\game bug fixes\game bug fixes.cpp(562,31): message : Conversion from string literal loses const qualifier (see /Zc:strictStrings)
E:\DEV\__REPOSITORY__\_h3era_Plugins_\game bug fixes\patcher_x86_commented.hpp(348,27): message : see declaration of 'PatcherInstance::WriteHexPatch'
E:\DEV\__REPOSITORY__\_h3era_Plugins_\game bug fixes\game bug fixes.cpp(563,65): error C2664: 'Patch *PatcherInstance::WriteHexPatch(_ptr_,char *)': cannot convert argument 2 from 'const char [33]' to 'char *'
E:\DEV\__REPOSITORY__\_h3era_Plugins_\game bug fixes\game bug fixes.cpp(563,31): message : Conversion from string literal loses const qualifier (see /Zc:strictStrings)
E:\DEV\__REPOSITORY__\_h3era_Plugins_\game bug fixes\patcher_x86_commented.hpp(348,27): message : see declaration of 'PatcherInstance::WriteHexPatch'
E:\DEV\__REPOSITORY__\_h3era_Plugins_\game bug fixes\game bug fixes.cpp(564,50): error C2664: 'Patch *PatcherInstance::WriteHexPatch(_ptr_,char *)': cannot convert argument 2 from 'const char [18]' to 'char *'
E:\DEV\__REPOSITORY__\_h3era_Plugins_\game bug fixes\game bug fixes.cpp(564,31): message : Conversion from string literal loses const qualifier (see /Zc:strictStrings)
E:\DEV\__REPOSITORY__\_h3era_Plugins_\game bug fixes\patcher_x86_commented.hpp(348,27): message : see declaration of 'PatcherInstance::WriteHexPatch'
E:\DEV\__REPOSITORY__\_h3era_Plugins_\game bug fixes\game bug fixes.cpp(565,50): error C2664: 'Patch *PatcherInstance::WriteHexPatch(_ptr_,char *)': cannot convert argument 2 from 'const char [18]' to 'char *'
E:\DEV\__REPOSITORY__\_h3era_Plugins_\game bug fixes\game bug fixes.cpp(565,31): message : Conversion from string literal loses const qualifier (see /Zc:strictStrings)
E:\DEV\__REPOSITORY__\_h3era_Plugins_\game bug fixes\patcher_x86_commented.hpp(348,27): message : see declaration of 'PatcherInstance::WriteHexPatch'
E:\DEV\__REPOSITORY__\_h3era_Plugins_\game bug fixes\game bug fixes.cpp(597,74): error C2664: 'Patch *PatcherInstance::WriteHexPatch(_ptr_,char *)': cannot convert argument 2 from 'const char [42]' to 'char *'
E:\DEV\__REPOSITORY__\_h3era_Plugins_\game bug fixes\game bug fixes.cpp(597,31): message : Conversion from string literal loses const qualifier (see /Zc:strictStrings)
E:\DEV\__REPOSITORY__\_h3era_Plugins_\game bug fixes\patcher_x86_commented.hpp(348,27): message : see declaration of 'PatcherInstance::WriteHexPatch'
E:\DEV\__REPOSITORY__\_h3era_Plugins_\game bug fixes\game bug fixes.cpp(626,40): error C2664: 'Patch *PatcherInstance::WriteCodePatch(_ptr_,char *,...)': cannot convert argument 2 from 'const char [3]' to 'char *'
E:\DEV\__REPOSITORY__\_h3era_Plugins_\game bug fixes\game bug fixes.cpp(626,32): message : Conversion from string literal loses const qualifier (see /Zc:strictStrings)
E:\DEV\__REPOSITORY__\_h3era_Plugins_\game bug fixes\patcher_x86_commented.hpp(544,16): message : see declaration of 'PatcherInstance::WriteCodePatch'
E:\DEV\__REPOSITORY__\_h3era_Plugins_\game bug fixes\game bug fixes.cpp(627,40): error C2664: 'Patch *PatcherInstance::WriteCodePatch(_ptr_,char *,...)': cannot convert argument 2 from 'const char [3]' to 'char *'
E:\DEV\__REPOSITORY__\_h3era_Plugins_\game bug fixes\game bug fixes.cpp(627,32): message : Conversion from string literal loses const qualifier (see /Zc:strictStrings)
E:\DEV\__REPOSITORY__\_h3era_Plugins_\game bug fixes\patcher_x86_commented.hpp(544,16): message : see declaration of 'PatcherInstance::WriteCodePatch'
E:\DEV\__REPOSITORY__\_h3era_Plugins_\game bug fixes\game bug fixes.cpp(628,59): error C2664: 'Patch *PatcherInstance::WriteHexPatch(_ptr_,char *)': cannot convert argument 2 from 'const char [27]' to 'char *'
E:\DEV\__REPOSITORY__\_h3era_Plugins_\game bug fixes\game bug fixes.cpp(628,31): message : Conversion from string literal loses const qualifier (see /Zc:strictStrings)
E:\DEV\__REPOSITORY__\_h3era_Plugins_\game bug fixes\patcher_x86_commented.hpp(348,27): message : see declaration of 'PatcherInstance::WriteHexPatch'
E:\DEV\__REPOSITORY__\_h3era_Plugins_\game bug fixes\game bug fixes.cpp(632,37): error C2664: 'Patch *PatcherInstance::WriteHexPatch(_ptr_,char *)': cannot convert argument 2 from 'const char [5]' to 'char *'
E:\DEV\__REPOSITORY__\_h3era_Plugins_\game bug fixes\game bug fixes.cpp(632,31): message : Conversion from string literal loses const qualifier (see /Zc:strictStrings)
E:\DEV\__REPOSITORY__\_h3era_Plugins_\game bug fixes\patcher_x86_commented.hpp(348,27): message : see declaration of 'PatcherInstance::WriteHexPatch'
E:\DEV\__REPOSITORY__\_h3era_Plugins_\game bug fixes\game bug fixes.cpp(636,54): error C2664: 'Patch *PatcherInstance::WriteHexPatch(_ptr_,char *)': cannot convert argument 2 from 'const char [22]' to 'char *'
E:\DEV\__REPOSITORY__\_h3era_Plugins_\game bug fixes\game bug fixes.cpp(636,31): message : Conversion from string literal loses const qualifier (see /Zc:strictStrings)
E:\DEV\__REPOSITORY__\_h3era_Plugins_\game bug fixes\patcher_x86_commented.hpp(348,27): message : see declaration of 'PatcherInstance::WriteHexPatch'
E:\DEV\__REPOSITORY__\_h3era_Plugins_\game bug fixes\game bug fixes.cpp(642,37): error C2664: 'Patch *PatcherInstance::WriteHexPatch(_ptr_,char *)': cannot convert argument 2 from 'const char [5]' to 'char *'
E:\DEV\__REPOSITORY__\_h3era_Plugins_\game bug fixes\game bug fixes.cpp(642,31): message : Conversion from string literal loses const qualifier (see /Zc:strictStrings)
E:\DEV\__REPOSITORY__\_h3era_Plugins_\game bug fixes\patcher_x86_commented.hpp(348,27): message : see declaration of 'PatcherInstance::WriteHexPatch'
E:\DEV\__REPOSITORY__\_h3era_Plugins_\game bug fixes\game bug fixes.cpp(643,37): error C2664: 'Patch *PatcherInstance::WriteHexPatch(_ptr_,char *)': cannot convert argument 2 from 'const char [5]' to 'char *'
E:\DEV\__REPOSITORY__\_h3era_Plugins_\game bug fixes\game bug fixes.cpp(643,31): message : Conversion from string literal loses const qualifier (see /Zc:strictStrings)
E:\DEV\__REPOSITORY__\_h3era_Plugins_\game bug fixes\patcher_x86_commented.hpp(348,27): message : see declaration of 'PatcherInstance::WriteHexPatch'
E:\DEV\__REPOSITORY__\_h3era_Plugins_\game bug fixes\game bug fixes.cpp(697,38): error C2065: 'SAFE_': undeclared identifier
E:\DEV\__REPOSITORY__\_h3era_Plugins_\game bug fixes\game bug fixes.cpp(734,36): error C2065: 'SAFE_': undeclared identifier
E:\DEV\__REPOSITORY__\_h3era_Plugins_\game bug fixes\game bug fixes.cpp(775,44): error C2664: 'PatcherInstance *Patcher::CreateInstance(char *)': cannot convert argument 1 from 'const char [14]' to 'char *'
E:\DEV\__REPOSITORY__\_h3era_Plugins_\game bug fixes\game bug fixes.cpp(775,29): message : Conversion from string literal loses const qualifier (see /Zc:strictStrings)
E:\DEV\__REPOSITORY__\_h3era_Plugins_\game bug fixes\patcher_x86_commented.hpp(615,37): message : see declaration of 'Patcher::CreateInstance'
