^E:\DEV\__REPOSITORY__\_H3ERA_PLUGINS_\SAVEDECORATION\SAVEDECORATION\PCH.CPP
/c /Zi /nologo /W3 /WX- /diagnostics:classic /sdl /O2 /Oi /Oy- /GL /D WIN32 /D NDEBUG /D SAVEDECORATION_EXPORTS /D _WINDOWS /D _USRDLL /D _USING_V110_SDK71_ /D _WINDLL /D _UNICODE /D UNICODE /Gm- /EHsc /MT /GS /Gy /fp:precise /permissive- /Zc:wchar_t /Zc:forScope /Zc:inline /Yc"pch.h" /Fp"RELEASE\SAVEDECORATION.PCH" /Fo"RELEASE\\" /Fd"RELEASE\VC141.PDB" /Gd /TP /analyze- /FC E:\DEV\__REPOSITORY__\_H3ERA_PLUGINS_\SAVEDECORATION\SAVEDECORATION\PCH.CPP
^E:\DEV\__REPOSITORY__\_H3ERA_PLUGINS_\SAVEDECORATION\SAVEDECORATION\DLLMAIN.CPP
/c /Zi /nologo /W3 /WX- /diagnostics:classic /sdl /O2 /Oi /Oy- /GL /D WIN32 /D NDEBUG /D SAVEDECORATION_EXPORTS /D _WINDOWS /D _USRDLL /D _USING_V110_SDK71_ /D _WINDLL /D _UNICODE /D UNICODE /Gm- /EHsc /MT /GS /Gy /fp:precise /permissive- /Zc:wchar_t /Zc:forScope /Zc:inline /Yu"pch.h" /Fp"RELEASE\SAVEDECORATION.PCH" /Fo"RELEASE\\" /Fd"RELEASE\VC141.PDB" /Gd /TP /analyze- /FC E:\DEV\__REPOSITORY__\_H3ERA_PLUGINS_\SAVEDECORATION\SAVEDECORATION\DLLMAIN.CPP
