^C:\USERS\MAJC89\DROPBOX\WORKING CODE\HEROES3.5\_PLUGINS_\EXAMPLE\EXAMPLEPLUGIN.CPP
/c /ZI /nologo /W3 /WX- /sdl /Od /Oy- /D _WINDLL /D _MBCS /Gm /EHsc /RTC1 /MDd /GS /fp:precise /Zc:wchar_t /Zc:forScope /Zc:inline /Fo"DEBUG\\" /Fd"DEBUG\VC140.PDB" /Gd /TP /analyze- C:\USERS\MAJC89\DROPBOX\WORKING CODE\HEROES3.5\_PLUGINS_\EXAMPLE\EXAMPLEPLUGIN.CPP
^F:\_MAJC89\DROPBOX\WORKING CODE\HEROES3.5\_PLUGINS_\TEST EVENTS\EXAMPLEPLUGIN.CPP
/c /ZI /nologo /W3 /WX- /sdl /Od /Oy- /D _WINDLL /D _MBCS /Gm /EHsc /RTC1 /MDd /GS /fp:precise /Zc:wchar_t /Zc:forScope /Zc:inline /Fo"DEBUG\\" /Fd"DEBUG\VC140.PDB" /Gd /TP /analyze- F:\_MAJC89\DROPBOX\WORKING CODE\HEROES3.5\_PLUGINS_\TEST EVENTS\EXAMPLEPLUGIN.CPP
