^C:\USERS\MAJC89\DROPBOX\WORKING CODE\HEROES3.5\_PLUGINS_\EXAMPLE\PROJECT1\DEBUG\EXAMPLEPLUGIN.OBJ
/OUT:"C:\USERS\MAJC89\DROPBOX\WORKING CODE\HEROES3.5\_PLUGINS_\EXAMPLE\PROJECT1\DEBUG\PROJECT1.DLL" /INCREMENTAL /NOLOGO KERNEL32.LIB USER32.LIB GDI32.LIB WINSPOOL.LIB COMDLG32.LIB ADVAPI32.LIB SHELL32.LIB OLE32.LIB OLEAUT32.LIB UUID.LIB ODBC32.LIB ODBCCP32.LIB /MANIFEST /MANIFESTUAC:"level='asInvoker' uiAccess='false'" /manifest:embed /DEBUG:FASTLINK /PDB:"C:\USERS\MAJC89\DROPBOX\WORKING CODE\HEROES3.5\_PLUGINS_\EXAMPLE\PROJECT1\DEBUG\PROJECT1.PDB" /SUBSYSTEM:WINDOWS /TLBID:1 /DYNAMICBASE /NXCOMPAT /IMPLIB:"C:\USERS\MAJC89\DROPBOX\WORKING CODE\HEROES3.5\_PLUGINS_\EXAMPLE\PROJECT1\DEBUG\PROJECT1.LIB" /MACHINE:X86 /DLL DEBUG\EXAMPLEPLUGIN.OBJ
^F:\_MAJC89\DROPBOX\WORKING CODE\HEROES3.5\_PLUGINS_\TEST EVENTS\PROJECT1\DEBUG\EXAMPLEPLUGIN.OBJ
/OUT:"F:\_MAJC89\DROPBOX\WORKING CODE\HEROES3.5\_PLUGINS_\TEST EVENTS\PROJECT1\DEBUG\1EVENTTEST.ERA" /INCREMENTAL /NOLOGO KERNEL32.LIB USER32.LIB GDI32.LIB WINSPOOL.LIB COMDLG32.LIB ADVAPI32.LIB SHELL32.LIB OLE32.LIB OLEAUT32.LIB UUID.LIB ODBC32.LIB ODBCCP32.LIB /MANIFEST /MANIFESTUAC:"level='asInvoker' uiAccess='false'" /manifest:embed /DEBUG:FASTLINK /PDB:"F:\_MAJC89\DROPBOX\WORKING CODE\HEROES3.5\_PLUGINS_\TEST EVENTS\PROJECT1\DEBUG\1EVENTTEST.PDB" /SUBSYSTEM:WINDOWS /TLBID:1 /DYNAMICBASE /NXCOMPAT /IMPLIB:"F:\_MAJC89\DROPBOX\WORKING CODE\HEROES3.5\_PLUGINS_\TEST EVENTS\PROJECT1\DEBUG\1EVENTTEST.LIB" /MACHINE:X86 /DLL DEBUG\EXAMPLEPLUGIN.OBJ
