^C:\Users\MAJC89\Documents\Development\heroes3.5_repo\_Plugins_\Skirmish\Project1\Project1.vcxproj
C:\Users\MAJC89\Documents\Development\heroes3.5_repo\_Plugins_\Skirmish\Project1\Debug\Skirmish.lib
C:\Users\MAJC89\Documents\Development\heroes3.5_repo\_Plugins_\Skirmish\Project1\Debug\Skirmish.exp
^C:\Users\MAJC89\Documents\Development\heroes3.5_repo\_Plugins_\Skirmish\Project1\Project1.vcxproj
C:\Users\MAJC89\Documents\Development\heroes3.5_repo\_Plugins_\Skirmish\Project1\Debug\Skirmish.lib
C:\Users\MAJC89\Documents\Development\heroes3.5_repo\_Plugins_\Skirmish\Project1\Debug\Skirmish.exp
^C:\Users\MAJC89\Documents\Development\heroes3.5_repo\_Plugins_\Skirmish\Project1\Project1.vcxproj
C:\Users\MAJC89\Documents\Development\heroes3.5_repo\_Plugins_\Skirmish\Project1\Debug\Skirmish.lib
C:\Users\MAJC89\Documents\Development\heroes3.5_repo\_Plugins_\Skirmish\Project1\Debug\Skirmish.exp
^C:\Users\MAJC89\Documents\Development\heroes3.5_repo\_Plugins_\Skirmish\Project1\Project1.vcxproj
C:\Users\MAJC89\Documents\Development\heroes3.5_repo\_Plugins_\Skirmish\Project1\Debug\Skirmish.lib
C:\Users\MAJC89\Documents\Development\heroes3.5_repo\_Plugins_\Skirmish\Project1\Debug\Skirmish.exp
^C:\Users\MAJC89\Documents\Development\heroes3.5_repo\_Plugins_\Skirmish\Project1\Project1.vcxproj
C:\Users\MAJC89\Documents\Development\heroes3.5_repo\_Plugins_\Skirmish\Project1\Debug\Skirmish.lib
C:\Users\MAJC89\Documents\Development\heroes3.5_repo\_Plugins_\Skirmish\Project1\Debug\Skirmish.exp
^C:\Users\MAJC89\Documents\Development\heroes3.5_repo\_Plugins_\Skirmish\Project1\Project1.vcxproj
C:\Users\MAJC89\Documents\Development\heroes3.5_repo\_Plugins_\Skirmish\Project1\Debug\Skirmish.lib
C:\Users\MAJC89\Documents\Development\heroes3.5_repo\_Plugins_\Skirmish\Project1\Debug\Skirmish.exp
^C:\Users\MAJC89\Documents\Development\heroes3.5_repo\_Plugins_\Skirmish\Project1\Project1.vcxproj
C:\Users\MAJC89\Documents\Development\heroes3.5_repo\_Plugins_\Skirmish\Project1\Debug\Skirmish.lib
C:\Users\MAJC89\Documents\Development\heroes3.5_repo\_Plugins_\Skirmish\Project1\Debug\Skirmish.exp
^C:\Users\MAJC89\Documents\Development\heroes3.5_repo\_Plugins_\Skirmish\Project1\Project1.vcxproj
C:\Users\MAJC89\Documents\Development\heroes3.5_repo\_Plugins_\Skirmish\Project1\Debug\Skirmish.lib
C:\Users\MAJC89\Documents\Development\heroes3.5_repo\_Plugins_\Skirmish\Project1\Debug\Skirmish.exp
^C:\Users\MAJC89\Documents\Development\heroes3.5_repo\_Plugins_\Skirmish\Project1\Project1.vcxproj
C:\Users\MAJC89\Documents\Development\heroes3.5_repo\_Plugins_\Skirmish\Project1\Debug\Skirmish.lib
C:\Users\MAJC89\Documents\Development\heroes3.5_repo\_Plugins_\Skirmish\Project1\Debug\Skirmish.exp
^C:\Users\MAJC89\Documents\Development\heroes3.5_repo\_Plugins_\Skirmish\Project1\Project1.vcxproj
C:\Users\MAJC89\Documents\Development\heroes3.5_repo\_Plugins_\Skirmish\Project1\Debug\Skirmish.lib
C:\Users\MAJC89\Documents\Development\heroes3.5_repo\_Plugins_\Skirmish\Project1\Debug\Skirmish.exp
^C:\Users\MAJC89\Documents\Development\heroes3.5_repo\_Plugins_\Skirmish\Project1\Project1.vcxproj
C:\Users\MAJC89\Documents\Development\heroes3.5_repo\_Plugins_\Skirmish\Project1\Debug\Skirmish.lib
C:\Users\MAJC89\Documents\Development\heroes3.5_repo\_Plugins_\Skirmish\Project1\Debug\Skirmish.exp
^C:\Users\MAJC89\Documents\Development\heroes3.5_repo\_Plugins_\Skirmish\Project1\Project1.vcxproj
C:\Users\MAJC89\Documents\Development\heroes3.5_repo\_Plugins_\Skirmish\Project1\Debug\Skirmish.lib
C:\Users\MAJC89\Documents\Development\heroes3.5_repo\_Plugins_\Skirmish\Project1\Debug\Skirmish.exp
^C:\Users\MAJC89\Documents\Development\heroes3.5_repo\_Plugins_\Skirmish\Project1\Project1.vcxproj
C:\Users\MAJC89\Documents\Development\heroes3.5_repo\_Plugins_\Skirmish\Project1\Debug\Skirmish.lib
C:\Users\MAJC89\Documents\Development\heroes3.5_repo\_Plugins_\Skirmish\Project1\Debug\Skirmish.exp
^C:\Users\MAJC89\Documents\Development\heroes3.5_repo\_Plugins_\Skirmish\Project1\Project1.vcxproj
C:\Users\MAJC89\Documents\Development\heroes3.5_repo\_Plugins_\Skirmish\Project1\Debug\Skirmish.lib
C:\Users\MAJC89\Documents\Development\heroes3.5_repo\_Plugins_\Skirmish\Project1\Debug\Skirmish.exp
^C:\Users\MAJC89\Documents\Development\heroes3.5_repo\_Plugins_\Skirmish\Project1\Project1.vcxproj
C:\Users\MAJC89\Documents\Development\heroes3.5_repo\_Plugins_\Skirmish\Project1\Debug\Skirmish.lib
C:\Users\MAJC89\Documents\Development\heroes3.5_repo\_Plugins_\Skirmish\Project1\Debug\Skirmish.exp
^C:\Users\MAJC89\Documents\Development\heroes3.5_repo\_Plugins_\Skirmish\Project1\Project1.vcxproj
C:\Users\MAJC89\Documents\Development\heroes3.5_repo\_Plugins_\Skirmish\Project1\Debug\Skirmish.lib
C:\Users\MAJC89\Documents\Development\heroes3.5_repo\_Plugins_\Skirmish\Project1\Debug\Skirmish.exp
^C:\Users\MAJC89\Documents\Development\heroes3.5_repo\_Plugins_\Skirmish\Project1\Project1.vcxproj
C:\Users\MAJC89\Documents\Development\heroes3.5_repo\_Plugins_\Skirmish\Project1\Debug\Skirmish.lib
C:\Users\MAJC89\Documents\Development\heroes3.5_repo\_Plugins_\Skirmish\Project1\Debug\Skirmish.exp
^C:\Users\MAJC89\Documents\Development\heroes3.5_repo\_Plugins_\Skirmish\Project1\Project1.vcxproj
C:\Users\MAJC89\Documents\Development\heroes3.5_repo\_Plugins_\Skirmish\Project1\Debug\Skirmish.lib
C:\Users\MAJC89\Documents\Development\heroes3.5_repo\_Plugins_\Skirmish\Project1\Debug\Skirmish.exp
^C:\Users\MAJC89\Documents\Development\heroes3.5_repo\_Plugins_\Skirmish\Project1\Project1.vcxproj
C:\Users\MAJC89\Documents\Development\heroes3.5_repo\_Plugins_\Skirmish\Project1\Debug\Skirmish.lib
C:\Users\MAJC89\Documents\Development\heroes3.5_repo\_Plugins_\Skirmish\Project1\Debug\Skirmish.exp
^C:\Users\MAJC89\Documents\Development\heroes3.5_repo\_Plugins_\Skirmish\Project1\Project1.vcxproj
C:\Users\MAJC89\Documents\Development\heroes3.5_repo\_Plugins_\Skirmish\Project1\Debug\Skirmish.lib
C:\Users\MAJC89\Documents\Development\heroes3.5_repo\_Plugins_\Skirmish\Project1\Debug\Skirmish.exp
^C:\Users\MAJC89\Documents\Development\heroes3.5_repo\_Plugins_\Skirmish\Project1\Project1.vcxproj
C:\Users\MAJC89\Documents\Development\heroes3.5_repo\_Plugins_\Skirmish\Project1\Debug\Skirmish.lib
C:\Users\MAJC89\Documents\Development\heroes3.5_repo\_Plugins_\Skirmish\Project1\Debug\Skirmish.exp
^C:\Users\MAJC89\Documents\Development\heroes3.5_repo\_Plugins_\Skirmish\Project1\Project1.vcxproj
C:\Users\MAJC89\Documents\Development\heroes3.5_repo\_Plugins_\Skirmish\Project1\Debug\Skirmish.lib
C:\Users\MAJC89\Documents\Development\heroes3.5_repo\_Plugins_\Skirmish\Project1\Debug\Skirmish.exp
^C:\Users\MAJC89\Documents\Development\heroes3.5_repo\_Plugins_\Skirmish\Project1\Project1.vcxproj
C:\Users\MAJC89\Documents\Development\heroes3.5_repo\_Plugins_\Skirmish\Project1\Debug\Skirmish.lib
C:\Users\MAJC89\Documents\Development\heroes3.5_repo\_Plugins_\Skirmish\Project1\Debug\Skirmish.exp
^C:\Users\MAJC89\Documents\Development\heroes3.5_repo\_Plugins_\Skirmish\Project1\Project1.vcxproj
C:\Users\MAJC89\Documents\Development\heroes3.5_repo\_Plugins_\Skirmish\Project1\Debug\Skirmish.lib
C:\Users\MAJC89\Documents\Development\heroes3.5_repo\_Plugins_\Skirmish\Project1\Debug\Skirmish.exp
^C:\Users\MAJC89\Documents\Development\heroes3.5_repo\_Plugins_\Skirmish\Project1\Project1.vcxproj
C:\Users\MAJC89\Documents\Development\heroes3.5_repo\_Plugins_\Skirmish\Project1\Debug\Skirmish.lib
C:\Users\MAJC89\Documents\Development\heroes3.5_repo\_Plugins_\Skirmish\Project1\Debug\Skirmish.exp
^C:\Users\MAJC89\Documents\Development\heroes3.5_repo\_Plugins_\Skirmish\Project1\Project1.vcxproj
C:\Users\MAJC89\Documents\Development\heroes3.5_repo\_Plugins_\Skirmish\Project1\Debug\Skirmish.lib
C:\Users\MAJC89\Documents\Development\heroes3.5_repo\_Plugins_\Skirmish\Project1\Debug\Skirmish.exp
^C:\Users\MAJC89\Documents\Development\heroes3.5_repo\_Plugins_\Skirmish\Project1\Project1.vcxproj
C:\Users\MAJC89\Documents\Development\heroes3.5_repo\_Plugins_\Skirmish\Project1\Debug\Skirmish.lib
C:\Users\MAJC89\Documents\Development\heroes3.5_repo\_Plugins_\Skirmish\Project1\Debug\Skirmish.exp
^C:\Users\MAJC89\Documents\Development\heroes3.5_repo\_Plugins_\Skirmish\Project1\Project1.vcxproj
C:\Users\MAJC89\Documents\Development\heroes3.5_repo\_Plugins_\Skirmish\Project1\Debug\Skirmish.lib
C:\Users\MAJC89\Documents\Development\heroes3.5_repo\_Plugins_\Skirmish\Project1\Debug\Skirmish.exp
^C:\Users\MAJC89\Documents\Development\heroes3.5_repo\_Plugins_\Skirmish\Project1\Project1.vcxproj
C:\Users\MAJC89\Documents\Development\heroes3.5_repo\_Plugins_\Skirmish\Project1\Debug\Skirmish.lib
C:\Users\MAJC89\Documents\Development\heroes3.5_repo\_Plugins_\Skirmish\Project1\Debug\Skirmish.exp
^C:\Users\MAJC89\Documents\Development\heroes3.5_repo\_Plugins_\Skirmish\Project1\Project1.vcxproj
C:\Users\MAJC89\Documents\Development\heroes3.5_repo\_Plugins_\Skirmish\Project1\Debug\Skirmish.lib
C:\Users\MAJC89\Documents\Development\heroes3.5_repo\_Plugins_\Skirmish\Project1\Debug\Skirmish.exp
