^E:\DEV\__REPOSITORY__\_H3ERA_PLUGINS_\SKIRMISH2\SKIRMISH\DATA.CPP|E:\DEV\__REPOSITORY__\_H3ERA_PLUGINS_\SKIRMISH2\SKIRMISH\DLLMAIN.CPP|E:\DEV\__REPOSITORY__\_H3ERA_PLUGINS_\SKIRMISH2\SKIRMISH\__INCLUDE\HEROES.CPP
E:\DEV\__REPOSITORY__\_H3ERA_PLUGINS_\SKIRMISH2\SKIRMISH\RELEASE\VC141.PDB
E:\DEV\__REPOSITORY__\_H3ERA_PLUGINS_\SKIRMISH2\SKIRMISH\RELEASE\DLLMAIN.OBJ
E:\DEV\__REPOSITORY__\_H3ERA_PLUGINS_\SKIRMISH2\SKIRMISH\RELEASE\HEROES.OBJ
E:\DEV\__REPOSITORY__\_H3ERA_PLUGINS_\SKIRMISH2\SKIRMISH\RELEASE\DATA.OBJ
^E:\DEV\__REPOSITORY__\_H3ERA_PLUGINS_\SKIRMISH2\SKIRMISH\__INCLUDE\HEROES.CPP
E:\DEV\__REPOSITORY__\_H3ERA_PLUGINS_\SKIRMISH2\SKIRMISH\RELEASE\VC141.PDB
^E:\DEV\__REPOSITORY__\_H3ERA_PLUGINS_\SKIRMISH2\SKIRMISH\DATA.CPP|E:\DEV\__REPOSITORY__\_H3ERA_PLUGINS_\SKIRMISH2\SKIRMISH\DLLMAIN.CPP
E:\DEV\__REPOSITORY__\_H3ERA_PLUGINS_\SKIRMISH2\SKIRMISH\RELEASE\VC141.PDB
E:\DEV\__REPOSITORY__\_H3ERA_PLUGINS_\SKIRMISH2\SKIRMISH\RELEASE\DLLMAIN.OBJ
E:\DEV\__REPOSITORY__\_H3ERA_PLUGINS_\SKIRMISH2\SKIRMISH\RELEASE\DATA.OBJ
^E:\DEV\__REPOSITORY__\_H3ERA_PLUGINS_\SKIRMISH2\SKIRMISH\DATA.CPP
E:\DEV\__REPOSITORY__\_H3ERA_PLUGINS_\SKIRMISH2\SKIRMISH\RELEASE\VC141.PDB
^E:\DEV\__REPOSITORY__\_H3ERA_PLUGINS_\SKIRMISH2\SKIRMISH\DLLMAIN.CPP
E:\DEV\__REPOSITORY__\_H3ERA_PLUGINS_\SKIRMISH2\SKIRMISH\RELEASE\VC141.PDB
E:\DEV\__REPOSITORY__\_H3ERA_PLUGINS_\SKIRMISH2\SKIRMISH\RELEASE\DLLMAIN.OBJ
