^E:\DEV\__REPOSITORY__\_h3era_Plugins_\Skirmish2\Skirmish\Skirmish.vcxproj
E:\DEV\__REPOSITORY__\_h3era_Plugins_\Skirmish2\Skirmish\Release\Skirmish.MyForm.resources
^E:\DEV\__REPOSITORY__\_h3era_plugins_\Skirmish2\Skirmish\Skirmish.vcxproj
E:\DEV\__REPOSITORY__\_h3era_plugins_\Skirmish2\Skirmish\Release\Skirmish.MyForm.resources
^E:\DEV\__REPOSITORY__\_h3era_plugins_\Skirmish2\Skirmish\Skirmish.vcxproj
E:\DEV\__REPOSITORY__\_h3era_plugins_\Skirmish2\Skirmish\Release\Skirmish.MyForm.resources
^E:\DEV\__REPOSITORY__\_h3era_plugins_\Skirmish2\Skirmish\Skirmish.vcxproj
E:\DEV\__REPOSITORY__\_h3era_plugins_\Skirmish2\Skirmish\Release\Skirmish.MyForm.resources
^E:\DEV\__REPOSITORY__\_h3era_plugins_\Skirmish2\Skirmish\Skirmish.vcxproj
E:\DEV\__REPOSITORY__\_h3era_plugins_\Skirmish2\Skirmish\Release\Skirmish.MyForm.resources
^E:\DEV\__REPOSITORY__\_h3era_plugins_\Skirmish2\Skirmish\Skirmish.vcxproj
E:\DEV\__REPOSITORY__\_h3era_plugins_\Skirmish2\Skirmish\Release\Skirmish.MyForm.resources
^E:\DEV\__REPOSITORY__\_h3era_plugins_\Skirmish2\Skirmish\Skirmish.vcxproj
E:\DEV\__REPOSITORY__\_h3era_plugins_\Skirmish2\Skirmish\Release\Skirmish.MyForm.resources
^E:\DEV\__REPOSITORY__\_h3era_plugins_\Skirmish2\Skirmish\Skirmish.vcxproj
E:\DEV\__REPOSITORY__\_h3era_plugins_\Skirmish2\Skirmish\Release\Skirmish.MyForm.resources
^E:\DEV\__REPOSITORY__\_h3era_plugins_\Skirmish2\Skirmish\Skirmish.vcxproj
E:\DEV\__REPOSITORY__\_h3era_plugins_\Skirmish2\Skirmish\Release\Skirmish.MyForm.resources
^E:\DEV\__REPOSITORY__\_h3era_plugins_\Skirmish2\Skirmish\Skirmish.vcxproj
E:\DEV\__REPOSITORY__\_h3era_plugins_\Skirmish2\Skirmish\Release\Skirmish.MyForm.resources
^E:\DEV\__REPOSITORY__\_h3era_plugins_\Skirmish2\Skirmish\Skirmish.vcxproj
E:\DEV\__REPOSITORY__\_h3era_plugins_\Skirmish2\Skirmish\Release\Skirmish.MyForm.resources
^E:\DEV\__REPOSITORY__\_h3era_Plugins_\Skirmish2\Skirmish\Skirmish.vcxproj
E:\DEV\__REPOSITORY__\_h3era_Plugins_\Skirmish2\Skirmish\Release\Skirmish.MyForm.resources
^E:\DEV\__REPOSITORY__\_h3era_plugins_\Skirmish2\Skirmish\Skirmish.vcxproj
E:\DEV\__REPOSITORY__\_h3era_plugins_\Skirmish2\Skirmish\Release\Skirmish.MyForm.resources
^E:\DEV\__REPOSITORY__\_h3era_plugins_\Skirmish2\Skirmish\Skirmish.vcxproj
E:\DEV\__REPOSITORY__\_h3era_plugins_\Skirmish2\Skirmish\Release\Skirmish.lib
E:\DEV\__REPOSITORY__\_h3era_plugins_\Skirmish2\Skirmish\Release\Skirmish.exp
^E:\DEV\__REPOSITORY__\_h3era_Plugins_\Skirmish2\Skirmish\Skirmish.vcxproj
E:\DEV\__REPOSITORY__\_h3era_Plugins_\Skirmish2\Skirmish\Release\Skirmish.MyForm.resources
^E:\DEV\__REPOSITORY__\_h3era_Plugins_\Skirmish2\Skirmish\Skirmish.vcxproj
E:\DEV\__REPOSITORY__\_h3era_Plugins_\Skirmish2\Skirmish\Release\Skirmish.lib
E:\DEV\__REPOSITORY__\_h3era_Plugins_\Skirmish2\Skirmish\Release\Skirmish.exp
^E:\DEV\__REPOSITORY__\_h3era_Plugins_\Skirmish2\Skirmish\Skirmish.vcxproj
E:\DEV\__REPOSITORY__\_h3era_Plugins_\Skirmish2\Skirmish\Release\Skirmish.MyForm.resources
^E:\DEV\__REPOSITORY__\_h3era_Plugins_\Skirmish2\Skirmish\Skirmish.vcxproj
E:\DEV\__REPOSITORY__\_h3era_Plugins_\Skirmish2\Skirmish\Release\Skirmish.lib
E:\DEV\__REPOSITORY__\_h3era_Plugins_\Skirmish2\Skirmish\Release\Skirmish.exp
^E:\DEV\__REPOSITORY__\_h3era_Plugins_\Skirmish2\Skirmish\Skirmish.vcxproj
E:\DEV\__REPOSITORY__\_h3era_Plugins_\Skirmish2\Skirmish\Release\Skirmish.MyForm.resources
^E:\DEV\__REPOSITORY__\_h3era_Plugins_\Skirmish2\Skirmish\Skirmish.vcxproj
E:\DEV\__REPOSITORY__\_h3era_Plugins_\Skirmish2\Skirmish\Release\Skirmish.lib
E:\DEV\__REPOSITORY__\_h3era_Plugins_\Skirmish2\Skirmish\Release\Skirmish.exp
^E:\DEV\__REPOSITORY__\_h3era_Plugins_\Skirmish2\Skirmish\Skirmish.vcxproj
E:\DEV\__REPOSITORY__\_h3era_Plugins_\Skirmish2\Skirmish\Release\Skirmish.MyForm.resources
^E:\DEV\__REPOSITORY__\_h3era_Plugins_\Skirmish2\Skirmish\Skirmish.vcxproj
E:\DEV\__REPOSITORY__\_h3era_Plugins_\Skirmish2\Skirmish\Release\Skirmish.lib
E:\DEV\__REPOSITORY__\_h3era_Plugins_\Skirmish2\Skirmish\Release\Skirmish.exp
^E:\DEV\__REPOSITORY__\_h3era_Plugins_\Skirmish2\Skirmish\Skirmish.vcxproj
E:\DEV\__REPOSITORY__\_h3era_Plugins_\Skirmish2\Skirmish\Release\Skirmish.MyForm.resources
^E:\DEV\__REPOSITORY__\_h3era_Plugins_\Skirmish2\Skirmish\Skirmish.vcxproj
E:\DEV\__REPOSITORY__\_h3era_Plugins_\Skirmish2\Skirmish\Release\Skirmish.lib
E:\DEV\__REPOSITORY__\_h3era_Plugins_\Skirmish2\Skirmish\Release\Skirmish.exp
^E:\DEV\__REPOSITORY__\_h3era_Plugins_\Skirmish2\Skirmish\Skirmish.vcxproj
E:\DEV\__REPOSITORY__\_h3era_Plugins_\Skirmish2\Skirmish\Release\Skirmish.MyForm.resources
^E:\DEV\__REPOSITORY__\_h3era_Plugins_\Skirmish2\Skirmish\Skirmish.vcxproj
E:\DEV\__REPOSITORY__\_h3era_Plugins_\Skirmish2\Skirmish\Release\Skirmish.lib
E:\DEV\__REPOSITORY__\_h3era_Plugins_\Skirmish2\Skirmish\Release\Skirmish.exp
^E:\DEV\__REPOSITORY__\_h3era_Plugins_\Skirmish2\Skirmish\Skirmish.vcxproj
E:\DEV\__REPOSITORY__\_h3era_Plugins_\Skirmish2\Skirmish\Release\Skirmish.MyForm.resources
^E:\DEV\__REPOSITORY__\_h3era_Plugins_\Skirmish2\Skirmish\Skirmish.vcxproj
E:\DEV\__REPOSITORY__\_h3era_Plugins_\Skirmish2\Skirmish\Release\Skirmish.lib
E:\DEV\__REPOSITORY__\_h3era_Plugins_\Skirmish2\Skirmish\Release\Skirmish.exp
^E:\DEV\__REPOSITORY__\_h3era_Plugins_\Skirmish2\Skirmish\Skirmish.vcxproj
E:\DEV\__REPOSITORY__\_h3era_Plugins_\Skirmish2\Skirmish\Release\Skirmish.MyForm.resources
^E:\DEV\__REPOSITORY__\_h3era_Plugins_\Skirmish2\Skirmish\Skirmish.vcxproj
E:\DEV\__REPOSITORY__\_h3era_Plugins_\Skirmish2\Skirmish\Release\Skirmish.lib
E:\DEV\__REPOSITORY__\_h3era_Plugins_\Skirmish2\Skirmish\Release\Skirmish.exp
^E:\DEV\__REPOSITORY__\_h3era_Plugins_\Skirmish2\Skirmish\Skirmish.vcxproj
E:\DEV\__REPOSITORY__\_h3era_Plugins_\Skirmish2\Skirmish\Release\Skirmish.MyForm.resources
^E:\DEV\__REPOSITORY__\_h3era_Plugins_\Skirmish2\Skirmish\Skirmish.vcxproj
E:\DEV\__REPOSITORY__\_h3era_Plugins_\Skirmish2\Skirmish\Release\Skirmish.lib
E:\DEV\__REPOSITORY__\_h3era_Plugins_\Skirmish2\Skirmish\Release\Skirmish.exp
^E:\DEV\__REPOSITORY__\_h3era_Plugins_\Skirmish2\Skirmish\Skirmish.vcxproj
E:\DEV\__REPOSITORY__\_h3era_Plugins_\Skirmish2\Skirmish\Release\Skirmish.MyForm.resources
^E:\DEV\__REPOSITORY__\_h3era_Plugins_\Skirmish2\Skirmish\Skirmish.vcxproj
E:\DEV\__REPOSITORY__\_h3era_Plugins_\Skirmish2\Skirmish\Release\Skirmish.lib
E:\DEV\__REPOSITORY__\_h3era_Plugins_\Skirmish2\Skirmish\Release\Skirmish.exp
^E:\DEV\__REPOSITORY__\_h3era_Plugins_\Skirmish2\Skirmish\Skirmish.vcxproj
E:\DEV\__REPOSITORY__\_h3era_Plugins_\Skirmish2\Skirmish\Release\Skirmish.MyForm.resources
^E:\DEV\__REPOSITORY__\_h3era_Plugins_\Skirmish2\Skirmish\Skirmish.vcxproj
E:\DEV\__REPOSITORY__\_h3era_Plugins_\Skirmish2\Skirmish\Release\Skirmish.lib
E:\DEV\__REPOSITORY__\_h3era_Plugins_\Skirmish2\Skirmish\Release\Skirmish.exp
^E:\DEV\__REPOSITORY__\_h3era_Plugins_\Skirmish2\Skirmish\Skirmish.vcxproj
E:\DEV\__REPOSITORY__\_h3era_Plugins_\Skirmish2\Skirmish\Release\Skirmish.MyForm.resources
^E:\DEV\__REPOSITORY__\_h3era_Plugins_\Skirmish2\Skirmish\Skirmish.vcxproj
E:\DEV\__REPOSITORY__\_h3era_Plugins_\Skirmish2\Skirmish\Release\Skirmish.lib
E:\DEV\__REPOSITORY__\_h3era_Plugins_\Skirmish2\Skirmish\Release\Skirmish.exp
^E:\DEV\__REPOSITORY__\_h3era_Plugins_\Skirmish2\Skirmish\Skirmish.vcxproj
E:\DEV\__REPOSITORY__\_h3era_Plugins_\Skirmish2\Skirmish\Release\Skirmish.MyForm.resources
^E:\DEV\__REPOSITORY__\_h3era_Plugins_\Skirmish2\Skirmish\Skirmish.vcxproj
E:\DEV\__REPOSITORY__\_h3era_Plugins_\Skirmish2\Skirmish\Release\Skirmish.lib
E:\DEV\__REPOSITORY__\_h3era_Plugins_\Skirmish2\Skirmish\Release\Skirmish.exp
^E:\DEV\__REPOSITORY__\_h3era_Plugins_\Skirmish2\Skirmish\Skirmish.vcxproj
E:\DEV\__REPOSITORY__\_h3era_Plugins_\Skirmish2\Skirmish\Release\Skirmish.MyForm.resources
^E:\DEV\__REPOSITORY__\_h3era_Plugins_\Skirmish2\Skirmish\Skirmish.vcxproj
E:\DEV\__REPOSITORY__\_h3era_Plugins_\Skirmish2\Skirmish\Release\Skirmish.lib
E:\DEV\__REPOSITORY__\_h3era_Plugins_\Skirmish2\Skirmish\Release\Skirmish.exp
^E:\DEV\__REPOSITORY__\_h3era_Plugins_\Skirmish2\Skirmish\Skirmish.vcxproj
E:\DEV\__REPOSITORY__\_h3era_Plugins_\Skirmish2\Skirmish\Release\Skirmish.MyForm.resources
^E:\DEV\__REPOSITORY__\_h3era_Plugins_\Skirmish2\Skirmish\Skirmish.vcxproj
E:\DEV\__REPOSITORY__\_h3era_Plugins_\Skirmish2\Skirmish\Release\Skirmish.lib
E:\DEV\__REPOSITORY__\_h3era_Plugins_\Skirmish2\Skirmish\Release\Skirmish.exp
^E:\DEV\__REPOSITORY__\_h3era_Plugins_\Skirmish2\Skirmish\Skirmish.vcxproj
E:\DEV\__REPOSITORY__\_h3era_Plugins_\Skirmish2\Skirmish\Release\Skirmish.MyForm.resources
^E:\DEV\__REPOSITORY__\_h3era_Plugins_\Skirmish2\Skirmish\Skirmish.vcxproj
E:\DEV\__REPOSITORY__\_h3era_Plugins_\Skirmish2\Skirmish\Release\Skirmish.lib
E:\DEV\__REPOSITORY__\_h3era_Plugins_\Skirmish2\Skirmish\Release\Skirmish.exp
^E:\DEV\__REPOSITORY__\_h3era_Plugins_\Skirmish2\Skirmish\Skirmish.vcxproj
E:\DEV\__REPOSITORY__\_h3era_Plugins_\Skirmish2\Skirmish\Release\Skirmish.MyForm.resources
^E:\DEV\__REPOSITORY__\_h3era_Plugins_\Skirmish2\Skirmish\Skirmish.vcxproj
E:\DEV\__REPOSITORY__\_h3era_Plugins_\Skirmish2\Skirmish\Release\Skirmish.lib
E:\DEV\__REPOSITORY__\_h3era_Plugins_\Skirmish2\Skirmish\Release\Skirmish.exp
^E:\DEV\__REPOSITORY__\_h3era_Plugins_\Skirmish2\Skirmish\Skirmish.vcxproj
E:\DEV\__REPOSITORY__\_h3era_Plugins_\Skirmish2\Skirmish\Release\Skirmish.MyForm.resources
^E:\DEV\__REPOSITORY__\_h3era_Plugins_\Skirmish2\Skirmish\Skirmish.vcxproj
E:\DEV\__REPOSITORY__\_h3era_Plugins_\Skirmish2\Skirmish\Release\Skirmish.lib
E:\DEV\__REPOSITORY__\_h3era_Plugins_\Skirmish2\Skirmish\Release\Skirmish.exp
^E:\DEV\__REPOSITORY__\_h3era_Plugins_\Skirmish2\Skirmish\Skirmish.vcxproj
E:\DEV\__REPOSITORY__\_h3era_Plugins_\Skirmish2\Skirmish\Release\Skirmish.MyForm.resources
^E:\DEV\__REPOSITORY__\_h3era_Plugins_\Skirmish2\Skirmish\Skirmish.vcxproj
E:\DEV\__REPOSITORY__\_h3era_Plugins_\Skirmish2\Skirmish\Release\Skirmish.lib
E:\DEV\__REPOSITORY__\_h3era_Plugins_\Skirmish2\Skirmish\Release\Skirmish.exp
^E:\DEV\__REPOSITORY__\_h3era_Plugins_\Skirmish2\Skirmish\Skirmish.vcxproj
E:\DEV\__REPOSITORY__\_h3era_Plugins_\Skirmish2\Skirmish\Release\Skirmish.MyForm.resources
^E:\DEV\__REPOSITORY__\_h3era_Plugins_\Skirmish2\Skirmish\Skirmish.vcxproj
E:\DEV\__REPOSITORY__\_h3era_Plugins_\Skirmish2\Skirmish\Release\Skirmish.lib
E:\DEV\__REPOSITORY__\_h3era_Plugins_\Skirmish2\Skirmish\Release\Skirmish.exp
^E:\DEV\__REPOSITORY__\_h3era_Plugins_\Skirmish2\Skirmish\Skirmish.vcxproj
E:\DEV\__REPOSITORY__\_h3era_Plugins_\Skirmish2\Skirmish\Release\Skirmish.MyForm.resources
^E:\DEV\__REPOSITORY__\_h3era_Plugins_\Skirmish2\Skirmish\Skirmish.vcxproj
E:\DEV\__REPOSITORY__\_h3era_Plugins_\Skirmish2\Skirmish\Release\Skirmish.lib
E:\DEV\__REPOSITORY__\_h3era_Plugins_\Skirmish2\Skirmish\Release\Skirmish.exp
^E:\DEV\__REPOSITORY__\_h3era_Plugins_\Skirmish2\Skirmish\Skirmish.vcxproj
E:\DEV\__REPOSITORY__\_h3era_Plugins_\Skirmish2\Skirmish\Release\Skirmish.MyForm.resources
^E:\DEV\__REPOSITORY__\_h3era_Plugins_\Skirmish2\Skirmish\Skirmish.vcxproj
E:\DEV\__REPOSITORY__\_h3era_Plugins_\Skirmish2\Skirmish\Release\Skirmish.lib
E:\DEV\__REPOSITORY__\_h3era_Plugins_\Skirmish2\Skirmish\Release\Skirmish.exp
^E:\DEV\__REPOSITORY__\_h3era_Plugins_\Skirmish2\Skirmish\Skirmish.vcxproj
E:\DEV\__REPOSITORY__\_h3era_Plugins_\Skirmish2\Skirmish\Release\Skirmish.MyForm.resources
^E:\DEV\__REPOSITORY__\_h3era_Plugins_\Skirmish2\Skirmish\Skirmish.vcxproj
E:\DEV\__REPOSITORY__\_h3era_Plugins_\Skirmish2\Skirmish\Release\Skirmish.MyForm.resources
^E:\DEV\__REPOSITORY__\_h3era_Plugins_\Skirmish2\Skirmish\Skirmish.vcxproj
E:\DEV\__REPOSITORY__\_h3era_Plugins_\Skirmish2\Skirmish\Release\Skirmish.lib
E:\DEV\__REPOSITORY__\_h3era_Plugins_\Skirmish2\Skirmish\Release\Skirmish.exp
^E:\DEV\__REPOSITORY__\_h3era_Plugins_\Skirmish2\Skirmish\Skirmish.vcxproj
E:\DEV\__REPOSITORY__\_h3era_Plugins_\Skirmish2\Skirmish\Release\Skirmish.MyForm.resources
^E:\DEV\__REPOSITORY__\_h3era_Plugins_\Skirmish2\Skirmish\Skirmish.vcxproj
E:\DEV\__REPOSITORY__\_h3era_Plugins_\Skirmish2\Skirmish\Release\Skirmish.lib
E:\DEV\__REPOSITORY__\_h3era_Plugins_\Skirmish2\Skirmish\Release\Skirmish.exp
^E:\DEV\__REPOSITORY__\_h3era_Plugins_\Skirmish2\Skirmish\Skirmish.vcxproj
E:\DEV\__REPOSITORY__\_h3era_Plugins_\Skirmish2\Skirmish\Release\Skirmish.MyForm.resources
^E:\DEV\__REPOSITORY__\_h3era_Plugins_\Skirmish2\Skirmish\Skirmish.vcxproj
E:\DEV\__REPOSITORY__\_h3era_Plugins_\Skirmish2\Skirmish\Release\Skirmish.lib
E:\DEV\__REPOSITORY__\_h3era_Plugins_\Skirmish2\Skirmish\Release\Skirmish.exp
^E:\DEV\__REPOSITORY__\_h3era_Plugins_\Skirmish2\Skirmish\Skirmish.vcxproj
E:\DEV\__REPOSITORY__\_h3era_Plugins_\Skirmish2\Skirmish\Release\Skirmish.MyForm.resources
^E:\DEV\__REPOSITORY__\_h3era_Plugins_\Skirmish2\Skirmish\Skirmish.vcxproj
E:\DEV\__REPOSITORY__\_h3era_Plugins_\Skirmish2\Skirmish\Release\Skirmish.lib
E:\DEV\__REPOSITORY__\_h3era_Plugins_\Skirmish2\Skirmish\Release\Skirmish.exp
^E:\DEV\__REPOSITORY__\_h3era_Plugins_\Skirmish2\Skirmish\Skirmish.vcxproj
E:\DEV\__REPOSITORY__\_h3era_Plugins_\Skirmish2\Skirmish\Release\Skirmish.MyForm.resources
^E:\DEV\__REPOSITORY__\_h3era_Plugins_\Skirmish2\Skirmish\Skirmish.vcxproj
E:\DEV\__REPOSITORY__\_h3era_Plugins_\Skirmish2\Skirmish\Release\Skirmish.lib
E:\DEV\__REPOSITORY__\_h3era_Plugins_\Skirmish2\Skirmish\Release\Skirmish.exp
^E:\DEV\__REPOSITORY__\_h3era_Plugins_\Skirmish2\Skirmish\Skirmish.vcxproj
E:\DEV\__REPOSITORY__\_h3era_Plugins_\Skirmish2\Skirmish\Release\Skirmish.MyForm.resources
^E:\DEV\__REPOSITORY__\_h3era_Plugins_\Skirmish2\Skirmish\Skirmish.vcxproj
E:\DEV\__REPOSITORY__\_h3era_Plugins_\Skirmish2\Skirmish\Release\Skirmish.lib
E:\DEV\__REPOSITORY__\_h3era_Plugins_\Skirmish2\Skirmish\Release\Skirmish.exp
