^E:\DEV\__REPOSITORY__\_H3ERA_PLUGINS_\MAJACZEK_BUG_FIXES\MAJACZEK_BUG_FIXES\DLLMAIN.CPP|E:\DEV\__REPOSITORY__\_H3ERA_PLUGINS_\MAJACZEK_BUG_FIXES\MAJACZEK_BUG_FIXES\HEROES.CPP
E:\DEV\__REPOSITORY__\_H3ERA_PLUGINS_\MAJACZEK_BUG_FIXES\MAJACZEK_BUG_FIXES\RELEASE\VC141.PDB
^E:\DEV\__REPOSITORY__\_H3ERA_PLUGINS_\MAJACZEK_BUG_FIXES\MAJACZEK_BUG_FIXES\PCH.CPP
E:\DEV\__REPOSITORY__\_H3ERA_PLUGINS_\MAJACZEK_BUG_FIXES\MAJACZEK_BUG_FIXES\RELEASE\MAJACZEK_BUG_FIXES.PCH
E:\DEV\__REPOSITORY__\_H3ERA_PLUGINS_\MAJACZEK_BUG_FIXES\MAJACZEK_BUG_FIXES\RELEASE\VC141.PDB
E:\DEV\__REPOSITORY__\_H3ERA_PLUGINS_\MAJACZEK_BUG_FIXES\MAJACZEK_BUG_FIXES\RELEASE\PCH.OBJ
^E:\DEV\__REPOSITORY__\_H3ERA_PLUGINS_\MAJACZEK_BUG_FIXES\MAJACZEK_BUG_FIXES\CREEXPOFIX.CPP|E:\DEV\__REPOSITORY__\_H3ERA_PLUGINS_\MAJACZEK_BUG_FIXES\MAJACZEK_BUG_FIXES\DLLMAIN.CPP|E:\DEV\__REPOSITORY__\_H3ERA_PLUGINS_\MAJACZEK_BUG_FIXES\MAJACZEK_BUG_FIXES\HEROES.CPP
E:\DEV\__REPOSITORY__\_H3ERA_PLUGINS_\MAJACZEK_BUG_FIXES\MAJACZEK_BUG_FIXES\RELEASE\VC141.PDB
E:\DEV\__REPOSITORY__\_H3ERA_PLUGINS_\MAJACZEK_BUG_FIXES\MAJACZEK_BUG_FIXES\RELEASE\DLLMAIN.OBJ
E:\DEV\__REPOSITORY__\_H3ERA_PLUGINS_\MAJACZEK_BUG_FIXES\MAJACZEK_BUG_FIXES\RELEASE\CREEXPOFIX.OBJ
E:\DEV\__REPOSITORY__\_H3ERA_PLUGINS_\MAJACZEK_BUG_FIXES\MAJACZEK_BUG_FIXES\RELEASE\HEROES.OBJ
^E:\DEV\__REPOSITORY__\_H3ERA_PLUGINS_\MAJACZEK_BUG_FIXES\MAJACZEK_BUG_FIXES\HEROES.CPP
E:\DEV\__REPOSITORY__\_H3ERA_PLUGINS_\MAJACZEK_BUG_FIXES\MAJACZEK_BUG_FIXES\RELEASE\VC141.PDB
^E:\DEV\__REPOSITORY__\_H3ERA_PLUGINS_\MAJACZEK_BUG_FIXES\MAJACZEK_BUG_FIXES\CREEXPOFIX.CPP|E:\DEV\__REPOSITORY__\_H3ERA_PLUGINS_\MAJACZEK_BUG_FIXES\MAJACZEK_BUG_FIXES\DLLMAIN.CPP
E:\DEV\__REPOSITORY__\_H3ERA_PLUGINS_\MAJACZEK_BUG_FIXES\MAJACZEK_BUG_FIXES\RELEASE\VC141.PDB
E:\DEV\__REPOSITORY__\_H3ERA_PLUGINS_\MAJACZEK_BUG_FIXES\MAJACZEK_BUG_FIXES\RELEASE\DLLMAIN.OBJ
E:\DEV\__REPOSITORY__\_H3ERA_PLUGINS_\MAJACZEK_BUG_FIXES\MAJACZEK_BUG_FIXES\RELEASE\CREEXPOFIX.OBJ
^E:\DEV\__REPOSITORY__\_H3ERA_PLUGINS_\MAJACZEK_BUG_FIXES\MAJACZEK_BUG_FIXES\CREEXPOFIX.CPP
E:\DEV\__REPOSITORY__\_H3ERA_PLUGINS_\MAJACZEK_BUG_FIXES\MAJACZEK_BUG_FIXES\RELEASE\VC141.PDB
^E:\DEV\__REPOSITORY__\_H3ERA_PLUGINS_\MAJACZEK_BUG_FIXES\MAJACZEK_BUG_FIXES\DLLMAIN.CPP|E:\DEV\__REPOSITORY__\_H3ERA_PLUGINS_\MAJACZEK_BUG_FIXES\MAJACZEK_BUG_FIXES\H3HEAPFIX.CPP
E:\DEV\__REPOSITORY__\_H3ERA_PLUGINS_\MAJACZEK_BUG_FIXES\MAJACZEK_BUG_FIXES\RELEASE\VC141.PDB
E:\DEV\__REPOSITORY__\_H3ERA_PLUGINS_\MAJACZEK_BUG_FIXES\MAJACZEK_BUG_FIXES\RELEASE\H3HEAPFIX.OBJ
E:\DEV\__REPOSITORY__\_H3ERA_PLUGINS_\MAJACZEK_BUG_FIXES\MAJACZEK_BUG_FIXES\RELEASE\DLLMAIN.OBJ
^E:\DEV\__REPOSITORY__\_H3ERA_PLUGINS_\MAJACZEK_BUG_FIXES\MAJACZEK_BUG_FIXES\DLLMAIN.CPP
E:\DEV\__REPOSITORY__\_H3ERA_PLUGINS_\MAJACZEK_BUG_FIXES\MAJACZEK_BUG_FIXES\RELEASE\VC141.PDB
^E:\DEV\__REPOSITORY__\_H3ERA_PLUGINS_\MAJACZEK_BUG_FIXES\MAJACZEK_BUG_FIXES\H3HEAPFIX.CPP
E:\DEV\__REPOSITORY__\_H3ERA_PLUGINS_\MAJACZEK_BUG_FIXES\MAJACZEK_BUG_FIXES\RELEASE\VC141.PDB
E:\DEV\__REPOSITORY__\_H3ERA_PLUGINS_\MAJACZEK_BUG_FIXES\MAJACZEK_BUG_FIXES\RELEASE\H3HEAPFIX.OBJ
