^E:\DEV\__REPOSITORY__\_H3ERA_PLUGINS_\MAJACZEK_BUG_FIXES\MAJACZEK_BUG_FIXES\RELEASE\DLLMAIN.OBJ|E:\DEV\__REPOSITORY__\_H3ERA_PLUGINS_\MAJACZEK_BUG_FIXES\MAJACZEK_BUG_FIXES\RELEASE\HEROES.OBJ|E:\DEV\__REPOSITORY__\_H3ERA_PLUGINS_\MAJACZEK_BUG_FIXES\MAJACZEK_BUG_FIXES\RELEASE\PCH.OBJ
/OUT:"E:\DEV\__REPOSITORY__\_H3ERA_PLUGINS_\MAJACZEK_BUG_FIXES\MAJACZEK_BUG_FIXES\RELEASE\MAJACZEK_BUG_FIXES.ERA" /INCREMENTAL:NO /NOLOGO KERNEL32.LIB USER32.LIB GDI32.LIB WINSPOOL.LIB COMDLG32.LIB ADVAPI32.LIB SHELL32.LIB OLE32.LIB OLEAUT32.LIB UUID.LIB ODBC32.LIB ODBCCP32.LIB /MANIFEST /MANIFESTUAC:NO /manifest:embed /DEBUG /PDB:"E:\DEV\__REPOSITORY__\_H3ERA_PLUGINS_\MAJACZEK_BUG_FIXES\MAJACZEK_BUG_FIXES\RELEASE\MAJACZEK_BUG_FIXES.PDB" /SUBSYSTEM:WINDOWS,"5.01" /OPT:REF /OPT:ICF /LTCG:incremental /TLBID:1 /DYNAMICBASE /NXCOMPAT /IMPLIB:"E:\DEV\__REPOSITORY__\_H3ERA_PLUGINS_\MAJACZEK_BUG_FIXES\MAJACZEK_BUG_FIXES\RELEASE\MAJACZEK_BUG_FIXES.LIB" /MACHINE:X86 /SAFESEH /DLL RELEASE\DLLMAIN.OBJRELEASE\HEROES.OBJRELEASE\PCH.OBJ
^E:\DEV\__REPOSITORY__\_H3ERA_PLUGINS_\MAJACZEK_BUG_FIXES\MAJACZEK_BUG_FIXES\RELEASE\CREEXPOFIX.OBJ|E:\DEV\__REPOSITORY__\_H3ERA_PLUGINS_\MAJACZEK_BUG_FIXES\MAJACZEK_BUG_FIXES\RELEASE\DLLMAIN.OBJ|E:\DEV\__REPOSITORY__\_H3ERA_PLUGINS_\MAJACZEK_BUG_FIXES\MAJACZEK_BUG_FIXES\RELEASE\H3HEAPFIX.OBJ|E:\DEV\__REPOSITORY__\_H3ERA_PLUGINS_\MAJACZEK_BUG_FIXES\MAJACZEK_BUG_FIXES\RELEASE\HEROES.OBJ|E:\DEV\__REPOSITORY__\_H3ERA_PLUGINS_\MAJACZEK_BUG_FIXES\MAJACZEK_BUG_FIXES\RELEASE\PCH.OBJ
/OUT:"E:\DEV\__REPOSITORY__\_H3ERA_PLUGINS_\MAJACZEK_BUG_FIXES\MAJACZEK_BUG_FIXES\RELEASE\MAJACZEK_BUG_FIXES.ERA" /INCREMENTAL:NO /NOLOGO KERNEL32.LIB USER32.LIB GDI32.LIB WINSPOOL.LIB COMDLG32.LIB ADVAPI32.LIB SHELL32.LIB OLE32.LIB OLEAUT32.LIB UUID.LIB ODBC32.LIB ODBCCP32.LIB /MANIFEST /MANIFESTUAC:NO /manifest:embed /DEBUG /PDB:"E:\DEV\__REPOSITORY__\_H3ERA_PLUGINS_\MAJACZEK_BUG_FIXES\MAJACZEK_BUG_FIXES\RELEASE\MAJACZEK_BUG_FIXES.PDB" /SUBSYSTEM:WINDOWS,"5.01" /OPT:REF /OPT:ICF /LTCG:incremental /TLBID:1 /DYNAMICBASE /NXCOMPAT /IMPLIB:"E:\DEV\__REPOSITORY__\_H3ERA_PLUGINS_\MAJACZEK_BUG_FIXES\MAJACZEK_BUG_FIXES\RELEASE\MAJACZEK_BUG_FIXES.LIB" /MACHINE:X86 /SAFESEH /DLL RELEASE\CREEXPOFIX.OBJRELEASE\DLLMAIN.OBJRELEASE\H3HEAPFIX.OBJRELEASE\HEROES.OBJRELEASE\PCH.OBJ
