^E:\DEV\__REPOSITORY__\_h3era_Plugins_\majaczek_bug_fixes\majaczek_bug_fixes\majaczek_bug_fixes.vcxproj
E:\DEV\__REPOSITORY__\_h3era_Plugins_\majaczek_bug_fixes\majaczek_bug_fixes\Release\majaczek_bug_fixes.ipdb
E:\DEV\__REPOSITORY__\_h3era_Plugins_\majaczek_bug_fixes\majaczek_bug_fixes\Release\majaczek_bug_fixes.iobj
^E:\DEV\__REPOSITORY__\_h3era_plugins_\majaczek_bug_fixes\majaczek_bug_fixes\majaczek_bug_fixes.vcxproj
E:\DEV\__REPOSITORY__\_h3era_plugins_\majaczek_bug_fixes\majaczek_bug_fixes\Release\majaczek_bug_fixes.ipdb
E:\DEV\__REPOSITORY__\_h3era_plugins_\majaczek_bug_fixes\majaczek_bug_fixes\Release\majaczek_bug_fixes.iobj
^E:\DEV\__REPOSITORY__\_h3era_plugins_\majaczek_bug_fixes\majaczek_bug_fixes\majaczek_bug_fixes.vcxproj
E:\DEV\__REPOSITORY__\_h3era_plugins_\majaczek_bug_fixes\majaczek_bug_fixes\Release\majaczek_bug_fixes.ipdb
E:\DEV\__REPOSITORY__\_h3era_plugins_\majaczek_bug_fixes\majaczek_bug_fixes\Release\majaczek_bug_fixes.iobj
^E:\DEV\__REPOSITORY__\_h3era_plugins_\majaczek_bug_fixes\majaczek_bug_fixes\majaczek_bug_fixes.vcxproj
E:\DEV\__REPOSITORY__\_h3era_plugins_\majaczek_bug_fixes\majaczek_bug_fixes\Release\majaczek_bug_fixes.ipdb
E:\DEV\__REPOSITORY__\_h3era_plugins_\majaczek_bug_fixes\majaczek_bug_fixes\Release\majaczek_bug_fixes.iobj
^E:\DEV\__REPOSITORY__\_h3era_plugins_\majaczek_bug_fixes\majaczek_bug_fixes\majaczek_bug_fixes.vcxproj
E:\DEV\__REPOSITORY__\_h3era_plugins_\majaczek_bug_fixes\majaczek_bug_fixes\Release\majaczek_bug_fixes.ipdb
E:\DEV\__REPOSITORY__\_h3era_plugins_\majaczek_bug_fixes\majaczek_bug_fixes\Release\majaczek_bug_fixes.iobj
^E:\DEV\__REPOSITORY__\_h3era_plugins_\majaczek_bug_fixes\majaczek_bug_fixes\majaczek_bug_fixes.vcxproj
E:\DEV\__REPOSITORY__\_h3era_plugins_\majaczek_bug_fixes\majaczek_bug_fixes\Release\majaczek_bug_fixes.ipdb
E:\DEV\__REPOSITORY__\_h3era_plugins_\majaczek_bug_fixes\majaczek_bug_fixes\Release\majaczek_bug_fixes.iobj
^E:\DEV\__REPOSITORY__\_h3era_plugins_\majaczek_bug_fixes\majaczek_bug_fixes\majaczek_bug_fixes.vcxproj
E:\DEV\__REPOSITORY__\_h3era_plugins_\majaczek_bug_fixes\majaczek_bug_fixes\Release\majaczek_bug_fixes.ipdb
E:\DEV\__REPOSITORY__\_h3era_plugins_\majaczek_bug_fixes\majaczek_bug_fixes\Release\majaczek_bug_fixes.iobj
^E:\DEV\__REPOSITORY__\_h3era_plugins_\majaczek_bug_fixes\majaczek_bug_fixes\majaczek_bug_fixes.vcxproj
E:\DEV\__REPOSITORY__\_h3era_plugins_\majaczek_bug_fixes\majaczek_bug_fixes\Release\majaczek_bug_fixes.ipdb
E:\DEV\__REPOSITORY__\_h3era_plugins_\majaczek_bug_fixes\majaczek_bug_fixes\Release\majaczek_bug_fixes.iobj
^E:\DEV\__REPOSITORY__\_h3era_plugins_\majaczek_bug_fixes\majaczek_bug_fixes\majaczek_bug_fixes.vcxproj
E:\DEV\__REPOSITORY__\_h3era_plugins_\majaczek_bug_fixes\majaczek_bug_fixes\Release\majaczek_bug_fixes.ipdb
E:\DEV\__REPOSITORY__\_h3era_plugins_\majaczek_bug_fixes\majaczek_bug_fixes\Release\majaczek_bug_fixes.iobj
^E:\DEV\__REPOSITORY__\_h3era_plugins_\majaczek_bug_fixes\majaczek_bug_fixes\majaczek_bug_fixes.vcxproj
E:\DEV\__REPOSITORY__\_h3era_plugins_\majaczek_bug_fixes\majaczek_bug_fixes\Release\majaczek_bug_fixes.ipdb
E:\DEV\__REPOSITORY__\_h3era_plugins_\majaczek_bug_fixes\majaczek_bug_fixes\Release\majaczek_bug_fixes.iobj
^E:\DEV\__REPOSITORY__\_h3era_plugins_\majaczek_bug_fixes\majaczek_bug_fixes\majaczek_bug_fixes.vcxproj
E:\DEV\__REPOSITORY__\_h3era_plugins_\majaczek_bug_fixes\majaczek_bug_fixes\Release\majaczek_bug_fixes.ipdb
E:\DEV\__REPOSITORY__\_h3era_plugins_\majaczek_bug_fixes\majaczek_bug_fixes\Release\majaczek_bug_fixes.iobj
^E:\DEV\__REPOSITORY__\_h3era_plugins_\majaczek_bug_fixes\majaczek_bug_fixes\majaczek_bug_fixes.vcxproj
E:\DEV\__REPOSITORY__\_h3era_plugins_\majaczek_bug_fixes\majaczek_bug_fixes\Release\majaczek_bug_fixes.ipdb
E:\DEV\__REPOSITORY__\_h3era_plugins_\majaczek_bug_fixes\majaczek_bug_fixes\Release\majaczek_bug_fixes.iobj
^E:\DEV\__REPOSITORY__\_h3era_plugins_\majaczek_bug_fixes\majaczek_bug_fixes\majaczek_bug_fixes.vcxproj
E:\DEV\__REPOSITORY__\_h3era_plugins_\majaczek_bug_fixes\majaczek_bug_fixes\Release\majaczek_bug_fixes.ipdb
E:\DEV\__REPOSITORY__\_h3era_plugins_\majaczek_bug_fixes\majaczek_bug_fixes\Release\majaczek_bug_fixes.iobj
^E:\DEV\__REPOSITORY__\_h3era_plugins_\majaczek_bug_fixes\majaczek_bug_fixes\majaczek_bug_fixes.vcxproj
E:\DEV\__REPOSITORY__\_h3era_plugins_\majaczek_bug_fixes\majaczek_bug_fixes\Release\majaczek_bug_fixes.ipdb
E:\DEV\__REPOSITORY__\_h3era_plugins_\majaczek_bug_fixes\majaczek_bug_fixes\Release\majaczek_bug_fixes.iobj
^E:\DEV\__REPOSITORY__\_h3era_plugins_\majaczek_bug_fixes\majaczek_bug_fixes\majaczek_bug_fixes.vcxproj
E:\DEV\__REPOSITORY__\_h3era_plugins_\majaczek_bug_fixes\majaczek_bug_fixes\Release\majaczek_bug_fixes.ipdb
E:\DEV\__REPOSITORY__\_h3era_plugins_\majaczek_bug_fixes\majaczek_bug_fixes\Release\majaczek_bug_fixes.iobj
^E:\DEV\__REPOSITORY__\_h3era_plugins_\majaczek_bug_fixes\majaczek_bug_fixes\majaczek_bug_fixes.vcxproj
E:\DEV\__REPOSITORY__\_h3era_plugins_\majaczek_bug_fixes\majaczek_bug_fixes\Release\majaczek_bug_fixes.ipdb
E:\DEV\__REPOSITORY__\_h3era_plugins_\majaczek_bug_fixes\majaczek_bug_fixes\Release\majaczek_bug_fixes.iobj
^E:\DEV\__REPOSITORY__\_h3era_plugins_\majaczek_bug_fixes\majaczek_bug_fixes\majaczek_bug_fixes.vcxproj
E:\DEV\__REPOSITORY__\_h3era_plugins_\majaczek_bug_fixes\majaczek_bug_fixes\Release\majaczek_bug_fixes.ipdb
E:\DEV\__REPOSITORY__\_h3era_plugins_\majaczek_bug_fixes\majaczek_bug_fixes\Release\majaczek_bug_fixes.iobj
^E:\DEV\__REPOSITORY__\_h3era_plugins_\majaczek_bug_fixes\majaczek_bug_fixes\majaczek_bug_fixes.vcxproj
E:\DEV\__REPOSITORY__\_h3era_plugins_\majaczek_bug_fixes\majaczek_bug_fixes\Release\majaczek_bug_fixes.ipdb
E:\DEV\__REPOSITORY__\_h3era_plugins_\majaczek_bug_fixes\majaczek_bug_fixes\Release\majaczek_bug_fixes.iobj
^E:\DEV\__REPOSITORY__\_h3era_plugins_\majaczek_bug_fixes\majaczek_bug_fixes\majaczek_bug_fixes.vcxproj
E:\DEV\__REPOSITORY__\_h3era_plugins_\majaczek_bug_fixes\majaczek_bug_fixes\Release\majaczek_bug_fixes.ipdb
E:\DEV\__REPOSITORY__\_h3era_plugins_\majaczek_bug_fixes\majaczek_bug_fixes\Release\majaczek_bug_fixes.iobj
^E:\DEV\__REPOSITORY__\_h3era_plugins_\majaczek_bug_fixes\majaczek_bug_fixes\majaczek_bug_fixes.vcxproj
E:\DEV\__REPOSITORY__\_h3era_plugins_\majaczek_bug_fixes\majaczek_bug_fixes\Release\majaczek_bug_fixes.ipdb
E:\DEV\__REPOSITORY__\_h3era_plugins_\majaczek_bug_fixes\majaczek_bug_fixes\Release\majaczek_bug_fixes.iobj
^E:\DEV\__REPOSITORY__\_h3era_plugins_\majaczek_bug_fixes\majaczek_bug_fixes\majaczek_bug_fixes.vcxproj
E:\DEV\__REPOSITORY__\_h3era_plugins_\majaczek_bug_fixes\majaczek_bug_fixes\Release\majaczek_bug_fixes.ipdb
E:\DEV\__REPOSITORY__\_h3era_plugins_\majaczek_bug_fixes\majaczek_bug_fixes\Release\majaczek_bug_fixes.iobj
^E:\DEV\__REPOSITORY__\_h3era_plugins_\majaczek_bug_fixes\majaczek_bug_fixes\majaczek_bug_fixes.vcxproj
E:\DEV\__REPOSITORY__\_h3era_plugins_\majaczek_bug_fixes\majaczek_bug_fixes\Release\majaczek_bug_fixes.ipdb
E:\DEV\__REPOSITORY__\_h3era_plugins_\majaczek_bug_fixes\majaczek_bug_fixes\Release\majaczek_bug_fixes.iobj
^E:\DEV\__REPOSITORY__\_h3era_plugins_\majaczek_bug_fixes\majaczek_bug_fixes\majaczek_bug_fixes.vcxproj
E:\DEV\__REPOSITORY__\_h3era_plugins_\majaczek_bug_fixes\majaczek_bug_fixes\Release\majaczek_bug_fixes.ipdb
E:\DEV\__REPOSITORY__\_h3era_plugins_\majaczek_bug_fixes\majaczek_bug_fixes\Release\majaczek_bug_fixes.iobj
^E:\DEV\__REPOSITORY__\_h3era_plugins_\majaczek_bug_fixes\majaczek_bug_fixes\majaczek_bug_fixes.vcxproj
E:\DEV\__REPOSITORY__\_h3era_plugins_\majaczek_bug_fixes\majaczek_bug_fixes\Release\majaczek_bug_fixes.ipdb
E:\DEV\__REPOSITORY__\_h3era_plugins_\majaczek_bug_fixes\majaczek_bug_fixes\Release\majaczek_bug_fixes.iobj
^E:\DEV\__REPOSITORY__\_h3era_Plugins_\majaczek_bug_fixes\majaczek_bug_fixes\majaczek_bug_fixes.vcxproj
E:\DEV\__REPOSITORY__\_h3era_Plugins_\majaczek_bug_fixes\majaczek_bug_fixes\Release\majaczek_bug_fixes.ipdb
E:\DEV\__REPOSITORY__\_h3era_Plugins_\majaczek_bug_fixes\majaczek_bug_fixes\Release\majaczek_bug_fixes.iobj
^E:\DEV\__REPOSITORY__\_h3era_Plugins_\majaczek_bug_fixes\majaczek_bug_fixes\majaczek_bug_fixes.vcxproj
E:\DEV\__REPOSITORY__\_h3era_Plugins_\majaczek_bug_fixes\majaczek_bug_fixes\Release\majaczek_bug_fixes.ipdb
E:\DEV\__REPOSITORY__\_h3era_Plugins_\majaczek_bug_fixes\majaczek_bug_fixes\Release\majaczek_bug_fixes.iobj
^E:\DEV\__REPOSITORY__\_h3era_Plugins_\majaczek_bug_fixes\majaczek_bug_fixes\majaczek_bug_fixes.vcxproj
E:\DEV\__REPOSITORY__\_h3era_Plugins_\majaczek_bug_fixes\majaczek_bug_fixes\Release\majaczek_bug_fixes.ipdb
E:\DEV\__REPOSITORY__\_h3era_Plugins_\majaczek_bug_fixes\majaczek_bug_fixes\Release\majaczek_bug_fixes.iobj
^E:\DEV\__REPOSITORY__\_h3era_Plugins_\majaczek_bug_fixes\majaczek_bug_fixes\majaczek_bug_fixes.vcxproj
E:\DEV\__REPOSITORY__\_h3era_Plugins_\majaczek_bug_fixes\majaczek_bug_fixes\Release\majaczek_bug_fixes.ipdb
E:\DEV\__REPOSITORY__\_h3era_Plugins_\majaczek_bug_fixes\majaczek_bug_fixes\Release\majaczek_bug_fixes.iobj
^E:\DEV\__REPOSITORY__\_h3era_Plugins_\majaczek_bug_fixes\majaczek_bug_fixes\majaczek_bug_fixes.vcxproj
E:\DEV\__REPOSITORY__\_h3era_Plugins_\majaczek_bug_fixes\majaczek_bug_fixes\Release\majaczek_bug_fixes.ipdb
E:\DEV\__REPOSITORY__\_h3era_Plugins_\majaczek_bug_fixes\majaczek_bug_fixes\Release\majaczek_bug_fixes.iobj
^E:\DEV\__REPOSITORY__\_h3era_Plugins_\majaczek_bug_fixes\majaczek_bug_fixes\majaczek_bug_fixes.vcxproj
E:\DEV\__REPOSITORY__\_h3era_Plugins_\majaczek_bug_fixes\majaczek_bug_fixes\Release\majaczek_bug_fixes.ipdb
E:\DEV\__REPOSITORY__\_h3era_Plugins_\majaczek_bug_fixes\majaczek_bug_fixes\Release\majaczek_bug_fixes.iobj
^E:\DEV\__REPOSITORY__\_h3era_Plugins_\majaczek_bug_fixes\majaczek_bug_fixes\majaczek_bug_fixes.vcxproj
E:\DEV\__REPOSITORY__\_h3era_Plugins_\majaczek_bug_fixes\majaczek_bug_fixes\Release\majaczek_bug_fixes.ipdb
E:\DEV\__REPOSITORY__\_h3era_Plugins_\majaczek_bug_fixes\majaczek_bug_fixes\Release\majaczek_bug_fixes.iobj
^E:\DEV\__REPOSITORY__\_h3era_Plugins_\majaczek_bug_fixes\majaczek_bug_fixes\majaczek_bug_fixes.vcxproj
E:\DEV\__REPOSITORY__\_h3era_Plugins_\majaczek_bug_fixes\majaczek_bug_fixes\Release\majaczek_bug_fixes.ipdb
E:\DEV\__REPOSITORY__\_h3era_Plugins_\majaczek_bug_fixes\majaczek_bug_fixes\Release\majaczek_bug_fixes.iobj
^E:\DEV\__REPOSITORY__\_h3era_Plugins_\majaczek_bug_fixes\majaczek_bug_fixes\majaczek_bug_fixes.vcxproj
E:\DEV\__REPOSITORY__\_h3era_Plugins_\majaczek_bug_fixes\majaczek_bug_fixes\Release\majaczek_bug_fixes.ipdb
E:\DEV\__REPOSITORY__\_h3era_Plugins_\majaczek_bug_fixes\majaczek_bug_fixes\Release\majaczek_bug_fixes.iobj
^E:\DEV\__REPOSITORY__\_h3era_Plugins_\majaczek_bug_fixes\majaczek_bug_fixes\majaczek_bug_fixes.vcxproj
E:\DEV\__REPOSITORY__\_h3era_Plugins_\majaczek_bug_fixes\majaczek_bug_fixes\Release\majaczek_bug_fixes.ipdb
E:\DEV\__REPOSITORY__\_h3era_Plugins_\majaczek_bug_fixes\majaczek_bug_fixes\Release\majaczek_bug_fixes.iobj
^E:\DEV\__REPOSITORY__\_h3era_Plugins_\majaczek_bug_fixes\majaczek_bug_fixes\majaczek_bug_fixes.vcxproj
E:\DEV\__REPOSITORY__\_h3era_Plugins_\majaczek_bug_fixes\majaczek_bug_fixes\Release\majaczek_bug_fixes.ipdb
E:\DEV\__REPOSITORY__\_h3era_Plugins_\majaczek_bug_fixes\majaczek_bug_fixes\Release\majaczek_bug_fixes.iobj
^E:\DEV\__REPOSITORY__\_h3era_Plugins_\majaczek_bug_fixes\majaczek_bug_fixes\majaczek_bug_fixes.vcxproj
E:\DEV\__REPOSITORY__\_h3era_Plugins_\majaczek_bug_fixes\majaczek_bug_fixes\Release\majaczek_bug_fixes.ipdb
E:\DEV\__REPOSITORY__\_h3era_Plugins_\majaczek_bug_fixes\majaczek_bug_fixes\Release\majaczek_bug_fixes.iobj
