^E:\DEV\__REPOSITORY__\_H3ERA_PLUGINS_\MORE_SS_LEVELS\DLLMAIN.CPP|E:\DEV\__REPOSITORY__\_H3ERA_PLUGINS_\MORE_SS_LEVELS\HEROES.CPP
E:\DEV\__REPOSITORY__\_H3ERA_PLUGINS_\MORE_SS_LEVELS\DEBUG\VC142.PDB
E:\DEV\__REPOSITORY__\_H3ERA_PLUGINS_\MORE_SS_LEVELS\DEBUG\VC142.IDB
E:\DEV\__REPOSITORY__\_H3ERA_PLUGINS_\MORE_SS_LEVELS\DEBUG\HEROES.OBJ
E:\DEV\__REPOSITORY__\_H3ERA_PLUGINS_\MORE_SS_LEVELS\DEBUG\DLLMAIN.OBJ
^E:\DEV\__REPOSITORY__\_H3ERA_PLUGINS_\MORE_SS_LEVELS\HEROES.CPP
E:\DEV\__REPOSITORY__\_H3ERA_PLUGINS_\MORE_SS_LEVELS\DEBUG\VC142.PDB
^E:\DEV\__REPOSITORY__\_H3ERA_PLUGINS_\MORE_SS_LEVELS\DLLMAIN.CPP|E:\DEV\__REPOSITORY__\_H3ERA_PLUGINS_\MORE_SS_LEVELS\SHOW_HERO_SS_ICONS.CPP
E:\DEV\__REPOSITORY__\_H3ERA_PLUGINS_\MORE_SS_LEVELS\DEBUG\VC142.PDB
E:\DEV\__REPOSITORY__\_H3ERA_PLUGINS_\MORE_SS_LEVELS\DEBUG\VC142.IDB
E:\DEV\__REPOSITORY__\_H3ERA_PLUGINS_\MORE_SS_LEVELS\DEBUG\DLLMAIN.OBJ
^E:\DEV\__REPOSITORY__\_H3ERA_PLUGINS_\MORE_SS_LEVELS\SHOW_HERO_SS_ICONS.CPP
E:\DEV\__REPOSITORY__\_H3ERA_PLUGINS_\MORE_SS_LEVELS\DEBUG\VC142.PDB
E:\DEV\__REPOSITORY__\_H3ERA_PLUGINS_\MORE_SS_LEVELS\DEBUG\VC142.IDB
E:\DEV\__REPOSITORY__\_H3ERA_PLUGINS_\MORE_SS_LEVELS\DEBUG\SHOW_HERO_SS_ICONS.OBJ
^E:\DEV\__REPOSITORY__\_H3ERA_PLUGINS_\MORE_SS_LEVELS\DLLMAIN.CPP
E:\DEV\__REPOSITORY__\_H3ERA_PLUGINS_\MORE_SS_LEVELS\DEBUG\VC142.PDB
E:\DEV\__REPOSITORY__\_H3ERA_PLUGINS_\MORE_SS_LEVELS\DEBUG\VC142.IDB
E:\DEV\__REPOSITORY__\_H3ERA_PLUGINS_\MORE_SS_LEVELS\DEBUG\DLLMAIN.OBJ
