^E:\DEV\__REPOSITORY__\_H3ERA_PLUGINS_\MORE_SS_LEVELS\DEBUG\DLLMAIN.OBJ|E:\DEV\__REPOSITORY__\_H3ERA_PLUGINS_\MORE_SS_LEVELS\DEBUG\HEROES.OBJ|E:\DEV\__REPOSITORY__\_H3ERA_PLUGINS_\MORE_SS_LEVELS\DEBUG\SHOW_HERO_SS_ICONS.OBJ
/OUT:"E:\DEV\__REPOSITORY__\_H3ERA_PLUGINS_\MORE_SS_LEVELS\DEBUG\MORE_SS_LEVELS.DLL" /INCREMENTAL /NOLOGO KERNEL32.LIB USER32.LIB GDI32.LIB WINSPOOL.LIB COMDLG32.LIB ADVAPI32.LIB SHELL32.LIB OLE32.LIB OLEAUT32.LIB UUID.LIB ODBC32.LIB ODBCCP32.LIB /MANIFEST /MANIFESTUAC:NO /manifest:embed /DEBUG:FASTLINK /PDB:"E:\DEV\__REPOSITORY__\_H3ERA_PLUGINS_\MORE_SS_LEVELS\DEBUG\MORE_SS_LEVELS.PDB" /SUBSYSTEM:WINDOWS /TLBID:1 /DYNAMICBASE /NXCOMPAT /IMPLIB:"E:\DEV\__REPOSITORY__\_H3ERA_PLUGINS_\MORE_SS_LEVELS\DEBUG\MORE_SS_LEVELS.LIB" /MACHINE:X86 /DLL DEBUG\DLLMAIN.OBJ
DEBUG\HEROES.OBJ
DEBUG\SHOW_HERO_SS_ICONS.OBJ
