; Applies to = Memory
; Generator  = BinMagic
0071804A 81E1FF030000C1E116
00718059 25FFFF3F00
00718408 C1E81625FF030000
00718422 81E2FF030000C1E216
00718431 81E1FFFF3F00
00718445 25FF030000C1E016
00718453 81E2FFFF3F00
0071853C C1E91681E1FF030000
007192D5 C1EA1681E2FF030000
00719306 25FF030000C1E016
0071943C C1EA1681E2FF030000
00719475 C1E91681E1FF030000
00726D71 81E1FF030000C1E116
00726D80 25FFFF3F00
00726DAB C1E81625FF030000
00727302 25FF030000C1E016
00727310 81E2FFFF3F00
0072748C 81E2FF030000C1E216
0072749B 81E1FFFF3F00
00727878 C1E91681E1FF030000
00727B4C C1E91681E1FF030000
00727C87 C1E91681E1FF030000
00727CC7 C1E91681E1FF030000
0073CA99 C1E81625FF030000
0073CAC5 25FF030000C1E016
0073CAD0 81E1FFFF3F00
0073CB2B C1E81625FF030000
0073CBBB 25FF030000C1E016
0073CBC6 81E1FFFF3F00
00762137 81E2FF030000C1E216
00762146 81E1FFFF3F00
00766545 C1E81625FF030000
00766567 25FF030000C1E016
00766575 81E2FFFF3F00
00766724 C1E91681E1FF030000
00766743 81E1FF030000C1E116
00766752 25FFFF3F00
