^E:\DEV\__REPOSITORY__\_H3ERA_PLUGINS_\SPEED4DIOZIA\SPEED4DIOZIA\PCH.CPP
E:\DEV\__REPOSITORY__\_H3ERA_PLUGINS_\SPEED4DIOZIA\SPEED4DIOZIA\RELEASE\SPEED4DIOZIA.PCH
E:\DEV\__REPOSITORY__\_H3ERA_PLUGINS_\SPEED4DIOZIA\SPEED4DIOZIA\RELEASE\VC142.PDB
E:\DEV\__REPOSITORY__\_H3ERA_PLUGINS_\SPEED4DIOZIA\SPEED4DIOZIA\RELEASE\PCH.OBJ
E:\DEV\__REPOSITORY__\_H3ERA_PLUGINS_\SPEED4DIOZIA\SPEED4DIOZIA\RELEASE\VC141.PDB
^E:\DEV\__REPOSITORY__\_H3ERA_PLUGINS_\SPEED4DIOZIA\SPEED4DIOZIA\DLLMAIN.CPP
E:\DEV\__REPOSITORY__\_H3ERA_PLUGINS_\SPEED4DIOZIA\SPEED4DIOZIA\RELEASE\VC142.PDB
E:\DEV\__REPOSITORY__\_H3ERA_PLUGINS_\SPEED4DIOZIA\SPEED4DIOZIA\RELEASE\DLLMAIN.OBJ
E:\DEV\__REPOSITORY__\_H3ERA_PLUGINS_\SPEED4DIOZIA\SPEED4DIOZIA\RELEASE\VC141.PDB
