^E:\DEV\__REPOSITORY__\_H3ERA_PLUGINS_\SPEED4DIOZIA\SPEED4DIOZIA\RELEASE\DLLMAIN.OBJ|E:\DEV\__REPOSITORY__\_H3ERA_PLUGINS_\SPEED4DIOZIA\SPEED4DIOZIA\RELEASE\PCH.OBJ
E:\DEV\__REPOSITORY__\_H3ERA_PLUGINS_\SPEED4DIOZIA\SPEED4DIOZIA\RELEASE\SPEED4DIOZIA.DLL
E:\DEV\__REPOSITORY__\_H3ERA_PLUGINS_\SPEED4DIOZIA\SPEED4DIOZIA\RELEASE\SPEED4DIOZIA.PDB
