^E:\DEV\__REPOSITORY__\_H3ERA_PLUGINS_\SPEED4DIOZIA\SPEED4DIOZIA\RELEASE\DLLMAIN.OBJ|E:\DEV\__REPOSITORY__\_H3ERA_PLUGINS_\SPEED4DIOZIA\SPEED4DIOZIA\RELEASE\PCH.OBJ
D:\WINDOWS KITS\10\LIB\10.0.19041.0\UM\X86\KERNEL32.LIB
D:\WINDOWS KITS\10\LIB\10.0.19041.0\UM\X86\USER32.LIB
D:\WINDOWS KITS\10\LIB\10.0.19041.0\UM\X86\GDI32.LIB
D:\WINDOWS KITS\10\LIB\10.0.19041.0\UM\X86\WINSPOOL.LIB
D:\WINDOWS KITS\10\LIB\10.0.19041.0\UM\X86\COMDLG32.LIB
D:\WINDOWS KITS\10\LIB\10.0.19041.0\UM\X86\ADVAPI32.LIB
D:\WINDOWS KITS\10\LIB\10.0.19041.0\UM\X86\SHELL32.LIB
D:\WINDOWS KITS\10\LIB\10.0.19041.0\UM\X86\OLE32.LIB
D:\WINDOWS KITS\10\LIB\10.0.19041.0\UM\X86\OLEAUT32.LIB
D:\WINDOWS KITS\10\LIB\10.0.19041.0\UM\X86\UUID.LIB
D:\WINDOWS KITS\10\LIB\10.0.19041.0\UM\X86\ODBC32.LIB
D:\WINDOWS KITS\10\LIB\10.0.19041.0\UM\X86\ODBCCP32.LIB
E:\DEV\__REPOSITORY__\_H3ERA_PLUGINS_\SPEED4DIOZIA\SPEED4DIOZIA\RELEASE\DLLMAIN.OBJ
E:\DEV\__REPOSITORY__\_H3ERA_PLUGINS_\SPEED4DIOZIA\SPEED4DIOZIA\RELEASE\PCH.OBJ
C:\WINDOWS\GLOBALIZATION\SORTING\SORTDEFAULT.NLS
C:\PROGRAM FILES (X86)\MICROSOFT VISUAL STUDIO\2019\COMMUNITY\VC\TOOLS\MSVC\14.29.30133\BIN\HOSTX86\X86\C2.DLL
C:\PROGRAM FILES (X86)\MICROSOFT VISUAL STUDIO\2019\COMMUNITY\VC\TOOLS\MSVC\14.29.30133\LIB\X86\MSVCRT.LIB
C:\PROGRAM FILES (X86)\MICROSOFT VISUAL STUDIO\2019\COMMUNITY\VC\TOOLS\MSVC\14.29.30133\LIB\X86\OLDNAMES.LIB
C:\PROGRAM FILES (X86)\MICROSOFT VISUAL STUDIO\2019\COMMUNITY\VC\TOOLS\MSVC\14.29.30133\LIB\X86\VCRUNTIME.LIB
D:\WINDOWS KITS\10\LIB\10.0.19041.0\UCRT\X86\UCRT.LIB
C:\WINDOWS\SYSTEM32\TZRES.DLL
C:\PROGRAM FILES (X86)\MICROSOFT VISUAL STUDIO\2019\COMMUNITY\VC\TOOLS\MSVC\14.29.30133\BIN\HOSTX86\X86\1033\LINKUI.DLL
C:\PROGRAM FILES (X86)\MICROSOFT VISUAL STUDIO\2019\COMMUNITY\VC\TOOLS\MSVC\14.29.30133\BIN\HOSTX86\X86\CVTRES.EXE
C:\PROGRAM FILES (X86)\MICROSOFT VISUAL STUDIO\2019\COMMUNITY\VC\TOOLS\MSVC\14.29.30133\BIN\HOSTX86\X86\MSPDBSRV.EXE
C:\PROGRAM FILES (X86)\MICROSOFT SDKS\WINDOWS\V7.1A\LIB\KERNEL32.LIB
C:\PROGRAM FILES (X86)\MICROSOFT SDKS\WINDOWS\V7.1A\LIB\USER32.LIB
C:\PROGRAM FILES (X86)\MICROSOFT SDKS\WINDOWS\V7.1A\LIB\GDI32.LIB
C:\PROGRAM FILES (X86)\MICROSOFT SDKS\WINDOWS\V7.1A\LIB\WINSPOOL.LIB
C:\PROGRAM FILES (X86)\MICROSOFT SDKS\WINDOWS\V7.1A\LIB\COMDLG32.LIB
C:\PROGRAM FILES (X86)\MICROSOFT SDKS\WINDOWS\V7.1A\LIB\ADVAPI32.LIB
C:\PROGRAM FILES (X86)\MICROSOFT SDKS\WINDOWS\V7.1A\LIB\SHELL32.LIB
C:\PROGRAM FILES (X86)\MICROSOFT SDKS\WINDOWS\V7.1A\LIB\OLE32.LIB
C:\PROGRAM FILES (X86)\MICROSOFT SDKS\WINDOWS\V7.1A\LIB\OLEAUT32.LIB
C:\PROGRAM FILES (X86)\MICROSOFT SDKS\WINDOWS\V7.1A\LIB\UUID.LIB
C:\PROGRAM FILES (X86)\MICROSOFT SDKS\WINDOWS\V7.1A\LIB\ODBC32.LIB
C:\PROGRAM FILES (X86)\MICROSOFT SDKS\WINDOWS\V7.1A\LIB\ODBCCP32.LIB
C:\PROGRAM FILES\MICROSOFT VISUAL STUDIO\2022\COMMUNITY\VC\TOOLS\MSVC\14.16.27023\BIN\HOSTX86\X86\C2.DLL
C:\PROGRAM FILES\MICROSOFT VISUAL STUDIO\2022\COMMUNITY\VC\TOOLS\MSVC\14.16.27023\LIB\X86\LIBCPMT.LIB
C:\PROGRAM FILES\MICROSOFT VISUAL STUDIO\2022\COMMUNITY\VC\TOOLS\MSVC\14.16.27023\LIB\X86\LIBCMT.LIB
C:\PROGRAM FILES\MICROSOFT VISUAL STUDIO\2022\COMMUNITY\VC\TOOLS\MSVC\14.16.27023\LIB\X86\OLDNAMES.LIB
C:\PROGRAM FILES\MICROSOFT VISUAL STUDIO\2022\COMMUNITY\VC\TOOLS\MSVC\14.16.27023\LIB\X86\LIBVCRUNTIME.LIB
D:\WINDOWS KITS\10\LIB\10.0.10240.0\UCRT\X86\LIBUCRT.LIB
C:\PROGRAM FILES\MICROSOFT VISUAL STUDIO\2022\COMMUNITY\VC\TOOLS\MSVC\14.16.27023\BIN\HOSTX86\X86\1045\LINKUI.DLL
C:\PROGRAM FILES (X86)\MICROSOFT SDKS\WINDOWS\V7.1A\BIN\RC.EXE
C:\PROGRAM FILES\MICROSOFT VISUAL STUDIO\2022\COMMUNITY\VC\TOOLS\MSVC\14.16.27023\BIN\HOSTX86\X86\CVTRES.EXE
