^C:\USERS\MAJC89\DOCUMENTS\DEVELOPMENT\HEROES3.5_REPO\_PLUGINS_\NEW_WAR_MACHINES\MACHINES.CPP
/c /ZI /nologo /W3 /WX- /sdl /Od /Oy- /D _WINDLL /D _MBCS /Gm /EHsc /RTC1 /MDd /GS /fp:precise /Zc:wchar_t /Zc:forScope /Zc:inline /Fo"DEBUG\\" /Fd"DEBUG\VC140.PDB" /Gd /TP /analyze- C:\USERS\MAJC89\DOCUMENTS\DEVELOPMENT\HEROES3.5_REPO\_PLUGINS_\NEW_WAR_MACHINES\MACHINES.CPP
^C:\USERS\MAJC89\DOCUMENTS\DEVELOPMENT\HEROES3.5_REPO\_PLUGINS_\NEW_WAR_MACHINES\PUTSTACK.CPP
/c /ZI /nologo /W3 /WX- /sdl /Od /Oy- /D _WINDLL /D _MBCS /Gm /EHsc /RTC1 /MDd /GS /fp:precise /Zc:wchar_t /Zc:forScope /Zc:inline /Fo"DEBUG\\" /Fd"DEBUG\VC140.PDB" /Gd /TP /analyze- C:\USERS\MAJC89\DOCUMENTS\DEVELOPMENT\HEROES3.5_REPO\_PLUGINS_\NEW_WAR_MACHINES\PUTSTACK.CPP
^F:\__REPOSITORY__\KNIGHTMARE_KINGDOMS\_PLUGINS_\NEW_WAR_MACHINES\MACHINES.CPP
/c /ZI /nologo /W3 /WX- /sdl /Od /Oy- /D _WINDLL /D _MBCS /Gm /EHsc /RTC1 /MDd /GS /fp:precise /Zc:wchar_t /Zc:forScope /Zc:inline /Fo"DEBUG\\" /Fd"DEBUG\VC140.PDB" /Gd /TP /analyze- F:\__REPOSITORY__\KNIGHTMARE_KINGDOMS\_PLUGINS_\NEW_WAR_MACHINES\MACHINES.CPP
^F:\__REPOSITORY__\KNIGHTMARE_KINGDOMS\_PLUGINS_\NEW_WAR_MACHINES\PUTSTACK.CPP
/c /ZI /nologo /W3 /WX- /sdl /Od /Oy- /D _WINDLL /D _MBCS /Gm /EHsc /RTC1 /MDd /GS /fp:precise /Zc:wchar_t /Zc:forScope /Zc:inline /Fo"DEBUG\\" /Fd"DEBUG\VC140.PDB" /Gd /TP /analyze- F:\__REPOSITORY__\KNIGHTMARE_KINGDOMS\_PLUGINS_\NEW_WAR_MACHINES\PUTSTACK.CPP
