^E:\DEV\__REPOSITORY__\_H3ERA_PLUGINS_\AMEEDIT\AMEEDIT\AMEEDIT.RC
/D _UNICODE /D UNICODE /l"0x0409" /nologo /fo"RELEASE\AMEEDIT.RES"  E:\DEV\__REPOSITORY__\_H3ERA_PLUGINS_\AMEEDIT\AMEEDIT\AMEEDIT.RC
^C:\DEV\H3ERA_PLUGINS\_H3ERA_PLUGINS_\AMEEDIT\AMEEDIT\AMEEDIT.RC
/D _UNICODE /D UNICODE /l"0x0409" /nologo /fo"RELEASE\AMEEDIT.RES"  C:\DEV\H3ERA_PLUGINS\_H3ERA_PLUGINS_\AMEEDIT\AMEEDIT\AMEEDIT.RC
