^E:\DEV\__REPOSITORY__\_H3ERA_PLUGINS_\AMEEDIT\AMEEDIT\MYFORM.RESX
E:\DEV\__REPOSITORY__\_H3ERA_PLUGINS_\AMEEDIT\AMEEDIT\AMEEDIT.VCXPROJ
^E:\DEV\__REPOSITORY__\_H3ERA_PLUGINS_\AMEEDIT\AMEEDIT\MYFORM.EN-US.RESX
E:\DEV\__REPOSITORY__\_H3ERA_PLUGINS_\AMEEDIT\AMEEDIT\AMEEDIT.VCXPROJ
^E:\DEV\__REPOSITORY__\_H3ERA_PLUGINS_\AMEEDIT\AMEEDIT\MYFORM.EN.RESX
E:\DEV\__REPOSITORY__\_H3ERA_PLUGINS_\AMEEDIT\AMEEDIT\AMEEDIT.VCXPROJ
^E:\DEV\__REPOSITORY__\_H3ERA_PLUGINS_\AMEEDIT\AMEEDIT\MYFORM.RESX
E:\DEV\__REPOSITORY__\_H3ERA_PLUGINS_\AMEEDIT\AMEEDIT\AMEEDIT.VCXPROJ
^E:\DEV\__REPOSITORY__\_H3ERA_PLUGINS_\AMEEDIT\AMEEDIT\MYFORM.EN-US.RESX
E:\DEV\__REPOSITORY__\_H3ERA_PLUGINS_\AMEEDIT\AMEEDIT\AMEEDIT.VCXPROJ
^E:\DEV\__REPOSITORY__\_H3ERA_PLUGINS_\AMEEDIT\AMEEDIT\MYFORM.EN.RESX
E:\DEV\__REPOSITORY__\_H3ERA_PLUGINS_\AMEEDIT\AMEEDIT\AMEEDIT.VCXPROJ
