#Command: "C:\Program Files (x86)\Microsoft Visual Studio\2019\Community\VC\Tools\MSVC\14.25.28610\bin\HostX86\x86\link.exe" /ERRORREPORT:PROMPT "@C:\Users\Yuji Sakai\AppData\Local\Temp\tmpe6a2f0a83ada426abbcf98dbb9f3668d.rsp"
^E:\DEV\__REPOSITORY__\_H3ERA_PLUGINS_\GUI_TRICKS\GUI_TRICKS\RELEASE\__PLUGIN.OBJ
C:\USERS\YUJISA~1\APPDATA\LOCAL\TEMP\LNK{B5F1582F-82CD-4C54-83B1-6C5168F49266}.TMP
