^E:\DEV\__REPOSITORY__\_H3ERA_PLUGINS_\RESERVE_SLOTS\PCH.CPP
C:\WINDOWS\GLOBALIZATION\SORTING\SORTDEFAULT.NLS
C:\PROGRAM FILES\MICROSOFT VISUAL STUDIO\2022\COMMUNITY\VC\TOOLS\MSVC\14.37.32822\BIN\HOSTX86\X86\1033\CLUI.DLL
C:\WINDOWS\SYSTEM32\TZRES.DLL
E:\DEV\__REPOSITORY__\_H3ERA_PLUGINS_\RESERVE_SLOTS\PCH.H
E:\DEV\__REPOSITORY__\_H3ERA_PLUGINS_\RESERVE_SLOTS\FRAMEWORK.H
D:\WINDOWS KITS\10\INCLUDE\10.0.22621.0\UM\WINDOWS.H
D:\WINDOWS KITS\10\INCLUDE\10.0.22621.0\SHARED\WINAPIFAMILY.H
D:\WINDOWS KITS\10\INCLUDE\10.0.22621.0\SHARED\WINPACKAGEFAMILY.H
D:\WINDOWS KITS\10\INCLUDE\10.0.22621.0\SHARED\SDKDDKVER.H
C:\PROGRAM FILES\MICROSOFT VISUAL STUDIO\2022\COMMUNITY\VC\TOOLS\MSVC\14.37.32822\INCLUDE\EXCPT.H
C:\PROGRAM FILES\MICROSOFT VISUAL STUDIO\2022\COMMUNITY\VC\TOOLS\MSVC\14.37.32822\INCLUDE\VCRUNTIME.H
C:\PROGRAM FILES\MICROSOFT VISUAL STUDIO\2022\COMMUNITY\VC\TOOLS\MSVC\14.37.32822\INCLUDE\SAL.H
C:\PROGRAM FILES\MICROSOFT VISUAL STUDIO\2022\COMMUNITY\VC\TOOLS\MSVC\14.37.32822\INCLUDE\CONCURRENCYSAL.H
C:\PROGRAM FILES\MICROSOFT VISUAL STUDIO\2022\COMMUNITY\VC\TOOLS\MSVC\14.37.32822\INCLUDE\VADEFS.H
C:\PROGRAM FILES\MICROSOFT VISUAL STUDIO\2022\COMMUNITY\VC\TOOLS\MSVC\14.37.32822\INCLUDE\STDARG.H
D:\WINDOWS KITS\10\INCLUDE\10.0.22621.0\SHARED\WINDEF.H
D:\WINDOWS KITS\10\INCLUDE\10.0.22621.0\SHARED\MINWINDEF.H
D:\WINDOWS KITS\10\INCLUDE\10.0.22621.0\SHARED\SPECSTRINGS.H
D:\WINDOWS KITS\10\INCLUDE\10.0.22621.0\SHARED\SPECSTRINGS_STRICT.H
D:\WINDOWS KITS\10\INCLUDE\10.0.22621.0\SHARED\SPECSTRINGS_UNDEF.H
D:\WINDOWS KITS\10\INCLUDE\10.0.22621.0\SHARED\DRIVERSPECS.H
D:\WINDOWS KITS\10\INCLUDE\10.0.22621.0\SHARED\SDV_DRIVERSPECS.H
D:\WINDOWS KITS\10\INCLUDE\10.0.22621.0\UM\WINNT.H
D:\WINDOWS KITS\10\INCLUDE\10.0.22621.0\UCRT\CTYPE.H
D:\WINDOWS KITS\10\INCLUDE\10.0.22621.0\UCRT\CORECRT.H
D:\WINDOWS KITS\10\INCLUDE\10.0.22621.0\UCRT\CORECRT_WCTYPE.H
D:\WINDOWS KITS\10\INCLUDE\10.0.22621.0\SHARED\KERNELSPECS.H
D:\WINDOWS KITS\10\INCLUDE\10.0.22621.0\SHARED\BASETSD.H
D:\WINDOWS KITS\10\INCLUDE\10.0.22621.0\SHARED\GUIDDEF.H
D:\WINDOWS KITS\10\INCLUDE\10.0.22621.0\UCRT\STRING.H
D:\WINDOWS KITS\10\INCLUDE\10.0.22621.0\UCRT\CORECRT_MEMORY.H
D:\WINDOWS KITS\10\INCLUDE\10.0.22621.0\UCRT\CORECRT_MEMCPY_S.H
D:\WINDOWS KITS\10\INCLUDE\10.0.22621.0\UCRT\ERRNO.H
C:\PROGRAM FILES\MICROSOFT VISUAL STUDIO\2022\COMMUNITY\VC\TOOLS\MSVC\14.37.32822\INCLUDE\VCRUNTIME_STRING.H
D:\WINDOWS KITS\10\INCLUDE\10.0.22621.0\UCRT\CORECRT_WSTRING.H
D:\WINDOWS KITS\10\INCLUDE\10.0.22621.0\SHARED\PSHPACK4.H
D:\WINDOWS KITS\10\INCLUDE\10.0.22621.0\SHARED\POPPACK.H
D:\WINDOWS KITS\10\INCLUDE\10.0.22621.0\SHARED\PSHPACK2.H
D:\WINDOWS KITS\10\INCLUDE\10.0.22621.0\SHARED\PSHPACK8.H
D:\WINDOWS KITS\10\INCLUDE\10.0.22621.0\SHARED\PSHPACK1.H
D:\WINDOWS KITS\10\INCLUDE\10.0.22621.0\SHARED\APISET.H
D:\WINDOWS KITS\10\INCLUDE\10.0.22621.0\SHARED\KTMTYPES.H
D:\WINDOWS KITS\10\INCLUDE\10.0.22621.0\UM\WINBASE.H
D:\WINDOWS KITS\10\INCLUDE\10.0.22621.0\SHARED\APISETCCONV.H
D:\WINDOWS KITS\10\INCLUDE\10.0.22621.0\UM\MINWINBASE.H
D:\WINDOWS KITS\10\INCLUDE\10.0.22621.0\UM\APIQUERY2.H
D:\WINDOWS KITS\10\INCLUDE\10.0.22621.0\UM\PROCESSENV.H
D:\WINDOWS KITS\10\INCLUDE\10.0.22621.0\UM\FILEAPIFROMAPP.H
D:\WINDOWS KITS\10\INCLUDE\10.0.22621.0\UM\FILEAPI.H
D:\WINDOWS KITS\10\INCLUDE\10.0.22621.0\UM\DEBUGAPI.H
D:\WINDOWS KITS\10\INCLUDE\10.0.22621.0\UM\UTILAPISET.H
D:\WINDOWS KITS\10\INCLUDE\10.0.22621.0\UM\HANDLEAPI.H
D:\WINDOWS KITS\10\INCLUDE\10.0.22621.0\UM\ERRHANDLINGAPI.H
D:\WINDOWS KITS\10\INCLUDE\10.0.22621.0\UM\FIBERSAPI.H
D:\WINDOWS KITS\10\INCLUDE\10.0.22621.0\UM\NAMEDPIPEAPI.H
D:\WINDOWS KITS\10\INCLUDE\10.0.22621.0\UM\PROFILEAPI.H
D:\WINDOWS KITS\10\INCLUDE\10.0.22621.0\UM\HEAPAPI.H
D:\WINDOWS KITS\10\INCLUDE\10.0.22621.0\UM\IOAPISET.H
D:\WINDOWS KITS\10\INCLUDE\10.0.22621.0\UM\SYNCHAPI.H
D:\WINDOWS KITS\10\INCLUDE\10.0.22621.0\UM\INTERLOCKEDAPI.H
D:\WINDOWS KITS\10\INCLUDE\10.0.22621.0\UM\PROCESSTHREADSAPI.H
D:\WINDOWS KITS\10\INCLUDE\10.0.22621.0\UM\SYSINFOAPI.H
D:\WINDOWS KITS\10\INCLUDE\10.0.22621.0\UM\MEMORYAPI.H
D:\WINDOWS KITS\10\INCLUDE\10.0.22621.0\UM\ENCLAVEAPI.H
D:\WINDOWS KITS\10\INCLUDE\10.0.22621.0\UM\THREADPOOLLEGACYAPISET.H
D:\WINDOWS KITS\10\INCLUDE\10.0.22621.0\UM\THREADPOOLAPISET.H
D:\WINDOWS KITS\10\INCLUDE\10.0.22621.0\UM\JOBAPI.H
D:\WINDOWS KITS\10\INCLUDE\10.0.22621.0\UM\JOBAPI2.H
D:\WINDOWS KITS\10\INCLUDE\10.0.22621.0\UM\WOW64APISET.H
D:\WINDOWS KITS\10\INCLUDE\10.0.22621.0\UM\LIBLOADERAPI.H
D:\WINDOWS KITS\10\INCLUDE\10.0.22621.0\UM\SECURITYBASEAPI.H
D:\WINDOWS KITS\10\INCLUDE\10.0.22621.0\UM\NAMESPACEAPI.H
D:\WINDOWS KITS\10\INCLUDE\10.0.22621.0\UM\SYSTEMTOPOLOGYAPI.H
D:\WINDOWS KITS\10\INCLUDE\10.0.22621.0\UM\PROCESSTOPOLOGYAPI.H
D:\WINDOWS KITS\10\INCLUDE\10.0.22621.0\UM\SECURITYAPPCONTAINER.H
D:\WINDOWS KITS\10\INCLUDE\10.0.22621.0\UM\REALTIMEAPISET.H
D:\WINDOWS KITS\10\INCLUDE\10.0.22621.0\SHARED\WINERROR.H
D:\WINDOWS KITS\10\INCLUDE\10.0.22621.0\UM\TIMEZONEAPI.H
D:\WINDOWS KITS\10\INCLUDE\10.0.22621.0\UM\WINGDI.H
D:\WINDOWS KITS\10\INCLUDE\10.0.22621.0\UM\WINUSER.H
D:\WINDOWS KITS\10\INCLUDE\10.0.22621.0\SHARED\TVOUT.H
D:\WINDOWS KITS\10\INCLUDE\10.0.22621.0\UM\WINNLS.H
D:\WINDOWS KITS\10\INCLUDE\10.0.22621.0\UM\DATETIMEAPI.H
D:\WINDOWS KITS\10\INCLUDE\10.0.22621.0\UM\STRINGAPISET.H
D:\WINDOWS KITS\10\INCLUDE\10.0.22621.0\UM\WINCON.H
D:\WINDOWS KITS\10\INCLUDE\10.0.22621.0\UM\WINCONTYPES.H
D:\WINDOWS KITS\10\INCLUDE\10.0.22621.0\UM\CONSOLEAPI.H
D:\WINDOWS KITS\10\INCLUDE\10.0.22621.0\UM\CONSOLEAPI2.H
D:\WINDOWS KITS\10\INCLUDE\10.0.22621.0\UM\CONSOLEAPI3.H
D:\WINDOWS KITS\10\INCLUDE\10.0.22621.0\UM\WINVER.H
D:\WINDOWS KITS\10\INCLUDE\10.0.22621.0\UM\VERRSRC.H
D:\WINDOWS KITS\10\INCLUDE\10.0.22621.0\UM\WINREG.H
D:\WINDOWS KITS\10\INCLUDE\10.0.22621.0\UM\REASON.H
D:\WINDOWS KITS\10\INCLUDE\10.0.22621.0\UM\WINNETWK.H
D:\WINDOWS KITS\10\INCLUDE\10.0.22621.0\SHARED\WNNC.H
D:\WINDOWS KITS\10\INCLUDE\10.0.22621.0\SHARED\STRALIGN.H
D:\WINDOWS KITS\10\INCLUDE\10.0.22621.0\UM\WINSVC.H
D:\WINDOWS KITS\10\INCLUDE\10.0.22621.0\UM\MCX.H
D:\WINDOWS KITS\10\INCLUDE\10.0.22621.0\UM\IMM.H
D:\WINDOWS KITS\10\INCLUDE\10.0.22621.0\UM\IME_CMODES.H
