^E:\DEV\__REPOSITORY__\_H3ERA_PLUGINS_\_HD_MOD_\KRONIKI_VIP\KRONIKI_VIP\RELEASE\DLLMAIN.OBJ|E:\DEV\__REPOSITORY__\_H3ERA_PLUGINS_\_HD_MOD_\KRONIKI_VIP\KRONIKI_VIP\RELEASE\PCH.OBJ
E:\DEV\__REPOSITORY__\_H3ERA_PLUGINS_\_HD_MOD_\KRONIKI_VIP\KRONIKI_VIP\RELEASE\KRONIKI_VIP.DLL
E:\DEV\__REPOSITORY__\_H3ERA_PLUGINS_\_HD_MOD_\KRONIKI_VIP\KRONIKI_VIP\RELEASE\KRONIKI_VIP.PDB
