^E:\DEV\__REPOSITORY__\_h3era_Plugins_\Better_NPC\NPC_SSS.vcxproj
E:\DEV\__REPOSITORY__\_h3era_Plugins_\Better_NPC\Release\Better_NPC.ipdb
E:\DEV\__REPOSITORY__\_h3era_Plugins_\Better_NPC\Release\Better_NPC.iobj
^E:\DEV\__REPOSITORY__\_h3era_Plugins_\Better_NPC\NPC_SSS.vcxproj
E:\DEV\__REPOSITORY__\_h3era_Plugins_\Better_NPC\Release\Better_NPC.ipdb
E:\DEV\__REPOSITORY__\_h3era_Plugins_\Better_NPC\Release\Better_NPC.iobj
^E:\DEV\__REPOSITORY__\_h3era_Plugins_\Better_NPC\NPC_SSS.vcxproj
E:\DEV\__REPOSITORY__\_h3era_Plugins_\Better_NPC\Release\Better_NPC.ipdb
E:\DEV\__REPOSITORY__\_h3era_Plugins_\Better_NPC\Release\Better_NPC.iobj
^E:\DEV\__REPOSITORY__\_h3era_Plugins_\Better_NPC\NPC_SSS.vcxproj
E:\DEV\__REPOSITORY__\_h3era_Plugins_\Better_NPC\Release\Better_NPC.ipdb
E:\DEV\__REPOSITORY__\_h3era_Plugins_\Better_NPC\Release\Better_NPC.iobj
^E:\DEV\__REPOSITORY__\_h3era_Plugins_\Better_NPC\NPC_SSS.vcxproj
E:\DEV\__REPOSITORY__\_h3era_Plugins_\Better_NPC\Release\Better_NPC.ipdb
E:\DEV\__REPOSITORY__\_h3era_Plugins_\Better_NPC\Release\Better_NPC.iobj
^E:\DEV\__REPOSITORY__\_h3era_Plugins_\Better_NPC\NPC_SSS.vcxproj
E:\DEV\__REPOSITORY__\_h3era_Plugins_\Better_NPC\Release\Better_NPC.ipdb
E:\DEV\__REPOSITORY__\_h3era_Plugins_\Better_NPC\Release\Better_NPC.iobj
^E:\DEV\__REPOSITORY__\_h3era_Plugins_\Better_NPC\NPC_SSS.vcxproj
E:\DEV\__REPOSITORY__\_h3era_Plugins_\Better_NPC\Release\Better_NPC.ipdb
E:\DEV\__REPOSITORY__\_h3era_Plugins_\Better_NPC\Release\Better_NPC.iobj
^E:\DEV\__REPOSITORY__\_h3era_Plugins_\Better_NPC\NPC_SSS.vcxproj
E:\DEV\__REPOSITORY__\_h3era_Plugins_\Better_NPC\Release\Better_NPC.ipdb
E:\DEV\__REPOSITORY__\_h3era_Plugins_\Better_NPC\Release\Better_NPC.iobj
^E:\DEV\__REPOSITORY__\_h3era_Plugins_\Better_NPC\NPC_SSS.vcxproj
E:\DEV\__REPOSITORY__\_h3era_Plugins_\Better_NPC\Release\Better_NPC.ipdb
E:\DEV\__REPOSITORY__\_h3era_Plugins_\Better_NPC\Release\Better_NPC.iobj
^E:\DEV\__REPOSITORY__\_h3era_Plugins_\Better_NPC\NPC_SSS.vcxproj
E:\DEV\__REPOSITORY__\_h3era_Plugins_\Better_NPC\Release\Better_NPC.ipdb
E:\DEV\__REPOSITORY__\_h3era_Plugins_\Better_NPC\Release\Better_NPC.iobj
^E:\DEV\__REPOSITORY__\_h3era_Plugins_\Better_NPC\NPC_SSS.vcxproj
E:\DEV\__REPOSITORY__\_h3era_Plugins_\Better_NPC\Release\Better_NPC.ipdb
E:\DEV\__REPOSITORY__\_h3era_Plugins_\Better_NPC\Release\Better_NPC.iobj
^E:\DEV\__REPOSITORY__\_h3era_Plugins_\Better_NPC\NPC_SSS.vcxproj
E:\DEV\__REPOSITORY__\_h3era_Plugins_\Better_NPC\Release\Better_NPC.ipdb
E:\DEV\__REPOSITORY__\_h3era_Plugins_\Better_NPC\Release\Better_NPC.iobj
^E:\DEV\__REPOSITORY__\_h3era_Plugins_\Better_NPC\NPC_SSS.vcxproj
E:\DEV\__REPOSITORY__\_h3era_Plugins_\Better_NPC\Release\Better_NPC.ipdb
E:\DEV\__REPOSITORY__\_h3era_Plugins_\Better_NPC\Release\Better_NPC.iobj
^E:\DEV\__REPOSITORY__\_h3era_Plugins_\Better_NPC\NPC_SSS.vcxproj
E:\DEV\__REPOSITORY__\_h3era_Plugins_\Better_NPC\Release\Better_NPC.ipdb
E:\DEV\__REPOSITORY__\_h3era_Plugins_\Better_NPC\Release\Better_NPC.iobj
^E:\DEV\__REPOSITORY__\_h3era_Plugins_\Better_NPC\NPC_SSS.vcxproj
E:\DEV\__REPOSITORY__\_h3era_Plugins_\Better_NPC\Release\Better_NPC.ipdb
E:\DEV\__REPOSITORY__\_h3era_Plugins_\Better_NPC\Release\Better_NPC.iobj
^E:\DEV\__REPOSITORY__\_h3era_Plugins_\Better_NPC\NPC_SSS.vcxproj
E:\DEV\__REPOSITORY__\_h3era_Plugins_\Better_NPC\Release\Better_NPC.ipdb
E:\DEV\__REPOSITORY__\_h3era_Plugins_\Better_NPC\Release\Better_NPC.iobj
^E:\DEV\__REPOSITORY__\_h3era_Plugins_\Better_NPC\NPC_SSS.vcxproj
E:\DEV\__REPOSITORY__\_h3era_Plugins_\Better_NPC\Release\Better_NPC.ipdb
E:\DEV\__REPOSITORY__\_h3era_Plugins_\Better_NPC\Release\Better_NPC.iobj
^E:\DEV\__REPOSITORY__\_h3era_Plugins_\Better_NPC\NPC_SSS.vcxproj
E:\DEV\__REPOSITORY__\_h3era_Plugins_\Better_NPC\Release\Better_NPC.ipdb
E:\DEV\__REPOSITORY__\_h3era_Plugins_\Better_NPC\Release\Better_NPC.iobj
^E:\DEV\__REPOSITORY__\_h3era_Plugins_\Better_NPC\NPC_SSS.vcxproj
E:\DEV\__REPOSITORY__\_h3era_Plugins_\Better_NPC\Release\Better_NPC.ipdb
E:\DEV\__REPOSITORY__\_h3era_Plugins_\Better_NPC\Release\Better_NPC.iobj
^E:\DEV\__REPOSITORY__\_h3era_Plugins_\Better_NPC\NPC_SSS.vcxproj
E:\DEV\__REPOSITORY__\_h3era_Plugins_\Better_NPC\Release\Better_NPC.ipdb
E:\DEV\__REPOSITORY__\_h3era_Plugins_\Better_NPC\Release\Better_NPC.iobj
^E:\DEV\__REPOSITORY__\_h3era_Plugins_\Better_NPC\NPC_SSS.vcxproj
E:\DEV\__REPOSITORY__\_h3era_Plugins_\Better_NPC\Release\Better_NPC.ipdb
E:\DEV\__REPOSITORY__\_h3era_Plugins_\Better_NPC\Release\Better_NPC.iobj
^E:\DEV\__REPOSITORY__\_h3era_Plugins_\Better_NPC\NPC_SSS.vcxproj
E:\DEV\__REPOSITORY__\_h3era_Plugins_\Better_NPC\Release\Better_NPC.ipdb
E:\DEV\__REPOSITORY__\_h3era_Plugins_\Better_NPC\Release\Better_NPC.iobj
^E:\DEV\__REPOSITORY__\_h3era_Plugins_\Better_NPC\NPC_SSS.vcxproj
E:\DEV\__REPOSITORY__\_h3era_Plugins_\Better_NPC\Release\Better_NPC.ipdb
E:\DEV\__REPOSITORY__\_h3era_Plugins_\Better_NPC\Release\Better_NPC.iobj
^E:\DEV\__REPOSITORY__\_h3era_Plugins_\Better_NPC\NPC_SSS.vcxproj
E:\DEV\__REPOSITORY__\_h3era_Plugins_\Better_NPC\Release\Better_NPC.ipdb
E:\DEV\__REPOSITORY__\_h3era_Plugins_\Better_NPC\Release\Better_NPC.iobj
^E:\DEV\__REPOSITORY__\_h3era_Plugins_\Better_NPC\NPC_SSS.vcxproj
E:\DEV\__REPOSITORY__\_h3era_Plugins_\Better_NPC\Release\Better_NPC.ipdb
E:\DEV\__REPOSITORY__\_h3era_Plugins_\Better_NPC\Release\Better_NPC.iobj
^E:\DEV\__REPOSITORY__\_h3era_Plugins_\Better_NPC\NPC_SSS.vcxproj
E:\DEV\__REPOSITORY__\_h3era_Plugins_\Better_NPC\Release\Better_NPC.ipdb
E:\DEV\__REPOSITORY__\_h3era_Plugins_\Better_NPC\Release\Better_NPC.iobj
^E:\DEV\__REPOSITORY__\_h3era_Plugins_\Better_NPC\NPC_SSS.vcxproj
E:\DEV\__REPOSITORY__\_h3era_Plugins_\Better_NPC\Release\Better_NPC.ipdb
E:\DEV\__REPOSITORY__\_h3era_Plugins_\Better_NPC\Release\Better_NPC.iobj
^E:\DEV\__REPOSITORY__\_h3era_Plugins_\Better_NPC\NPC_SSS.vcxproj
E:\DEV\__REPOSITORY__\_h3era_Plugins_\Better_NPC\Release\Better_NPC.ipdb
E:\DEV\__REPOSITORY__\_h3era_Plugins_\Better_NPC\Release\Better_NPC.iobj
^E:\DEV\__REPOSITORY__\_h3era_Plugins_\Better_NPC\NPC_SSS.vcxproj
E:\DEV\__REPOSITORY__\_h3era_Plugins_\Better_NPC\Release\Better_NPC.ipdb
E:\DEV\__REPOSITORY__\_h3era_Plugins_\Better_NPC\Release\Better_NPC.iobj
^E:\DEV\__REPOSITORY__\_h3era_Plugins_\Better_NPC\NPC_SSS.vcxproj
E:\DEV\__REPOSITORY__\_h3era_Plugins_\Better_NPC\Release\Better_NPC.ipdb
E:\DEV\__REPOSITORY__\_h3era_Plugins_\Better_NPC\Release\Better_NPC.iobj
^E:\DEV\__REPOSITORY__\_h3era_Plugins_\Better_NPC\NPC_SSS.vcxproj
E:\DEV\__REPOSITORY__\_h3era_Plugins_\Better_NPC\Release\Better_NPC.ipdb
E:\DEV\__REPOSITORY__\_h3era_Plugins_\Better_NPC\Release\Better_NPC.iobj
^E:\DEV\__REPOSITORY__\_h3era_Plugins_\Better_NPC\NPC_SSS.vcxproj
E:\DEV\__REPOSITORY__\_h3era_Plugins_\Better_NPC\Release\Better_NPC.ipdb
E:\DEV\__REPOSITORY__\_h3era_Plugins_\Better_NPC\Release\Better_NPC.iobj
^E:\DEV\__REPOSITORY__\_h3era_Plugins_\Better_NPC\NPC_SSS.vcxproj
E:\DEV\__REPOSITORY__\_h3era_Plugins_\Better_NPC\Release\Better_NPC.ipdb
E:\DEV\__REPOSITORY__\_h3era_Plugins_\Better_NPC\Release\Better_NPC.iobj
^E:\DEV\__REPOSITORY__\_h3era_Plugins_\Better_NPC\NPC_SSS.vcxproj
E:\DEV\__REPOSITORY__\_h3era_Plugins_\Better_NPC\Release\Better_NPC.ipdb
E:\DEV\__REPOSITORY__\_h3era_Plugins_\Better_NPC\Release\Better_NPC.iobj
^E:\DEV\__REPOSITORY__\_h3era_Plugins_\Better_NPC\NPC_SSS.vcxproj
E:\DEV\__REPOSITORY__\_h3era_Plugins_\Better_NPC\Release\Better_NPC.ipdb
E:\DEV\__REPOSITORY__\_h3era_Plugins_\Better_NPC\Release\Better_NPC.iobj
^E:\DEV\__REPOSITORY__\_h3era_Plugins_\Better_NPC\NPC_SSS.vcxproj
E:\DEV\__REPOSITORY__\_h3era_Plugins_\Better_NPC\Release\Better_NPC.ipdb
E:\DEV\__REPOSITORY__\_h3era_Plugins_\Better_NPC\Release\Better_NPC.iobj
^E:\DEV\__REPOSITORY__\_h3era_Plugins_\Better_NPC\NPC_SSS.vcxproj
E:\DEV\__REPOSITORY__\_h3era_Plugins_\Better_NPC\Release\Better_NPC.ipdb
E:\DEV\__REPOSITORY__\_h3era_Plugins_\Better_NPC\Release\Better_NPC.iobj
^E:\DEV\__REPOSITORY__\_h3era_Plugins_\Better_NPC\NPC_SSS.vcxproj
E:\DEV\__REPOSITORY__\_h3era_Plugins_\Better_NPC\Release\Better_NPC.ipdb
E:\DEV\__REPOSITORY__\_h3era_Plugins_\Better_NPC\Release\Better_NPC.iobj
^E:\DEV\__REPOSITORY__\_h3era_Plugins_\Better_NPC\NPC_SSS.vcxproj
E:\DEV\__REPOSITORY__\_h3era_Plugins_\Better_NPC\Release\Better_NPC.ipdb
E:\DEV\__REPOSITORY__\_h3era_Plugins_\Better_NPC\Release\Better_NPC.iobj
^E:\DEV\__REPOSITORY__\_h3era_Plugins_\Better_NPC\NPC_SSS.vcxproj
E:\DEV\__REPOSITORY__\_h3era_Plugins_\Better_NPC\Release\Better_NPC.ipdb
E:\DEV\__REPOSITORY__\_h3era_Plugins_\Better_NPC\Release\Better_NPC.iobj
^E:\DEV\__REPOSITORY__\_h3era_Plugins_\Better_NPC\NPC_SSS.vcxproj
E:\DEV\__REPOSITORY__\_h3era_Plugins_\Better_NPC\Release\Better_NPC.ipdb
E:\DEV\__REPOSITORY__\_h3era_Plugins_\Better_NPC\Release\Better_NPC.iobj
^E:\DEV\__REPOSITORY__\_h3era_Plugins_\Better_NPC\NPC_SSS.vcxproj
E:\DEV\__REPOSITORY__\_h3era_Plugins_\Better_NPC\Release\Better_NPC.ipdb
E:\DEV\__REPOSITORY__\_h3era_Plugins_\Better_NPC\Release\Better_NPC.iobj
^E:\DEV\__REPOSITORY__\_h3era_Plugins_\Better_NPC\NPC_SSS.vcxproj
E:\DEV\__REPOSITORY__\_h3era_Plugins_\Better_NPC\Release\Better_NPC.ipdb
E:\DEV\__REPOSITORY__\_h3era_Plugins_\Better_NPC\Release\Better_NPC.iobj
^E:\DEV\__REPOSITORY__\_h3era_Plugins_\Better_NPC\NPC_SSS.vcxproj
E:\DEV\__REPOSITORY__\_h3era_Plugins_\Better_NPC\Release\Better_NPC.ipdb
E:\DEV\__REPOSITORY__\_h3era_Plugins_\Better_NPC\Release\Better_NPC.iobj
^E:\DEV\__REPOSITORY__\_h3era_Plugins_\Better_NPC\NPC_SSS.vcxproj
E:\DEV\__REPOSITORY__\_h3era_Plugins_\Better_NPC\Release\Better_NPC.ipdb
E:\DEV\__REPOSITORY__\_h3era_Plugins_\Better_NPC\Release\Better_NPC.iobj
^E:\DEV\__REPOSITORY__\_h3era_Plugins_\Better_NPC\NPC_SSS.vcxproj
E:\DEV\__REPOSITORY__\_h3era_Plugins_\Better_NPC\Release\Better_NPC.ipdb
E:\DEV\__REPOSITORY__\_h3era_Plugins_\Better_NPC\Release\Better_NPC.iobj
^E:\DEV\__REPOSITORY__\_h3era_Plugins_\Better_NPC\NPC_SSS.vcxproj
E:\DEV\__REPOSITORY__\_h3era_Plugins_\Better_NPC\Release\Better_NPC.ipdb
E:\DEV\__REPOSITORY__\_h3era_Plugins_\Better_NPC\Release\Better_NPC.iobj
^E:\DEV\__REPOSITORY__\_h3era_Plugins_\Better_NPC\NPC_SSS.vcxproj
E:\DEV\__REPOSITORY__\_h3era_Plugins_\Better_NPC\Release\Better_NPC.ipdb
E:\DEV\__REPOSITORY__\_h3era_Plugins_\Better_NPC\Release\Better_NPC.iobj
^E:\DEV\__REPOSITORY__\_h3era_Plugins_\Better_NPC\NPC_SSS.vcxproj
E:\DEV\__REPOSITORY__\_h3era_Plugins_\Better_NPC\Release\Better_NPC.ipdb
E:\DEV\__REPOSITORY__\_h3era_Plugins_\Better_NPC\Release\Better_NPC.iobj
^E:\DEV\__REPOSITORY__\_h3era_Plugins_\Better_NPC\NPC_SSS.vcxproj
E:\DEV\__REPOSITORY__\_h3era_Plugins_\Better_NPC\Release\Better_NPC.ipdb
E:\DEV\__REPOSITORY__\_h3era_Plugins_\Better_NPC\Release\Better_NPC.iobj
^E:\DEV\__REPOSITORY__\_h3era_Plugins_\Better_NPC\NPC_SSS.vcxproj
E:\DEV\__REPOSITORY__\_h3era_Plugins_\Better_NPC\Release\Better_NPC.ipdb
E:\DEV\__REPOSITORY__\_h3era_Plugins_\Better_NPC\Release\Better_NPC.iobj
^E:\DEV\__REPOSITORY__\_h3era_Plugins_\Better_NPC\NPC_SSS.vcxproj
E:\DEV\__REPOSITORY__\_h3era_Plugins_\Better_NPC\Release\Better_NPC.ipdb
E:\DEV\__REPOSITORY__\_h3era_Plugins_\Better_NPC\Release\Better_NPC.iobj
^E:\DEV\__REPOSITORY__\_h3era_Plugins_\Better_NPC\NPC_SSS.vcxproj
E:\DEV\__REPOSITORY__\_h3era_Plugins_\Better_NPC\Release\Better_NPC.ipdb
E:\DEV\__REPOSITORY__\_h3era_Plugins_\Better_NPC\Release\Better_NPC.iobj
^E:\DEV\__REPOSITORY__\_h3era_Plugins_\Better_NPC\NPC_SSS.vcxproj
E:\DEV\__REPOSITORY__\_h3era_Plugins_\Better_NPC\Release\Better_NPC.ipdb
E:\DEV\__REPOSITORY__\_h3era_Plugins_\Better_NPC\Release\Better_NPC.iobj
^E:\DEV\__REPOSITORY__\_h3era_Plugins_\Better_NPC\NPC_SSS.vcxproj
E:\DEV\__REPOSITORY__\_h3era_Plugins_\Better_NPC\Release\Better_NPC.ipdb
E:\DEV\__REPOSITORY__\_h3era_Plugins_\Better_NPC\Release\Better_NPC.iobj
^E:\DEV\__REPOSITORY__\_h3era_Plugins_\Better_NPC\NPC_SSS.vcxproj
E:\DEV\__REPOSITORY__\_h3era_Plugins_\Better_NPC\Release\Better_NPC.ipdb
E:\DEV\__REPOSITORY__\_h3era_Plugins_\Better_NPC\Release\Better_NPC.iobj
^E:\DEV\__REPOSITORY__\_h3era_Plugins_\Better_NPC\NPC_SSS.vcxproj
E:\DEV\__REPOSITORY__\_h3era_Plugins_\Better_NPC\Release\Better_NPC.ipdb
E:\DEV\__REPOSITORY__\_h3era_Plugins_\Better_NPC\Release\Better_NPC.iobj
^E:\DEV\__REPOSITORY__\_h3era_Plugins_\Better_NPC\NPC_SSS.vcxproj
E:\DEV\__REPOSITORY__\_h3era_Plugins_\Better_NPC\Release\Better_NPC.ipdb
E:\DEV\__REPOSITORY__\_h3era_Plugins_\Better_NPC\Release\Better_NPC.iobj
^E:\DEV\__REPOSITORY__\_h3era_Plugins_\Better_NPC\NPC_SSS.vcxproj
E:\DEV\__REPOSITORY__\_h3era_Plugins_\Better_NPC\Release\Better_NPC.ipdb
E:\DEV\__REPOSITORY__\_h3era_Plugins_\Better_NPC\Release\Better_NPC.iobj
^E:\DEV\__REPOSITORY__\_h3era_Plugins_\Better_NPC\NPC_SSS.vcxproj
E:\DEV\__REPOSITORY__\_h3era_Plugins_\Better_NPC\Release\Better_NPC.ipdb
E:\DEV\__REPOSITORY__\_h3era_Plugins_\Better_NPC\Release\Better_NPC.iobj
^E:\DEV\__REPOSITORY__\_h3era_Plugins_\Better_NPC\NPC_SSS.vcxproj
E:\DEV\__REPOSITORY__\_h3era_Plugins_\Better_NPC\Release\Better_NPC.ipdb
E:\DEV\__REPOSITORY__\_h3era_Plugins_\Better_NPC\Release\Better_NPC.iobj
^E:\DEV\__REPOSITORY__\_h3era_Plugins_\Better_NPC\NPC_SSS.vcxproj
E:\DEV\__REPOSITORY__\_h3era_Plugins_\Better_NPC\Release\Better_NPC.ipdb
E:\DEV\__REPOSITORY__\_h3era_Plugins_\Better_NPC\Release\Better_NPC.iobj
^E:\DEV\__REPOSITORY__\_h3era_Plugins_\Better_NPC\NPC_SSS.vcxproj
E:\DEV\__REPOSITORY__\_h3era_Plugins_\Better_NPC\Release\Better_NPC.ipdb
E:\DEV\__REPOSITORY__\_h3era_Plugins_\Better_NPC\Release\Better_NPC.iobj
^E:\DEV\__REPOSITORY__\_h3era_Plugins_\Better_NPC\NPC_SSS.vcxproj
E:\DEV\__REPOSITORY__\_h3era_Plugins_\Better_NPC\Release\Better_NPC.ipdb
E:\DEV\__REPOSITORY__\_h3era_Plugins_\Better_NPC\Release\Better_NPC.iobj
^E:\DEV\__REPOSITORY__\_h3era_Plugins_\Better_NPC\NPC_SSS.vcxproj
E:\DEV\__REPOSITORY__\_h3era_Plugins_\Better_NPC\Release\Better_NPC.ipdb
E:\DEV\__REPOSITORY__\_h3era_Plugins_\Better_NPC\Release\Better_NPC.iobj
^E:\DEV\__REPOSITORY__\_h3era_Plugins_\Better_NPC\NPC_SSS.vcxproj
E:\DEV\__REPOSITORY__\_h3era_Plugins_\Better_NPC\Release\Better_NPC.ipdb
E:\DEV\__REPOSITORY__\_h3era_Plugins_\Better_NPC\Release\Better_NPC.iobj
^E:\DEV\__REPOSITORY__\_h3era_Plugins_\Better_NPC\NPC_SSS.vcxproj
E:\DEV\__REPOSITORY__\_h3era_Plugins_\Better_NPC\Release\Better_NPC.ipdb
E:\DEV\__REPOSITORY__\_h3era_Plugins_\Better_NPC\Release\Better_NPC.iobj
^E:\DEV\__REPOSITORY__\_h3era_Plugins_\Better_NPC\NPC_SSS.vcxproj
E:\DEV\__REPOSITORY__\_h3era_Plugins_\Better_NPC\Release\Better_NPC.ipdb
E:\DEV\__REPOSITORY__\_h3era_Plugins_\Better_NPC\Release\Better_NPC.iobj
^E:\DEV\__REPOSITORY__\_h3era_Plugins_\Better_NPC\NPC_SSS.vcxproj
E:\DEV\__REPOSITORY__\_h3era_Plugins_\Better_NPC\Release\Better_NPC.ipdb
E:\DEV\__REPOSITORY__\_h3era_Plugins_\Better_NPC\Release\Better_NPC.iobj
^E:\DEV\__REPOSITORY__\_h3era_Plugins_\Better_NPC\NPC_SSS.vcxproj
E:\DEV\__REPOSITORY__\_h3era_Plugins_\Better_NPC\Release\Better_NPC.ipdb
E:\DEV\__REPOSITORY__\_h3era_Plugins_\Better_NPC\Release\Better_NPC.iobj
^E:\DEV\__REPOSITORY__\_h3era_Plugins_\Better_NPC\NPC_SSS.vcxproj
E:\DEV\__REPOSITORY__\_h3era_Plugins_\Better_NPC\Release\Better_NPC.ipdb
E:\DEV\__REPOSITORY__\_h3era_Plugins_\Better_NPC\Release\Better_NPC.iobj
^E:\DEV\__REPOSITORY__\_h3era_Plugins_\Better_NPC\NPC_SSS.vcxproj
E:\DEV\__REPOSITORY__\_h3era_Plugins_\Better_NPC\Release\Better_NPC.ipdb
E:\DEV\__REPOSITORY__\_h3era_Plugins_\Better_NPC\Release\Better_NPC.iobj
^E:\DEV\__REPOSITORY__\_h3era_Plugins_\Better_NPC\NPC_SSS.vcxproj
E:\DEV\__REPOSITORY__\_h3era_Plugins_\Better_NPC\Release\Better_NPC.ipdb
E:\DEV\__REPOSITORY__\_h3era_Plugins_\Better_NPC\Release\Better_NPC.iobj
^E:\DEV\__REPOSITORY__\_h3era_Plugins_\Better_NPC\NPC_SSS.vcxproj
E:\DEV\__REPOSITORY__\_h3era_Plugins_\Better_NPC\Release\Better_NPC.ipdb
E:\DEV\__REPOSITORY__\_h3era_Plugins_\Better_NPC\Release\Better_NPC.iobj
^E:\DEV\__REPOSITORY__\_h3era_Plugins_\Better_NPC\NPC_SSS.vcxproj
E:\DEV\__REPOSITORY__\_h3era_Plugins_\Better_NPC\Release\Better_NPC.ipdb
E:\DEV\__REPOSITORY__\_h3era_Plugins_\Better_NPC\Release\Better_NPC.iobj
^E:\DEV\__REPOSITORY__\_h3era_Plugins_\Better_NPC\NPC_SSS.vcxproj
E:\DEV\__REPOSITORY__\_h3era_Plugins_\Better_NPC\Release\Better_NPC.ipdb
E:\DEV\__REPOSITORY__\_h3era_Plugins_\Better_NPC\Release\Better_NPC.iobj
^E:\DEV\__REPOSITORY__\_h3era_Plugins_\Better_NPC\NPC_SSS.vcxproj
E:\DEV\__REPOSITORY__\_h3era_Plugins_\Better_NPC\Release\Better_NPC.ipdb
E:\DEV\__REPOSITORY__\_h3era_Plugins_\Better_NPC\Release\Better_NPC.iobj
^E:\DEV\__REPOSITORY__\_h3era_Plugins_\Better_NPC\NPC_SSS.vcxproj
E:\DEV\__REPOSITORY__\_h3era_Plugins_\Better_NPC\Release\Better_NPC.ipdb
E:\DEV\__REPOSITORY__\_h3era_Plugins_\Better_NPC\Release\Better_NPC.iobj
^E:\DEV\__REPOSITORY__\_h3era_Plugins_\Better_NPC\NPC_SSS.vcxproj
E:\DEV\__REPOSITORY__\_h3era_Plugins_\Better_NPC\Release\Better_NPC.ipdb
E:\DEV\__REPOSITORY__\_h3era_Plugins_\Better_NPC\Release\Better_NPC.iobj
^E:\DEV\__REPOSITORY__\_h3era_Plugins_\Better_NPC\NPC_SSS.vcxproj
E:\DEV\__REPOSITORY__\_h3era_Plugins_\Better_NPC\Release\Better_NPC.ipdb
E:\DEV\__REPOSITORY__\_h3era_Plugins_\Better_NPC\Release\Better_NPC.iobj
^E:\DEV\__REPOSITORY__\_h3era_Plugins_\Better_NPC\NPC_SSS.vcxproj
E:\DEV\__REPOSITORY__\_h3era_Plugins_\Better_NPC\Release\Better_NPC.ipdb
E:\DEV\__REPOSITORY__\_h3era_Plugins_\Better_NPC\Release\Better_NPC.iobj
^E:\DEV\__REPOSITORY__\_h3era_Plugins_\Better_NPC\NPC_SSS.vcxproj
E:\DEV\__REPOSITORY__\_h3era_Plugins_\Better_NPC\Release\Better_NPC.ipdb
E:\DEV\__REPOSITORY__\_h3era_Plugins_\Better_NPC\Release\Better_NPC.iobj
^E:\DEV\__REPOSITORY__\_h3era_Plugins_\Better_NPC\NPC_SSS.vcxproj
E:\DEV\__REPOSITORY__\_h3era_Plugins_\Better_NPC\Release\Better_NPC.ipdb
E:\DEV\__REPOSITORY__\_h3era_Plugins_\Better_NPC\Release\Better_NPC.iobj
^E:\DEV\__REPOSITORY__\_h3era_Plugins_\Better_NPC\NPC_SSS.vcxproj
E:\DEV\__REPOSITORY__\_h3era_Plugins_\Better_NPC\Release\Better_NPC.ipdb
E:\DEV\__REPOSITORY__\_h3era_Plugins_\Better_NPC\Release\Better_NPC.iobj
^E:\DEV\__REPOSITORY__\_h3era_Plugins_\Better_NPC\NPC_SSS.vcxproj
E:\DEV\__REPOSITORY__\_h3era_Plugins_\Better_NPC\Release\Better_NPC.ipdb
E:\DEV\__REPOSITORY__\_h3era_Plugins_\Better_NPC\Release\Better_NPC.iobj
^E:\DEV\__REPOSITORY__\_h3era_Plugins_\Better_NPC\NPC_SSS.vcxproj
E:\DEV\__REPOSITORY__\_h3era_Plugins_\Better_NPC\Release\Better_NPC.ipdb
E:\DEV\__REPOSITORY__\_h3era_Plugins_\Better_NPC\Release\Better_NPC.iobj
^E:\DEV\__REPOSITORY__\_h3era_Plugins_\Better_NPC\NPC_SSS.vcxproj
E:\DEV\__REPOSITORY__\_h3era_Plugins_\Better_NPC\Release\Better_NPC.ipdb
E:\DEV\__REPOSITORY__\_h3era_Plugins_\Better_NPC\Release\Better_NPC.iobj
^E:\DEV\__REPOSITORY__\_h3era_Plugins_\Better_NPC\NPC_SSS.vcxproj
E:\DEV\__REPOSITORY__\_h3era_Plugins_\Better_NPC\Release\Better_NPC.ipdb
E:\DEV\__REPOSITORY__\_h3era_Plugins_\Better_NPC\Release\Better_NPC.iobj
^E:\DEV\__REPOSITORY__\_h3era_Plugins_\Better_NPC\NPC_SSS.vcxproj
E:\DEV\__REPOSITORY__\_h3era_Plugins_\Better_NPC\Release\Better_NPC.ipdb
E:\DEV\__REPOSITORY__\_h3era_Plugins_\Better_NPC\Release\Better_NPC.iobj
^E:\DEV\__REPOSITORY__\_h3era_Plugins_\Better_NPC\NPC_SSS.vcxproj
E:\DEV\__REPOSITORY__\_h3era_Plugins_\Better_NPC\Release\Better_NPC.ipdb
E:\DEV\__REPOSITORY__\_h3era_Plugins_\Better_NPC\Release\Better_NPC.iobj
^E:\DEV\__REPOSITORY__\_h3era_Plugins_\Better_NPC\NPC_SSS.vcxproj
E:\DEV\__REPOSITORY__\_h3era_Plugins_\Better_NPC\Release\Better_NPC.ipdb
E:\DEV\__REPOSITORY__\_h3era_Plugins_\Better_NPC\Release\Better_NPC.iobj
^E:\DEV\__REPOSITORY__\_h3era_Plugins_\Better_NPC\NPC_SSS.vcxproj
E:\DEV\__REPOSITORY__\_h3era_Plugins_\Better_NPC\Release\Better_NPC.ipdb
E:\DEV\__REPOSITORY__\_h3era_Plugins_\Better_NPC\Release\Better_NPC.iobj
^E:\DEV\__REPOSITORY__\_h3era_Plugins_\Better_NPC\NPC_SSS.vcxproj
E:\DEV\__REPOSITORY__\_h3era_Plugins_\Better_NPC\Release\Better_NPC.ipdb
E:\DEV\__REPOSITORY__\_h3era_Plugins_\Better_NPC\Release\Better_NPC.iobj
^E:\DEV\__REPOSITORY__\_h3era_Plugins_\Better_NPC\NPC_SSS.vcxproj
E:\DEV\__REPOSITORY__\_h3era_Plugins_\Better_NPC\Release\Better_NPC.ipdb
E:\DEV\__REPOSITORY__\_h3era_Plugins_\Better_NPC\Release\Better_NPC.iobj
^E:\DEV\__REPOSITORY__\_h3era_Plugins_\Better_NPC\NPC_SSS.vcxproj
E:\DEV\__REPOSITORY__\_h3era_Plugins_\Better_NPC\Release\Better_NPC.ipdb
E:\DEV\__REPOSITORY__\_h3era_Plugins_\Better_NPC\Release\Better_NPC.iobj
^E:\DEV\__REPOSITORY__\_h3era_Plugins_\Better_NPC\NPC_SSS.vcxproj
E:\DEV\__REPOSITORY__\_h3era_Plugins_\Better_NPC\Release\Better_NPC.ipdb
E:\DEV\__REPOSITORY__\_h3era_Plugins_\Better_NPC\Release\Better_NPC.iobj
^E:\DEV\__REPOSITORY__\_h3era_Plugins_\Better_NPC\NPC_SSS.vcxproj
E:\DEV\__REPOSITORY__\_h3era_Plugins_\Better_NPC\Release\Better_NPC.ipdb
E:\DEV\__REPOSITORY__\_h3era_Plugins_\Better_NPC\Release\Better_NPC.iobj
^E:\DEV\__REPOSITORY__\_h3era_Plugins_\Better_NPC\NPC_SSS.vcxproj
E:\DEV\__REPOSITORY__\_h3era_Plugins_\Better_NPC\Release\Better_NPC.ipdb
E:\DEV\__REPOSITORY__\_h3era_Plugins_\Better_NPC\Release\Better_NPC.iobj
^E:\DEV\__REPOSITORY__\_h3era_Plugins_\Better_NPC\NPC_SSS.vcxproj
E:\DEV\__REPOSITORY__\_h3era_Plugins_\Better_NPC\Release\Better_NPC.ipdb
E:\DEV\__REPOSITORY__\_h3era_Plugins_\Better_NPC\Release\Better_NPC.iobj
^E:\DEV\__REPOSITORY__\_h3era_Plugins_\Better_NPC\NPC_SSS.vcxproj
E:\DEV\__REPOSITORY__\_h3era_Plugins_\Better_NPC\Release\Better_NPC.ipdb
E:\DEV\__REPOSITORY__\_h3era_Plugins_\Better_NPC\Release\Better_NPC.iobj
^E:\DEV\__REPOSITORY__\_h3era_Plugins_\Better_NPC\NPC_SSS.vcxproj
E:\DEV\__REPOSITORY__\_h3era_Plugins_\Better_NPC\Release\Better_NPC.ipdb
E:\DEV\__REPOSITORY__\_h3era_Plugins_\Better_NPC\Release\Better_NPC.iobj
^E:\DEV\__REPOSITORY__\_h3era_Plugins_\Better_NPC\NPC_SSS.vcxproj
E:\DEV\__REPOSITORY__\_h3era_Plugins_\Better_NPC\Release\Better_NPC.ipdb
E:\DEV\__REPOSITORY__\_h3era_Plugins_\Better_NPC\Release\Better_NPC.iobj
^E:\DEV\__REPOSITORY__\_h3era_Plugins_\Better_NPC\NPC_SSS.vcxproj
E:\DEV\__REPOSITORY__\_h3era_Plugins_\Better_NPC\Release\Better_NPC.ipdb
E:\DEV\__REPOSITORY__\_h3era_Plugins_\Better_NPC\Release\Better_NPC.iobj
^E:\DEV\__REPOSITORY__\_h3era_Plugins_\Better_NPC\NPC_SSS.vcxproj
E:\DEV\__REPOSITORY__\_h3era_Plugins_\Better_NPC\Release\Better_NPC.ipdb
E:\DEV\__REPOSITORY__\_h3era_Plugins_\Better_NPC\Release\Better_NPC.iobj
^E:\DEV\__REPOSITORY__\_h3era_Plugins_\Better_NPC\NPC_SSS.vcxproj
E:\DEV\__REPOSITORY__\_h3era_Plugins_\Better_NPC\Release\Better_NPC.ipdb
E:\DEV\__REPOSITORY__\_h3era_Plugins_\Better_NPC\Release\Better_NPC.iobj
^E:\DEV\__REPOSITORY__\_h3era_Plugins_\Better_NPC\NPC_SSS.vcxproj
E:\DEV\__REPOSITORY__\_h3era_Plugins_\Better_NPC\Release\Better_NPC.ipdb
E:\DEV\__REPOSITORY__\_h3era_Plugins_\Better_NPC\Release\Better_NPC.iobj
^E:\DEV\__REPOSITORY__\_h3era_Plugins_\Better_NPC\NPC_SSS.vcxproj
E:\DEV\__REPOSITORY__\_h3era_Plugins_\Better_NPC\Release\Better_NPC.ipdb
E:\DEV\__REPOSITORY__\_h3era_Plugins_\Better_NPC\Release\Better_NPC.iobj
^E:\DEV\__REPOSITORY__\_h3era_Plugins_\Better_NPC\NPC_SSS.vcxproj
E:\DEV\__REPOSITORY__\_h3era_Plugins_\Better_NPC\Release\Better_NPC.ipdb
E:\DEV\__REPOSITORY__\_h3era_Plugins_\Better_NPC\Release\Better_NPC.iobj
^E:\DEV\__REPOSITORY__\_h3era_Plugins_\Better_NPC\NPC_SSS.vcxproj
E:\DEV\__REPOSITORY__\_h3era_Plugins_\Better_NPC\Release\Better_NPC.ipdb
E:\DEV\__REPOSITORY__\_h3era_Plugins_\Better_NPC\Release\Better_NPC.iobj
^E:\DEV\__REPOSITORY__\_h3era_Plugins_\Better_NPC\NPC_SSS.vcxproj
E:\DEV\__REPOSITORY__\_h3era_Plugins_\Better_NPC\Release\Better_NPC.ipdb
E:\DEV\__REPOSITORY__\_h3era_Plugins_\Better_NPC\Release\Better_NPC.iobj
^E:\DEV\__REPOSITORY__\_h3era_Plugins_\Better_NPC\NPC_SSS.vcxproj
E:\DEV\__REPOSITORY__\_h3era_Plugins_\Better_NPC\Release\Better_NPC.ipdb
E:\DEV\__REPOSITORY__\_h3era_Plugins_\Better_NPC\Release\Better_NPC.iobj
^E:\DEV\__REPOSITORY__\_h3era_Plugins_\Better_NPC\NPC_SSS.vcxproj
E:\DEV\__REPOSITORY__\_h3era_Plugins_\Better_NPC\Release\Better_NPC.ipdb
E:\DEV\__REPOSITORY__\_h3era_Plugins_\Better_NPC\Release\Better_NPC.iobj
^E:\DEV\__REPOSITORY__\_h3era_Plugins_\Better_NPC\NPC_SSS.vcxproj
E:\DEV\__REPOSITORY__\_h3era_Plugins_\Better_NPC\Release\Better_NPC.ipdb
E:\DEV\__REPOSITORY__\_h3era_Plugins_\Better_NPC\Release\Better_NPC.iobj
^C:\DEV\h3era_plugins\_h3era_plugins_\Better_NPC\NPC_SSS.vcxproj
C:\DEV\h3era_plugins\_h3era_plugins_\Better_NPC\Release\Better_NPC.ipdb
C:\DEV\h3era_plugins\_h3era_plugins_\Better_NPC\Release\Better_NPC.iobj
^C:\DEV\h3era_plugins\_h3era_plugins_\Better_NPC\NPC_SSS.vcxproj
C:\DEV\h3era_plugins\_h3era_plugins_\Better_NPC\Release\Better_NPC.ipdb
C:\DEV\h3era_plugins\_h3era_plugins_\Better_NPC\Release\Better_NPC.iobj
^C:\DEV\h3era_plugins\_h3era_plugins_\Better_NPC\NPC_SSS.vcxproj
C:\DEV\h3era_plugins\_h3era_plugins_\Better_NPC\Release\Better_NPC.ipdb
C:\DEV\h3era_plugins\_h3era_plugins_\Better_NPC\Release\Better_NPC.iobj
^C:\DEV\h3era_plugins\_h3era_plugins_\Better_NPC\NPC_SSS.vcxproj
C:\DEV\h3era_plugins\_h3era_plugins_\Better_NPC\Release\Better_NPC.ipdb
C:\DEV\h3era_plugins\_h3era_plugins_\Better_NPC\Release\Better_NPC.iobj
^C:\DEV\h3era_plugins\_h3era_plugins_\Better_NPC\NPC_SSS.vcxproj
C:\DEV\h3era_plugins\_h3era_plugins_\Better_NPC\Release\Better_NPC.ipdb
C:\DEV\h3era_plugins\_h3era_plugins_\Better_NPC\Release\Better_NPC.iobj
^C:\DEV\h3era_plugins\_h3era_plugins_\Better_NPC\NPC_SSS.vcxproj
C:\DEV\h3era_plugins\_h3era_plugins_\Better_NPC\Release\Better_NPC.ipdb
C:\DEV\h3era_plugins\_h3era_plugins_\Better_NPC\Release\Better_NPC.iobj
^C:\DEV\h3era_plugins\_h3era_plugins_\Better_NPC\NPC_SSS.vcxproj
C:\DEV\h3era_plugins\_h3era_plugins_\Better_NPC\Release\Better_NPC.ipdb
C:\DEV\h3era_plugins\_h3era_plugins_\Better_NPC\Release\Better_NPC.iobj
^C:\DEV\h3era_plugins\_h3era_plugins_\Better_NPC\NPC_SSS.vcxproj
C:\DEV\h3era_plugins\_h3era_plugins_\Better_NPC\Release\Better_NPC.ipdb
C:\DEV\h3era_plugins\_h3era_plugins_\Better_NPC\Release\Better_NPC.iobj
^C:\DEV\h3era_plugins\_h3era_plugins_\Better_NPC\NPC_SSS.vcxproj
C:\DEV\h3era_plugins\_h3era_plugins_\Better_NPC\Release\Better_NPC.ipdb
C:\DEV\h3era_plugins\_h3era_plugins_\Better_NPC\Release\Better_NPC.iobj
^C:\DEV\h3era_plugins\_h3era_plugins_\Better_NPC\NPC_SSS.vcxproj
C:\DEV\h3era_plugins\_h3era_plugins_\Better_NPC\Release\Better_NPC.ipdb
C:\DEV\h3era_plugins\_h3era_plugins_\Better_NPC\Release\Better_NPC.iobj
^C:\DEV\h3era_plugins\_h3era_plugins_\Better_NPC\NPC_SSS.vcxproj
C:\DEV\h3era_plugins\_h3era_plugins_\Better_NPC\Release\Better_NPC.ipdb
C:\DEV\h3era_plugins\_h3era_plugins_\Better_NPC\Release\Better_NPC.iobj
^C:\DEV\h3era_plugins\_h3era_plugins_\Better_NPC\NPC_SSS.vcxproj
C:\DEV\h3era_plugins\_h3era_plugins_\Better_NPC\Release\Better_NPC.ipdb
C:\DEV\h3era_plugins\_h3era_plugins_\Better_NPC\Release\Better_NPC.iobj
^C:\DEV\h3era_plugins\_h3era_plugins_\Better_NPC\NPC_SSS.vcxproj
C:\DEV\h3era_plugins\_h3era_plugins_\Better_NPC\Release\Better_NPC.ipdb
C:\DEV\h3era_plugins\_h3era_plugins_\Better_NPC\Release\Better_NPC.iobj
^C:\DEV\h3era_plugins\_h3era_plugins_\Better_NPC\NPC_SSS.vcxproj
C:\DEV\h3era_plugins\_h3era_plugins_\Better_NPC\Release\Better_NPC.ipdb
C:\DEV\h3era_plugins\_h3era_plugins_\Better_NPC\Release\Better_NPC.iobj
^C:\DEV\h3era_plugins\_h3era_plugins_\Better_NPC\NPC_SSS.vcxproj
C:\DEV\h3era_plugins\_h3era_plugins_\Better_NPC\Release\Better_NPC.ipdb
C:\DEV\h3era_plugins\_h3era_plugins_\Better_NPC\Release\Better_NPC.iobj
^C:\DEV\h3era_plugins\_h3era_plugins_\Better_NPC\NPC_SSS.vcxproj
C:\DEV\h3era_plugins\_h3era_plugins_\Better_NPC\Release\Better_NPC.ipdb
C:\DEV\h3era_plugins\_h3era_plugins_\Better_NPC\Release\Better_NPC.iobj
^C:\DEV\h3era_plugins\_h3era_plugins_\Better_NPC\NPC_SSS.vcxproj
C:\DEV\h3era_plugins\_h3era_plugins_\Better_NPC\Release\Better_NPC.ipdb
C:\DEV\h3era_plugins\_h3era_plugins_\Better_NPC\Release\Better_NPC.iobj
^C:\DEV\h3era_plugins\_h3era_plugins_\Better_NPC\NPC_SSS.vcxproj
C:\DEV\h3era_plugins\_h3era_plugins_\Better_NPC\Release\Better_NPC.ipdb
C:\DEV\h3era_plugins\_h3era_plugins_\Better_NPC\Release\Better_NPC.iobj
^C:\DEV\h3era_plugins\_h3era_plugins_\Better_NPC\NPC_SSS.vcxproj
C:\DEV\h3era_plugins\_h3era_plugins_\Better_NPC\Release\Better_NPC.ipdb
C:\DEV\h3era_plugins\_h3era_plugins_\Better_NPC\Release\Better_NPC.iobj
^C:\DEV\h3era_plugins\_h3era_plugins_\Better_NPC\NPC_SSS.vcxproj
C:\DEV\h3era_plugins\_h3era_plugins_\Better_NPC\Release\Better_NPC.ipdb
C:\DEV\h3era_plugins\_h3era_plugins_\Better_NPC\Release\Better_NPC.iobj
^C:\DEV\h3era_plugins\_h3era_plugins_\Better_NPC\NPC_SSS.vcxproj
C:\DEV\h3era_plugins\_h3era_plugins_\Better_NPC\Release\Better_NPC.ipdb
C:\DEV\h3era_plugins\_h3era_plugins_\Better_NPC\Release\Better_NPC.iobj
^C:\DEV\h3era_plugins\_h3era_plugins_\Better_NPC\NPC_SSS.vcxproj
C:\DEV\h3era_plugins\_h3era_plugins_\Better_NPC\Release\Better_NPC.ipdb
C:\DEV\h3era_plugins\_h3era_plugins_\Better_NPC\Release\Better_NPC.iobj
^C:\DEV\h3era_plugins\_h3era_plugins_\Better_NPC\NPC_SSS.vcxproj
C:\DEV\h3era_plugins\_h3era_plugins_\Better_NPC\Release\Better_NPC.ipdb
C:\DEV\h3era_plugins\_h3era_plugins_\Better_NPC\Release\Better_NPC.iobj
^C:\DEV\h3era_plugins\_h3era_plugins_\Better_NPC\NPC_SSS.vcxproj
C:\DEV\h3era_plugins\_h3era_plugins_\Better_NPC\Release\Better_NPC.ipdb
C:\DEV\h3era_plugins\_h3era_plugins_\Better_NPC\Release\Better_NPC.iobj
^C:\DEV\h3era_plugins\_h3era_plugins_\Better_NPC\NPC_SSS.vcxproj
C:\DEV\h3era_plugins\_h3era_plugins_\Better_NPC\Release\Better_NPC.ipdb
C:\DEV\h3era_plugins\_h3era_plugins_\Better_NPC\Release\Better_NPC.iobj
^C:\DEV\h3era_plugins\_h3era_plugins_\Better_NPC\NPC_SSS.vcxproj
C:\DEV\h3era_plugins\_h3era_plugins_\Better_NPC\Release\Better_NPC.ipdb
C:\DEV\h3era_plugins\_h3era_plugins_\Better_NPC\Release\Better_NPC.iobj
^C:\DEV\h3era_plugins\_h3era_plugins_\Better_NPC\NPC_SSS.vcxproj
C:\DEV\h3era_plugins\_h3era_plugins_\Better_NPC\Release\Better_NPC.ipdb
C:\DEV\h3era_plugins\_h3era_plugins_\Better_NPC\Release\Better_NPC.iobj
^C:\DEV\h3era_plugins\_h3era_plugins_\Better_NPC\NPC_SSS.vcxproj
C:\DEV\h3era_plugins\_h3era_plugins_\Better_NPC\Release\Better_NPC.ipdb
C:\DEV\h3era_plugins\_h3era_plugins_\Better_NPC\Release\Better_NPC.iobj
^C:\DEV\h3era_plugins\_h3era_plugins_\Better_NPC\NPC_SSS.vcxproj
C:\DEV\h3era_plugins\_h3era_plugins_\Better_NPC\Release\Better_NPC.ipdb
C:\DEV\h3era_plugins\_h3era_plugins_\Better_NPC\Release\Better_NPC.iobj
^C:\DEV\h3era_plugins\_h3era_plugins_\Better_NPC\NPC_SSS.vcxproj
C:\DEV\h3era_plugins\_h3era_plugins_\Better_NPC\Release\Better_NPC.ipdb
C:\DEV\h3era_plugins\_h3era_plugins_\Better_NPC\Release\Better_NPC.iobj
^C:\DEV\h3era_plugins\_h3era_plugins_\Better_NPC\NPC_SSS.vcxproj
C:\DEV\h3era_plugins\_h3era_plugins_\Better_NPC\Release\Better_NPC.ipdb
C:\DEV\h3era_plugins\_h3era_plugins_\Better_NPC\Release\Better_NPC.iobj
^C:\DEV\h3era_plugins\_h3era_plugins_\Better_NPC\NPC_SSS.vcxproj
C:\DEV\h3era_plugins\_h3era_plugins_\Better_NPC\Release\Better_NPC.ipdb
C:\DEV\h3era_plugins\_h3era_plugins_\Better_NPC\Release\Better_NPC.iobj
^C:\DEV\h3era_plugins\_h3era_plugins_\Better_NPC\NPC_SSS.vcxproj
C:\DEV\h3era_plugins\_h3era_plugins_\Better_NPC\Release\Better_NPC.ipdb
C:\DEV\h3era_plugins\_h3era_plugins_\Better_NPC\Release\Better_NPC.iobj
^C:\DEV\h3era_plugins\_h3era_plugins_\Better_NPC\NPC_SSS.vcxproj
C:\DEV\h3era_plugins\_h3era_plugins_\Better_NPC\Release\Better_NPC.ipdb
C:\DEV\h3era_plugins\_h3era_plugins_\Better_NPC\Release\Better_NPC.iobj
^C:\DEV\h3era_plugins\_h3era_plugins_\Better_NPC\NPC_SSS.vcxproj
C:\DEV\h3era_plugins\_h3era_plugins_\Better_NPC\Release\Better_NPC.ipdb
C:\DEV\h3era_plugins\_h3era_plugins_\Better_NPC\Release\Better_NPC.iobj
^C:\DEV\h3era_plugins\_h3era_plugins_\Better_NPC\NPC_SSS.vcxproj
C:\DEV\h3era_plugins\_h3era_plugins_\Better_NPC\Release\Better_NPC.ipdb
C:\DEV\h3era_plugins\_h3era_plugins_\Better_NPC\Release\Better_NPC.iobj
^C:\DEV\h3era_plugins\_h3era_plugins_\Better_NPC\NPC_SSS.vcxproj
C:\DEV\h3era_plugins\_h3era_plugins_\Better_NPC\Release\Better_NPC.ipdb
C:\DEV\h3era_plugins\_h3era_plugins_\Better_NPC\Release\Better_NPC.iobj
^C:\DEV\h3era_plugins\_h3era_plugins_\Better_NPC\NPC_SSS.vcxproj
C:\DEV\h3era_plugins\_h3era_plugins_\Better_NPC\Release\Better_NPC.ipdb
C:\DEV\h3era_plugins\_h3era_plugins_\Better_NPC\Release\Better_NPC.iobj
^C:\DEV\h3era_plugins\_h3era_plugins_\Better_NPC\NPC_SSS.vcxproj
C:\DEV\h3era_plugins\_h3era_plugins_\Better_NPC\Release\Better_NPC.ipdb
C:\DEV\h3era_plugins\_h3era_plugins_\Better_NPC\Release\Better_NPC.iobj
^C:\DEV\h3era_plugins\_h3era_plugins_\Better_NPC\NPC_SSS.vcxproj
C:\DEV\h3era_plugins\_h3era_plugins_\Better_NPC\Release\Better_NPC.ipdb
C:\DEV\h3era_plugins\_h3era_plugins_\Better_NPC\Release\Better_NPC.iobj
^E:\DEV\__REPOSITORY__\_h3era_Plugins_\Better_NPC\NPC_SSS.vcxproj
E:\DEV\__REPOSITORY__\_h3era_Plugins_\Better_NPC\Release\Better_NPC.ipdb
E:\DEV\__REPOSITORY__\_h3era_Plugins_\Better_NPC\Release\Better_NPC.iobj
^E:\DEV\__REPOSITORY__\_h3era_Plugins_\Better_NPC\NPC_SSS.vcxproj
E:\DEV\__REPOSITORY__\_h3era_Plugins_\Better_NPC\Release\Better_NPC.ipdb
E:\DEV\__REPOSITORY__\_h3era_Plugins_\Better_NPC\Release\Better_NPC.iobj
^E:\DEV\__REPOSITORY__\_h3era_Plugins_\Better_NPC\NPC_SSS.vcxproj
E:\DEV\__REPOSITORY__\_h3era_Plugins_\Better_NPC\Release\Better_NPC.ipdb
E:\DEV\__REPOSITORY__\_h3era_Plugins_\Better_NPC\Release\Better_NPC.iobj
^E:\DEV\__REPOSITORY__\_h3era_Plugins_\Better_NPC\NPC_SSS.vcxproj
E:\DEV\__REPOSITORY__\_h3era_Plugins_\Better_NPC\Release\Better_NPC.ipdb
E:\DEV\__REPOSITORY__\_h3era_Plugins_\Better_NPC\Release\Better_NPC.iobj
^E:\DEV\__REPOSITORY__\_h3era_Plugins_\Better_NPC\NPC_SSS.vcxproj
E:\DEV\__REPOSITORY__\_h3era_Plugins_\Better_NPC\Release\Better_NPC.ipdb
E:\DEV\__REPOSITORY__\_h3era_Plugins_\Better_NPC\Release\Better_NPC.iobj
^E:\DEV\__REPOSITORY__\_h3era_Plugins_\Better_NPC\NPC_SSS.vcxproj
E:\DEV\__REPOSITORY__\_h3era_Plugins_\Better_NPC\Release\Better_NPC.ipdb
E:\DEV\__REPOSITORY__\_h3era_Plugins_\Better_NPC\Release\Better_NPC.iobj
^E:\DEV\__REPOSITORY__\_h3era_Plugins_\Better_NPC\NPC_SSS.vcxproj
E:\DEV\__REPOSITORY__\_h3era_Plugins_\Better_NPC\Release\Better_NPC.ipdb
E:\DEV\__REPOSITORY__\_h3era_Plugins_\Better_NPC\Release\Better_NPC.iobj
^E:\DEV\__REPOSITORY__\_h3era_Plugins_\Better_NPC\NPC_SSS.vcxproj
E:\DEV\__REPOSITORY__\_h3era_Plugins_\Better_NPC\Release\Better_NPC.ipdb
E:\DEV\__REPOSITORY__\_h3era_Plugins_\Better_NPC\Release\Better_NPC.iobj
^E:\DEV\__REPOSITORY__\_h3era_Plugins_\Better_NPC\NPC_SSS.vcxproj
E:\DEV\__REPOSITORY__\_h3era_Plugins_\Better_NPC\Release\Better_NPC.ipdb
E:\DEV\__REPOSITORY__\_h3era_Plugins_\Better_NPC\Release\Better_NPC.iobj
^E:\DEV\__REPOSITORY__\_h3era_Plugins_\Better_NPC\NPC_SSS.vcxproj
E:\DEV\__REPOSITORY__\_h3era_Plugins_\Better_NPC\Release\Better_NPC.ipdb
E:\DEV\__REPOSITORY__\_h3era_Plugins_\Better_NPC\Release\Better_NPC.iobj
^E:\DEV\__REPOSITORY__\_h3era_Plugins_\Better_NPC\NPC_SSS.vcxproj
E:\DEV\__REPOSITORY__\_h3era_Plugins_\Better_NPC\Release\Better_NPC.ipdb
E:\DEV\__REPOSITORY__\_h3era_Plugins_\Better_NPC\Release\Better_NPC.iobj
^E:\DEV\__REPOSITORY__\_h3era_Plugins_\Better_NPC\NPC_SSS.vcxproj
E:\DEV\__REPOSITORY__\_h3era_Plugins_\Better_NPC\Release\Better_NPC.ipdb
E:\DEV\__REPOSITORY__\_h3era_Plugins_\Better_NPC\Release\Better_NPC.iobj
^E:\DEV\__REPOSITORY__\_h3era_Plugins_\Better_NPC\NPC_SSS.vcxproj
E:\DEV\__REPOSITORY__\_h3era_Plugins_\Better_NPC\Release\Better_NPC.ipdb
E:\DEV\__REPOSITORY__\_h3era_Plugins_\Better_NPC\Release\Better_NPC.iobj
^E:\DEV\__REPOSITORY__\_h3era_Plugins_\Better_NPC\NPC_SSS.vcxproj
E:\DEV\__REPOSITORY__\_h3era_Plugins_\Better_NPC\Release\Better_NPC.ipdb
E:\DEV\__REPOSITORY__\_h3era_Plugins_\Better_NPC\Release\Better_NPC.iobj
^E:\DEV\__REPOSITORY__\_h3era_Plugins_\Better_NPC\NPC_SSS.vcxproj
E:\DEV\__REPOSITORY__\_h3era_Plugins_\Better_NPC\Release\Better_NPC.ipdb
E:\DEV\__REPOSITORY__\_h3era_Plugins_\Better_NPC\Release\Better_NPC.iobj
^E:\DEV\__REPOSITORY__\_h3era_Plugins_\Better_NPC\NPC_SSS.vcxproj
E:\DEV\__REPOSITORY__\_h3era_Plugins_\Better_NPC\Release\Better_NPC.ipdb
E:\DEV\__REPOSITORY__\_h3era_Plugins_\Better_NPC\Release\Better_NPC.iobj
^E:\DEV\__REPOSITORY__\_h3era_Plugins_\Better_NPC\NPC_SSS.vcxproj
E:\DEV\__REPOSITORY__\_h3era_Plugins_\Better_NPC\Release\Better_NPC.ipdb
E:\DEV\__REPOSITORY__\_h3era_Plugins_\Better_NPC\Release\Better_NPC.iobj
^E:\DEV\__REPOSITORY__\_h3era_Plugins_\Better_NPC\NPC_SSS.vcxproj
E:\DEV\__REPOSITORY__\_h3era_Plugins_\Better_NPC\Release\Better_NPC.ipdb
E:\DEV\__REPOSITORY__\_h3era_Plugins_\Better_NPC\Release\Better_NPC.iobj
^E:\DEV\__REPOSITORY__\_h3era_Plugins_\Better_NPC\NPC_SSS.vcxproj
E:\DEV\__REPOSITORY__\_h3era_Plugins_\Better_NPC\Release\Better_NPC.ipdb
E:\DEV\__REPOSITORY__\_h3era_Plugins_\Better_NPC\Release\Better_NPC.iobj
^E:\DEV\__REPOSITORY__\_h3era_Plugins_\Better_NPC\NPC_SSS.vcxproj
E:\DEV\__REPOSITORY__\_h3era_Plugins_\Better_NPC\Release\Better_NPC.ipdb
E:\DEV\__REPOSITORY__\_h3era_Plugins_\Better_NPC\Release\Better_NPC.iobj
^E:\DEV\__REPOSITORY__\_h3era_Plugins_\Better_NPC\NPC_SSS.vcxproj
E:\DEV\__REPOSITORY__\_h3era_Plugins_\Better_NPC\Release\Better_NPC.ipdb
E:\DEV\__REPOSITORY__\_h3era_Plugins_\Better_NPC\Release\Better_NPC.iobj
^E:\DEV\__REPOSITORY__\_h3era_Plugins_\Better_NPC\NPC_SSS.vcxproj
E:\DEV\__REPOSITORY__\_h3era_Plugins_\Better_NPC\Release\Better_NPC.ipdb
E:\DEV\__REPOSITORY__\_h3era_Plugins_\Better_NPC\Release\Better_NPC.iobj
^E:\DEV\__REPOSITORY__\_h3era_Plugins_\Better_NPC\NPC_SSS.vcxproj
E:\DEV\__REPOSITORY__\_h3era_Plugins_\Better_NPC\Release\Better_NPC.ipdb
E:\DEV\__REPOSITORY__\_h3era_Plugins_\Better_NPC\Release\Better_NPC.iobj
^E:\DEV\__REPOSITORY__\_h3era_Plugins_\Better_NPC\NPC_SSS.vcxproj
E:\DEV\__REPOSITORY__\_h3era_Plugins_\Better_NPC\Release\Better_NPC.ipdb
E:\DEV\__REPOSITORY__\_h3era_Plugins_\Better_NPC\Release\Better_NPC.iobj
^E:\DEV\__REPOSITORY__\_h3era_Plugins_\Better_NPC\NPC_SSS.vcxproj
E:\DEV\__REPOSITORY__\_h3era_Plugins_\Better_NPC\Release\Better_NPC.ipdb
E:\DEV\__REPOSITORY__\_h3era_Plugins_\Better_NPC\Release\Better_NPC.iobj
^E:\DEV\__REPOSITORY__\_h3era_Plugins_\Better_NPC\NPC_SSS.vcxproj
E:\DEV\__REPOSITORY__\_h3era_Plugins_\Better_NPC\Release\Better_NPC.ipdb
E:\DEV\__REPOSITORY__\_h3era_Plugins_\Better_NPC\Release\Better_NPC.iobj
^E:\DEV\__REPOSITORY__\_h3era_Plugins_\Better_NPC\NPC_SSS.vcxproj
E:\DEV\__REPOSITORY__\_h3era_Plugins_\Better_NPC\Release\Better_NPC.ipdb
E:\DEV\__REPOSITORY__\_h3era_Plugins_\Better_NPC\Release\Better_NPC.iobj
^E:\DEV\__REPOSITORY__\_h3era_Plugins_\Better_NPC\NPC_SSS.vcxproj
E:\DEV\__REPOSITORY__\_h3era_Plugins_\Better_NPC\Release\Better_NPC.ipdb
E:\DEV\__REPOSITORY__\_h3era_Plugins_\Better_NPC\Release\Better_NPC.iobj
^E:\DEV\__REPOSITORY__\_h3era_Plugins_\Better_NPC\NPC_SSS.vcxproj
E:\DEV\__REPOSITORY__\_h3era_Plugins_\Better_NPC\Release\Better_NPC.ipdb
E:\DEV\__REPOSITORY__\_h3era_Plugins_\Better_NPC\Release\Better_NPC.iobj
^E:\DEV\__REPOSITORY__\_h3era_Plugins_\Better_NPC\NPC_SSS.vcxproj
E:\DEV\__REPOSITORY__\_h3era_Plugins_\Better_NPC\Release\Better_NPC.ipdb
E:\DEV\__REPOSITORY__\_h3era_Plugins_\Better_NPC\Release\Better_NPC.iobj
^E:\DEV\__REPOSITORY__\_h3era_Plugins_\Better_NPC\NPC_SSS.vcxproj
E:\DEV\__REPOSITORY__\_h3era_Plugins_\Better_NPC\Release\Better_NPC.ipdb
E:\DEV\__REPOSITORY__\_h3era_Plugins_\Better_NPC\Release\Better_NPC.iobj
^E:\DEV\__REPOSITORY__\_h3era_Plugins_\Better_NPC\NPC_SSS.vcxproj
E:\DEV\__REPOSITORY__\_h3era_Plugins_\Better_NPC\Release\Better_NPC.ipdb
E:\DEV\__REPOSITORY__\_h3era_Plugins_\Better_NPC\Release\Better_NPC.iobj
^E:\DEV\__REPOSITORY__\_h3era_Plugins_\Better_NPC\NPC_SSS.vcxproj
E:\DEV\__REPOSITORY__\_h3era_Plugins_\Better_NPC\Release\Better_NPC.ipdb
E:\DEV\__REPOSITORY__\_h3era_Plugins_\Better_NPC\Release\Better_NPC.iobj
^E:\DEV\__REPOSITORY__\_h3era_Plugins_\Better_NPC\NPC_SSS.vcxproj
E:\DEV\__REPOSITORY__\_h3era_Plugins_\Better_NPC\Release\Better_NPC.ipdb
E:\DEV\__REPOSITORY__\_h3era_Plugins_\Better_NPC\Release\Better_NPC.iobj
^E:\DEV\__REPOSITORY__\_h3era_Plugins_\Better_NPC\NPC_SSS.vcxproj
E:\DEV\__REPOSITORY__\_h3era_Plugins_\Better_NPC\Release\Better_NPC.ipdb
E:\DEV\__REPOSITORY__\_h3era_Plugins_\Better_NPC\Release\Better_NPC.iobj
^E:\DEV\__REPOSITORY__\_h3era_Plugins_\Better_NPC\NPC_SSS.vcxproj
E:\DEV\__REPOSITORY__\_h3era_Plugins_\Better_NPC\Release\Better_NPC.ipdb
E:\DEV\__REPOSITORY__\_h3era_Plugins_\Better_NPC\Release\Better_NPC.iobj
^E:\DEV\__REPOSITORY__\_h3era_Plugins_\Better_NPC\NPC_SSS.vcxproj
E:\DEV\__REPOSITORY__\_h3era_Plugins_\Better_NPC\Release\Better_NPC.ipdb
E:\DEV\__REPOSITORY__\_h3era_Plugins_\Better_NPC\Release\Better_NPC.iobj
^E:\DEV\__REPOSITORY__\_h3era_Plugins_\Better_NPC\NPC_SSS.vcxproj
E:\DEV\__REPOSITORY__\_h3era_Plugins_\Better_NPC\Release\Better_NPC.ipdb
E:\DEV\__REPOSITORY__\_h3era_Plugins_\Better_NPC\Release\Better_NPC.iobj
^E:\DEV\__REPOSITORY__\_h3era_Plugins_\Better_NPC\NPC_SSS.vcxproj
E:\DEV\__REPOSITORY__\_h3era_Plugins_\Better_NPC\Release\Better_NPC.ipdb
E:\DEV\__REPOSITORY__\_h3era_Plugins_\Better_NPC\Release\Better_NPC.iobj
^E:\DEV\__REPOSITORY__\_h3era_Plugins_\Better_NPC\NPC_SSS.vcxproj
E:\DEV\__REPOSITORY__\_h3era_Plugins_\Better_NPC\Release\Better_NPC.ipdb
E:\DEV\__REPOSITORY__\_h3era_Plugins_\Better_NPC\Release\Better_NPC.iobj
^E:\DEV\__REPOSITORY__\_h3era_Plugins_\Better_NPC\NPC_SSS.vcxproj
E:\DEV\__REPOSITORY__\_h3era_Plugins_\Better_NPC\Release\Better_NPC.ipdb
E:\DEV\__REPOSITORY__\_h3era_Plugins_\Better_NPC\Release\Better_NPC.iobj
^E:\DEV\__REPOSITORY__\_h3era_Plugins_\Better_NPC\NPC_SSS.vcxproj
E:\DEV\__REPOSITORY__\_h3era_Plugins_\Better_NPC\Release\Better_NPC.ipdb
E:\DEV\__REPOSITORY__\_h3era_Plugins_\Better_NPC\Release\Better_NPC.iobj
^E:\DEV\__REPOSITORY__\_h3era_Plugins_\Better_NPC\NPC_SSS.vcxproj
E:\DEV\__REPOSITORY__\_h3era_Plugins_\Better_NPC\Release\Better_NPC.ipdb
E:\DEV\__REPOSITORY__\_h3era_Plugins_\Better_NPC\Release\Better_NPC.iobj
^E:\DEV\__REPOSITORY__\_h3era_Plugins_\Better_NPC\NPC_SSS.vcxproj
E:\DEV\__REPOSITORY__\_h3era_Plugins_\Better_NPC\Release\Better_NPC.ipdb
E:\DEV\__REPOSITORY__\_h3era_Plugins_\Better_NPC\Release\Better_NPC.iobj
^E:\DEV\__REPOSITORY__\_h3era_Plugins_\Better_NPC\NPC_SSS.vcxproj
E:\DEV\__REPOSITORY__\_h3era_Plugins_\Better_NPC\Release\Better_NPC.ipdb
E:\DEV\__REPOSITORY__\_h3era_Plugins_\Better_NPC\Release\Better_NPC.iobj
^E:\DEV\__REPOSITORY__\_h3era_Plugins_\Better_NPC\NPC_SSS.vcxproj
E:\DEV\__REPOSITORY__\_h3era_Plugins_\Better_NPC\Release\Better_NPC.ipdb
E:\DEV\__REPOSITORY__\_h3era_Plugins_\Better_NPC\Release\Better_NPC.iobj
^E:\DEV\__REPOSITORY__\_h3era_Plugins_\Better_NPC\NPC_SSS.vcxproj
E:\DEV\__REPOSITORY__\_h3era_Plugins_\Better_NPC\Release\Better_NPC.ipdb
E:\DEV\__REPOSITORY__\_h3era_Plugins_\Better_NPC\Release\Better_NPC.iobj
^E:\DEV\__REPOSITORY__\_h3era_Plugins_\Better_NPC\NPC_SSS.vcxproj
E:\DEV\__REPOSITORY__\_h3era_Plugins_\Better_NPC\Release\Better_NPC.ipdb
E:\DEV\__REPOSITORY__\_h3era_Plugins_\Better_NPC\Release\Better_NPC.iobj
^E:\DEV\__REPOSITORY__\_h3era_Plugins_\Better_NPC\NPC_SSS.vcxproj
E:\DEV\__REPOSITORY__\_h3era_Plugins_\Better_NPC\Release\Better_NPC.ipdb
E:\DEV\__REPOSITORY__\_h3era_Plugins_\Better_NPC\Release\Better_NPC.iobj
^E:\DEV\__REPOSITORY__\_h3era_Plugins_\Better_NPC\NPC_SSS.vcxproj
E:\DEV\__REPOSITORY__\_h3era_Plugins_\Better_NPC\Release\Better_NPC.ipdb
E:\DEV\__REPOSITORY__\_h3era_Plugins_\Better_NPC\Release\Better_NPC.iobj
^E:\DEV\__REPOSITORY__\_h3era_Plugins_\Better_NPC\NPC_SSS.vcxproj
E:\DEV\__REPOSITORY__\_h3era_Plugins_\Better_NPC\Release\Better_NPC.ipdb
E:\DEV\__REPOSITORY__\_h3era_Plugins_\Better_NPC\Release\Better_NPC.iobj
^E:\DEV\__REPOSITORY__\_h3era_Plugins_\Better_NPC\NPC_SSS.vcxproj
E:\DEV\__REPOSITORY__\_h3era_Plugins_\Better_NPC\Release\Better_NPC.ipdb
E:\DEV\__REPOSITORY__\_h3era_Plugins_\Better_NPC\Release\Better_NPC.iobj
^E:\DEV\__REPOSITORY__\_h3era_Plugins_\Better_NPC\NPC_SSS.vcxproj
E:\DEV\__REPOSITORY__\_h3era_Plugins_\Better_NPC\Release\Better_NPC.ipdb
E:\DEV\__REPOSITORY__\_h3era_Plugins_\Better_NPC\Release\Better_NPC.iobj
^E:\DEV\__REPOSITORY__\_h3era_Plugins_\Better_NPC\NPC_SSS.vcxproj
E:\DEV\__REPOSITORY__\_h3era_Plugins_\Better_NPC\Release\Better_NPC.ipdb
E:\DEV\__REPOSITORY__\_h3era_Plugins_\Better_NPC\Release\Better_NPC.iobj
^E:\DEV\__REPOSITORY__\_h3era_Plugins_\Better_NPC\NPC_SSS.vcxproj
E:\DEV\__REPOSITORY__\_h3era_Plugins_\Better_NPC\Release\Better_NPC.ipdb
E:\DEV\__REPOSITORY__\_h3era_Plugins_\Better_NPC\Release\Better_NPC.iobj
^E:\DEV\__REPOSITORY__\_h3era_Plugins_\Better_NPC\NPC_SSS.vcxproj
E:\DEV\__REPOSITORY__\_h3era_Plugins_\Better_NPC\Release\Better_NPC.ipdb
E:\DEV\__REPOSITORY__\_h3era_Plugins_\Better_NPC\Release\Better_NPC.iobj
^E:\DEV\__REPOSITORY__\_h3era_Plugins_\Better_NPC\NPC_SSS.vcxproj
E:\DEV\__REPOSITORY__\_h3era_Plugins_\Better_NPC\Release\Better_NPC.ipdb
E:\DEV\__REPOSITORY__\_h3era_Plugins_\Better_NPC\Release\Better_NPC.iobj
^E:\DEV\__REPOSITORY__\_h3era_Plugins_\Better_NPC\NPC_SSS.vcxproj
E:\DEV\__REPOSITORY__\_h3era_Plugins_\Better_NPC\Release\Better_NPC.ipdb
E:\DEV\__REPOSITORY__\_h3era_Plugins_\Better_NPC\Release\Better_NPC.iobj
^E:\DEV\__REPOSITORY__\_h3era_Plugins_\Better_NPC\NPC_SSS.vcxproj
E:\DEV\__REPOSITORY__\_h3era_Plugins_\Better_NPC\Release\Better_NPC.ipdb
E:\DEV\__REPOSITORY__\_h3era_Plugins_\Better_NPC\Release\Better_NPC.iobj
^E:\DEV\__REPOSITORY__\_h3era_Plugins_\Better_NPC\NPC_SSS.vcxproj
E:\DEV\__REPOSITORY__\_h3era_Plugins_\Better_NPC\Release\Better_NPC.ipdb
E:\DEV\__REPOSITORY__\_h3era_Plugins_\Better_NPC\Release\Better_NPC.iobj
^E:\DEV\__REPOSITORY__\_h3era_Plugins_\Better_NPC\NPC_SSS.vcxproj
E:\DEV\__REPOSITORY__\_h3era_Plugins_\Better_NPC\Release\Better_NPC.ipdb
E:\DEV\__REPOSITORY__\_h3era_Plugins_\Better_NPC\Release\Better_NPC.iobj
^E:\DEV\__REPOSITORY__\_h3era_Plugins_\Better_NPC\NPC_SSS.vcxproj
E:\DEV\__REPOSITORY__\_h3era_Plugins_\Better_NPC\Release\Better_NPC.ipdb
E:\DEV\__REPOSITORY__\_h3era_Plugins_\Better_NPC\Release\Better_NPC.iobj
^E:\DEV\__REPOSITORY__\_h3era_Plugins_\Better_NPC\NPC_SSS.vcxproj
E:\DEV\__REPOSITORY__\_h3era_Plugins_\Better_NPC\Release\Better_NPC.ipdb
E:\DEV\__REPOSITORY__\_h3era_Plugins_\Better_NPC\Release\Better_NPC.iobj
^E:\DEV\__REPOSITORY__\_h3era_Plugins_\Better_NPC\NPC_SSS.vcxproj
E:\DEV\__REPOSITORY__\_h3era_Plugins_\Better_NPC\Release\Better_NPC.ipdb
E:\DEV\__REPOSITORY__\_h3era_Plugins_\Better_NPC\Release\Better_NPC.iobj
^E:\DEV\__REPOSITORY__\_h3era_Plugins_\Better_NPC\NPC_SSS.vcxproj
E:\DEV\__REPOSITORY__\_h3era_Plugins_\Better_NPC\Release\Better_NPC.ipdb
E:\DEV\__REPOSITORY__\_h3era_Plugins_\Better_NPC\Release\Better_NPC.iobj
^E:\DEV\__REPOSITORY__\_h3era_plugins_\Better_NPC\NPC_SSS.vcxproj
E:\DEV\__REPOSITORY__\_h3era_plugins_\Better_NPC\Release\Better_NPC.ipdb
E:\DEV\__REPOSITORY__\_h3era_plugins_\Better_NPC\Release\Better_NPC.iobj
^E:\DEV\__REPOSITORY__\_h3era_plugins_\Better_NPC\NPC_SSS.vcxproj
E:\DEV\__REPOSITORY__\_h3era_plugins_\Better_NPC\Release\Better_NPC.ipdb
E:\DEV\__REPOSITORY__\_h3era_plugins_\Better_NPC\Release\Better_NPC.iobj
^E:\DEV\__REPOSITORY__\_h3era_plugins_\Better_NPC\NPC_SSS.vcxproj
E:\DEV\__REPOSITORY__\_h3era_plugins_\Better_NPC\Release\Better_NPC.ipdb
E:\DEV\__REPOSITORY__\_h3era_plugins_\Better_NPC\Release\Better_NPC.iobj
^E:\DEV\__REPOSITORY__\_h3era_plugins_\Better_NPC\NPC_SSS.vcxproj
E:\DEV\__REPOSITORY__\_h3era_plugins_\Better_NPC\Release\Better_NPC.ipdb
E:\DEV\__REPOSITORY__\_h3era_plugins_\Better_NPC\Release\Better_NPC.iobj
^E:\DEV\__REPOSITORY__\_h3era_plugins_\Better_NPC\NPC_SSS.vcxproj
E:\DEV\__REPOSITORY__\_h3era_plugins_\Better_NPC\Release\Better_NPC.ipdb
E:\DEV\__REPOSITORY__\_h3era_plugins_\Better_NPC\Release\Better_NPC.iobj
^E:\DEV\__REPOSITORY__\_h3era_plugins_\Better_NPC\NPC_SSS.vcxproj
E:\DEV\__REPOSITORY__\_h3era_plugins_\Better_NPC\Release\Better_NPC.ipdb
E:\DEV\__REPOSITORY__\_h3era_plugins_\Better_NPC\Release\Better_NPC.iobj
^E:\DEV\__REPOSITORY__\_h3era_plugins_\Better_NPC\NPC_SSS.vcxproj
E:\DEV\__REPOSITORY__\_h3era_plugins_\Better_NPC\Release\Better_NPC.ipdb
E:\DEV\__REPOSITORY__\_h3era_plugins_\Better_NPC\Release\Better_NPC.iobj
