^C:\DEV\H3ERA_PLUGINS\_H3ERA_PLUGINS_\BETTER_NPC\NPC_SPECIAL.CPP
/c /Zi /nologo /W3 /WX- /diagnostics:classic /sdl /O2 /Oi /Oy- /GL /D WIN32 /D NDEBUG /D NPC_SSS_EXPORTS /D _WINDOWS /D _USRDLL /D _USING_V110_SDK71_ /D _WINDLL /D _UNICODE /D UNICODE /Gm- /EHsc /MT /GS /Gy /fp:precise /permissive- /Zc:wchar_t /Zc:forScope /Zc:inline /std:c++latest /Fo"RELEASE\\" /Fd"RELEASE\VC141.PDB" /Gd /TP /analyze- /FC C:\DEV\H3ERA_PLUGINS\_H3ERA_PLUGINS_\BETTER_NPC\NPC_SPECIAL.CPP
^C:\DEV\H3ERA_PLUGINS\_H3ERA_PLUGINS_\BETTER_NPC\NPC_SKILLS.CPP
/c /Zi /nologo /W3 /WX- /diagnostics:classic /sdl /O2 /Oi /Oy- /GL /D WIN32 /D NDEBUG /D NPC_SSS_EXPORTS /D _WINDOWS /D _USRDLL /D _USING_V110_SDK71_ /D _WINDLL /D _UNICODE /D UNICODE /Gm- /EHsc /MT /GS /Gy /fp:precise /permissive- /Zc:wchar_t /Zc:forScope /Zc:inline /std:c++latest /Fo"RELEASE\\" /Fd"RELEASE\VC141.PDB" /Gd /TP /analyze- /FC C:\DEV\H3ERA_PLUGINS\_H3ERA_PLUGINS_\BETTER_NPC\NPC_SKILLS.CPP
^C:\DEV\H3ERA_PLUGINS\_H3ERA_PLUGINS_\BETTER_NPC\NPC_SSS.CPP
/c /Zi /nologo /W3 /WX- /diagnostics:classic /sdl /O2 /Oi /Oy- /GL /D WIN32 /D NDEBUG /D NPC_SSS_EXPORTS /D _WINDOWS /D _USRDLL /D _USING_V110_SDK71_ /D _WINDLL /D _UNICODE /D UNICODE /Gm- /EHsc /MT /GS /Gy /fp:precise /permissive- /Zc:wchar_t /Zc:forScope /Zc:inline /std:c++latest /Fo"RELEASE\\" /Fd"RELEASE\VC141.PDB" /Gd /TP /analyze- /FC C:\DEV\H3ERA_PLUGINS\_H3ERA_PLUGINS_\BETTER_NPC\NPC_SSS.CPP
^E:\DEV\__REPOSITORY__\_H3ERA_PLUGINS_\BETTER_NPC\NPC_SPECIAL.CPP
/c /Zi /nologo /W3 /WX- /diagnostics:classic /sdl /O2 /Oi /Oy- /GL /D WIN32 /D NDEBUG /D NPC_SSS_EXPORTS /D _WINDOWS /D _USRDLL /D _USING_V110_SDK71_ /D _WINDLL /D _UNICODE /D UNICODE /Gm- /EHsc /MT /GS /Gy /fp:precise /permissive- /Zc:wchar_t /Zc:forScope /Zc:inline /std:c++latest /Fo"RELEASE\\" /Fd"RELEASE\VC141.PDB" /Gd /TP /analyze- /FC E:\DEV\__REPOSITORY__\_H3ERA_PLUGINS_\BETTER_NPC\NPC_SPECIAL.CPP
^E:\DEV\__REPOSITORY__\_H3ERA_PLUGINS_\BETTER_NPC\NPC_SSS.CPP
/c /Zi /nologo /W3 /WX- /diagnostics:classic /sdl /O2 /Oi /Oy- /GL /D WIN32 /D NDEBUG /D NPC_SSS_EXPORTS /D _WINDOWS /D _USRDLL /D _USING_V110_SDK71_ /D _WINDLL /D _UNICODE /D UNICODE /Gm- /EHsc /MT /GS /Gy /fp:precise /permissive- /Zc:wchar_t /Zc:forScope /Zc:inline /std:c++latest /Fo"RELEASE\\" /Fd"RELEASE\VC141.PDB" /Gd /TP /analyze- /FC E:\DEV\__REPOSITORY__\_H3ERA_PLUGINS_\BETTER_NPC\NPC_SSS.CPP
^E:\DEV\__REPOSITORY__\_H3ERA_PLUGINS_\BETTER_NPC\NPC_SKILLS.CPP
/c /Zi /nologo /W3 /WX- /diagnostics:classic /sdl /O2 /Oi /Oy- /GL /D WIN32 /D NDEBUG /D NPC_SSS_EXPORTS /D _WINDOWS /D _USRDLL /D _USING_V110_SDK71_ /D _WINDLL /D _UNICODE /D UNICODE /Gm- /EHsc /MT /GS /Gy /fp:precise /permissive- /Zc:wchar_t /Zc:forScope /Zc:inline /std:c++latest /Fo"RELEASE\\" /Fd"RELEASE\VC141.PDB" /Gd /TP /analyze- /FC E:\DEV\__REPOSITORY__\_H3ERA_PLUGINS_\BETTER_NPC\NPC_SKILLS.CPP
^E:\DEV\__REPOSITORY__\_H3ERA_PLUGINS_\BETTER_NPC\NPC_CLASSES.CPP
/c /Zi /nologo /W3 /WX- /diagnostics:classic /sdl /O2 /Oi /Oy- /GL /D WIN32 /D NDEBUG /D NPC_SSS_EXPORTS /D _WINDOWS /D _USRDLL /D _USING_V110_SDK71_ /D _WINDLL /D _UNICODE /D UNICODE /Gm- /EHsc /MT /GS /Gy /fp:precise /permissive- /Zc:wchar_t /Zc:forScope /Zc:inline /std:c++latest /Fo"RELEASE\\" /Fd"RELEASE\VC141.PDB" /Gd /TP /analyze- /FC E:\DEV\__REPOSITORY__\_H3ERA_PLUGINS_\BETTER_NPC\NPC_CLASSES.CPP
