^E:\DEV\__REPOSITORY__\_H3ERA_PLUGINS_\BETTER_NPC\NPC_SPECIAL.CPP
E:\DEV\__REPOSITORY__\_H3ERA_PLUGINS_\BETTER_NPC\HEADER.H
C:\PROGRAM FILES\MICROSOFT VISUAL STUDIO\2022\COMMUNITY\VC\TOOLS\MSVC\14.16.27023\INCLUDE\VECTOR
C:\PROGRAM FILES\MICROSOFT VISUAL STUDIO\2022\COMMUNITY\VC\TOOLS\MSVC\14.16.27023\INCLUDE\XMEMORY
C:\PROGRAM FILES\MICROSOFT VISUAL STUDIO\2022\COMMUNITY\VC\TOOLS\MSVC\14.16.27023\INCLUDE\XMEMORY0
C:\PROGRAM FILES\MICROSOFT VISUAL STUDIO\2022\COMMUNITY\VC\TOOLS\MSVC\14.16.27023\INCLUDE\CSTDINT
C:\PROGRAM FILES\MICROSOFT VISUAL STUDIO\2022\COMMUNITY\VC\TOOLS\MSVC\14.16.27023\INCLUDE\YVALS.H
C:\PROGRAM FILES\MICROSOFT VISUAL STUDIO\2022\COMMUNITY\VC\TOOLS\MSVC\14.16.27023\INCLUDE\YVALS_CORE.H
C:\PROGRAM FILES\MICROSOFT VISUAL STUDIO\2022\COMMUNITY\VC\TOOLS\MSVC\14.16.27023\INCLUDE\XKEYCHECK.H
C:\PROGRAM FILES\MICROSOFT VISUAL STUDIO\2022\COMMUNITY\VC\TOOLS\MSVC\14.16.27023\INCLUDE\CRTDEFS.H
C:\PROGRAM FILES\MICROSOFT VISUAL STUDIO\2022\COMMUNITY\VC\TOOLS\MSVC\14.16.27023\INCLUDE\VCRUNTIME.H
C:\PROGRAM FILES\MICROSOFT VISUAL STUDIO\2022\COMMUNITY\VC\TOOLS\MSVC\14.16.27023\INCLUDE\SAL.H
C:\PROGRAM FILES\MICROSOFT VISUAL STUDIO\2022\COMMUNITY\VC\TOOLS\MSVC\14.16.27023\INCLUDE\CONCURRENCYSAL.H
C:\PROGRAM FILES\MICROSOFT VISUAL STUDIO\2022\COMMUNITY\VC\TOOLS\MSVC\14.16.27023\INCLUDE\VADEFS.H
D:\WINDOWS KITS\10\INCLUDE\10.0.10240.0\UCRT\CORECRT.H
D:\WINDOWS KITS\10\INCLUDE\10.0.10240.0\UCRT\CRTDBG.H
C:\PROGRAM FILES\MICROSOFT VISUAL STUDIO\2022\COMMUNITY\VC\TOOLS\MSVC\14.16.27023\INCLUDE\VCRUNTIME_NEW_DEBUG.H
C:\PROGRAM FILES\MICROSOFT VISUAL STUDIO\2022\COMMUNITY\VC\TOOLS\MSVC\14.16.27023\INCLUDE\VCRUNTIME_NEW.H
C:\PROGRAM FILES\MICROSOFT VISUAL STUDIO\2022\COMMUNITY\VC\TOOLS\MSVC\14.16.27023\INCLUDE\USE_ANSI.H
C:\PROGRAM FILES\MICROSOFT VISUAL STUDIO\2022\COMMUNITY\VC\TOOLS\MSVC\14.16.27023\INCLUDE\STDINT.H
C:\PROGRAM FILES\MICROSOFT VISUAL STUDIO\2022\COMMUNITY\VC\TOOLS\MSVC\14.16.27023\INCLUDE\CSTDLIB
D:\WINDOWS KITS\10\INCLUDE\10.0.10240.0\UCRT\STDLIB.H
D:\WINDOWS KITS\10\INCLUDE\10.0.10240.0\UCRT\CORECRT_MALLOC.H
D:\WINDOWS KITS\10\INCLUDE\10.0.10240.0\UCRT\CORECRT_SEARCH.H
D:\WINDOWS KITS\10\INCLUDE\10.0.10240.0\UCRT\STDDEF.H
D:\WINDOWS KITS\10\INCLUDE\10.0.10240.0\UCRT\CORECRT_WSTDLIB.H
C:\PROGRAM FILES\MICROSOFT VISUAL STUDIO\2022\COMMUNITY\VC\TOOLS\MSVC\14.16.27023\INCLUDE\LIMITS.H
D:\WINDOWS KITS\10\INCLUDE\10.0.10240.0\UCRT\MATH.H
C:\PROGRAM FILES\MICROSOFT VISUAL STUDIO\2022\COMMUNITY\VC\TOOLS\MSVC\14.16.27023\INCLUDE\LIMITS
C:\PROGRAM FILES\MICROSOFT VISUAL STUDIO\2022\COMMUNITY\VC\TOOLS\MSVC\14.16.27023\INCLUDE\YMATH.H
C:\PROGRAM FILES\MICROSOFT VISUAL STUDIO\2022\COMMUNITY\VC\TOOLS\MSVC\14.16.27023\INCLUDE\CFLOAT
D:\WINDOWS KITS\10\INCLUDE\10.0.10240.0\UCRT\FLOAT.H
C:\PROGRAM FILES\MICROSOFT VISUAL STUDIO\2022\COMMUNITY\VC\TOOLS\MSVC\14.16.27023\INCLUDE\CLIMITS
C:\PROGRAM FILES\MICROSOFT VISUAL STUDIO\2022\COMMUNITY\VC\TOOLS\MSVC\14.16.27023\INCLUDE\CMATH
C:\PROGRAM FILES\MICROSOFT VISUAL STUDIO\2022\COMMUNITY\VC\TOOLS\MSVC\14.16.27023\INCLUDE\XTGMATH.H
C:\PROGRAM FILES\MICROSOFT VISUAL STUDIO\2022\COMMUNITY\VC\TOOLS\MSVC\14.16.27023\INCLUDE\XTR1COMMON
C:\PROGRAM FILES\MICROSOFT VISUAL STUDIO\2022\COMMUNITY\VC\TOOLS\MSVC\14.16.27023\INCLUDE\CWCHAR
D:\WINDOWS KITS\10\INCLUDE\10.0.10240.0\UCRT\WCHAR.H
D:\WINDOWS KITS\10\INCLUDE\10.0.10240.0\UCRT\CORECRT_MEMCPY_S.H
D:\WINDOWS KITS\10\INCLUDE\10.0.10240.0\UCRT\ERRNO.H
C:\PROGRAM FILES\MICROSOFT VISUAL STUDIO\2022\COMMUNITY\VC\TOOLS\MSVC\14.16.27023\INCLUDE\VCRUNTIME_STRING.H
D:\WINDOWS KITS\10\INCLUDE\10.0.10240.0\UCRT\CORECRT_WCONIO.H
D:\WINDOWS KITS\10\INCLUDE\10.0.10240.0\UCRT\CORECRT_STDIO_CONFIG.H
D:\WINDOWS KITS\10\INCLUDE\10.0.10240.0\UCRT\CORECRT_WCTYPE.H
D:\WINDOWS KITS\10\INCLUDE\10.0.10240.0\UCRT\CORECRT_WDIRECT.H
D:\WINDOWS KITS\10\INCLUDE\10.0.10240.0\UCRT\CORECRT_WIO.H
D:\WINDOWS KITS\10\INCLUDE\10.0.10240.0\UCRT\CORECRT_SHARE.H
D:\WINDOWS KITS\10\INCLUDE\10.0.10240.0\UCRT\CORECRT_WPROCESS.H
D:\WINDOWS KITS\10\INCLUDE\10.0.10240.0\UCRT\CORECRT_WSTDIO.H
D:\WINDOWS KITS\10\INCLUDE\10.0.10240.0\UCRT\CORECRT_WSTRING.H
D:\WINDOWS KITS\10\INCLUDE\10.0.10240.0\UCRT\CORECRT_WTIME.H
D:\WINDOWS KITS\10\INCLUDE\10.0.10240.0\UCRT\SYS\STAT.H
D:\WINDOWS KITS\10\INCLUDE\10.0.10240.0\UCRT\SYS\TYPES.H
C:\PROGRAM FILES\MICROSOFT VISUAL STUDIO\2022\COMMUNITY\VC\TOOLS\MSVC\14.16.27023\INCLUDE\XSTDDEF
C:\PROGRAM FILES\MICROSOFT VISUAL STUDIO\2022\COMMUNITY\VC\TOOLS\MSVC\14.16.27023\INCLUDE\CSTDDEF
C:\PROGRAM FILES\MICROSOFT VISUAL STUDIO\2022\COMMUNITY\VC\TOOLS\MSVC\14.16.27023\INCLUDE\INITIALIZER_LIST
C:\PROGRAM FILES\MICROSOFT VISUAL STUDIO\2022\COMMUNITY\VC\TOOLS\MSVC\14.16.27023\INCLUDE\NEW
C:\PROGRAM FILES\MICROSOFT VISUAL STUDIO\2022\COMMUNITY\VC\TOOLS\MSVC\14.16.27023\INCLUDE\EXCEPTION
C:\PROGRAM FILES\MICROSOFT VISUAL STUDIO\2022\COMMUNITY\VC\TOOLS\MSVC\14.16.27023\INCLUDE\TYPE_TRAITS
D:\WINDOWS KITS\10\INCLUDE\10.0.10240.0\UCRT\MALLOC.H
C:\PROGRAM FILES\MICROSOFT VISUAL STUDIO\2022\COMMUNITY\VC\TOOLS\MSVC\14.16.27023\INCLUDE\VCRUNTIME_EXCEPTION.H
C:\PROGRAM FILES\MICROSOFT VISUAL STUDIO\2022\COMMUNITY\VC\TOOLS\MSVC\14.16.27023\INCLUDE\EH.H
D:\WINDOWS KITS\10\INCLUDE\10.0.10240.0\UCRT\CORECRT_TERMINATE.H
C:\PROGRAM FILES\MICROSOFT VISUAL STUDIO\2022\COMMUNITY\VC\TOOLS\MSVC\14.16.27023\INCLUDE\XUTILITY
C:\PROGRAM FILES\MICROSOFT VISUAL STUDIO\2022\COMMUNITY\VC\TOOLS\MSVC\14.16.27023\INCLUDE\UTILITY
C:\PROGRAM FILES\MICROSOFT VISUAL STUDIO\2022\COMMUNITY\VC\TOOLS\MSVC\14.16.27023\INCLUDE\IOSFWD
C:\PROGRAM FILES\MICROSOFT VISUAL STUDIO\2022\COMMUNITY\VC\TOOLS\MSVC\14.16.27023\INCLUDE\CSTDIO
D:\WINDOWS KITS\10\INCLUDE\10.0.10240.0\UCRT\STDIO.H
C:\PROGRAM FILES\MICROSOFT VISUAL STUDIO\2022\COMMUNITY\VC\TOOLS\MSVC\14.16.27023\INCLUDE\CSTRING
D:\WINDOWS KITS\10\INCLUDE\10.0.10240.0\UCRT\STRING.H
D:\WINDOWS KITS\10\INCLUDE\10.0.10240.0\UCRT\CORECRT_MEMORY.H
C:\PROGRAM FILES\MICROSOFT VISUAL STUDIO\2022\COMMUNITY\VC\TOOLS\MSVC\14.16.27023\INCLUDE\XATOMIC0.H
C:\PROGRAM FILES\MICROSOFT VISUAL STUDIO\2022\COMMUNITY\VC\TOOLS\MSVC\14.16.27023\INCLUDE\INTRIN0.H
C:\PROGRAM FILES\MICROSOFT VISUAL STUDIO\2022\COMMUNITY\VC\TOOLS\MSVC\14.16.27023\INCLUDE\STDEXCEPT
C:\PROGRAM FILES\MICROSOFT VISUAL STUDIO\2022\COMMUNITY\VC\TOOLS\MSVC\14.16.27023\INCLUDE\XSTRING
C:\PROGRAM FILES\MICROSOFT VISUAL STUDIO\2022\COMMUNITY\VC\TOOLS\MSVC\14.16.27023\INCLUDE\XPOLYMORPHIC_ALLOCATOR.H
C:\PROGRAM FILES\MICROSOFT VISUAL STUDIO\2022\COMMUNITY\VC\TOOLS\MSVC\14.16.27023\INCLUDE\TUPLE
C:\PROGRAM FILES\MICROSOFT VISUAL STUDIO\2022\COMMUNITY\VC\TOOLS\MSVC\14.16.27023\INCLUDE\IOSTREAM
C:\PROGRAM FILES\MICROSOFT VISUAL STUDIO\2022\COMMUNITY\VC\TOOLS\MSVC\14.16.27023\INCLUDE\ISTREAM
C:\PROGRAM FILES\MICROSOFT VISUAL STUDIO\2022\COMMUNITY\VC\TOOLS\MSVC\14.16.27023\INCLUDE\OSTREAM
C:\PROGRAM FILES\MICROSOFT VISUAL STUDIO\2022\COMMUNITY\VC\TOOLS\MSVC\14.16.27023\INCLUDE\IOS
C:\PROGRAM FILES\MICROSOFT VISUAL STUDIO\2022\COMMUNITY\VC\TOOLS\MSVC\14.16.27023\INCLUDE\XLOCNUM
C:\PROGRAM FILES\MICROSOFT VISUAL STUDIO\2022\COMMUNITY\VC\TOOLS\MSVC\14.16.27023\INCLUDE\STREAMBUF
C:\PROGRAM FILES\MICROSOFT VISUAL STUDIO\2022\COMMUNITY\VC\TOOLS\MSVC\14.16.27023\INCLUDE\XIOSBASE
C:\PROGRAM FILES\MICROSOFT VISUAL STUDIO\2022\COMMUNITY\VC\TOOLS\MSVC\14.16.27023\INCLUDE\XLOCALE
C:\PROGRAM FILES\MICROSOFT VISUAL STUDIO\2022\COMMUNITY\VC\TOOLS\MSVC\14.16.27023\INCLUDE\TYPEINFO
C:\PROGRAM FILES\MICROSOFT VISUAL STUDIO\2022\COMMUNITY\VC\TOOLS\MSVC\14.16.27023\INCLUDE\VCRUNTIME_TYPEINFO.H
C:\PROGRAM FILES\MICROSOFT VISUAL STUDIO\2022\COMMUNITY\VC\TOOLS\MSVC\14.16.27023\INCLUDE\XLOCINFO
C:\PROGRAM FILES\MICROSOFT VISUAL STUDIO\2022\COMMUNITY\VC\TOOLS\MSVC\14.16.27023\INCLUDE\XLOCINFO.H
D:\WINDOWS KITS\10\INCLUDE\10.0.10240.0\UCRT\CTYPE.H
D:\WINDOWS KITS\10\INCLUDE\10.0.10240.0\UCRT\LOCALE.H
C:\PROGRAM FILES\MICROSOFT VISUAL STUDIO\2022\COMMUNITY\VC\TOOLS\MSVC\14.16.27023\INCLUDE\MEMORY
C:\PROGRAM FILES\MICROSOFT VISUAL STUDIO\2022\COMMUNITY\VC\TOOLS\MSVC\14.16.27023\INCLUDE\XFACET
C:\PROGRAM FILES\MICROSOFT VISUAL STUDIO\2022\COMMUNITY\VC\TOOLS\MSVC\14.16.27023\INCLUDE\SYSTEM_ERROR
C:\PROGRAM FILES\MICROSOFT VISUAL STUDIO\2022\COMMUNITY\VC\TOOLS\MSVC\14.16.27023\INCLUDE\CERRNO
C:\PROGRAM FILES\MICROSOFT VISUAL STUDIO\2022\COMMUNITY\VC\TOOLS\MSVC\14.16.27023\INCLUDE\XCALL_ONCE.H
C:\PROGRAM FILES\MICROSOFT VISUAL STUDIO\2022\COMMUNITY\VC\TOOLS\MSVC\14.16.27023\INCLUDE\XERRC.H
D:\WINDOWS KITS\10\INCLUDE\10.0.10240.0\UCRT\SHARE.H
E:\DEV\__REPOSITORY__\_H3ERA_PLUGINS_\__INCLUDE__\H3API\SINGLE_HEADER\H3API.HPP
C:\PROGRAM FILES (X86)\MICROSOFT SDKS\WINDOWS\V7.1A\INCLUDE\WINDOWS.H
C:\PROGRAM FILES (X86)\MICROSOFT SDKS\WINDOWS\V7.1A\INCLUDE\SDKDDKVER.H
C:\PROGRAM FILES\MICROSOFT VISUAL STUDIO\2022\COMMUNITY\VC\TOOLS\MSVC\14.16.27023\INCLUDE\EXCPT.H
C:\PROGRAM FILES\MICROSOFT VISUAL STUDIO\2022\COMMUNITY\VC\TOOLS\MSVC\14.16.27023\INCLUDE\STDARG.H
C:\PROGRAM FILES (X86)\MICROSOFT SDKS\WINDOWS\V7.1A\INCLUDE\WINDEF.H
C:\PROGRAM FILES (X86)\MICROSOFT SDKS\WINDOWS\V7.1A\INCLUDE\WINNT.H
C:\PROGRAM FILES (X86)\MICROSOFT SDKS\WINDOWS\V7.1A\INCLUDE\SPECSTRINGS.H
C:\PROGRAM FILES (X86)\MICROSOFT SDKS\WINDOWS\V7.1A\INCLUDE\SAL_SUPP.H
C:\PROGRAM FILES (X86)\MICROSOFT SDKS\WINDOWS\V7.1A\INCLUDE\SPECSTRINGS_SUPP.H
C:\PROGRAM FILES (X86)\MICROSOFT SDKS\WINDOWS\V7.1A\INCLUDE\SPECSTRINGS_STRICT.H
C:\PROGRAM FILES (X86)\MICROSOFT SDKS\WINDOWS\V7.1A\INCLUDE\SPECSTRINGS_UNDEF.H
C:\PROGRAM FILES (X86)\MICROSOFT SDKS\WINDOWS\V7.1A\INCLUDE\DRIVERSPECS.H
C:\PROGRAM FILES (X86)\MICROSOFT SDKS\WINDOWS\V7.1A\INCLUDE\SDV_DRIVERSPECS.H
C:\PROGRAM FILES (X86)\MICROSOFT SDKS\WINDOWS\V7.1A\INCLUDE\KERNELSPECS.H
C:\PROGRAM FILES (X86)\MICROSOFT SDKS\WINDOWS\V7.1A\INCLUDE\BASETSD.H
C:\PROGRAM FILES (X86)\MICROSOFT SDKS\WINDOWS\V7.1A\INCLUDE\GUIDDEF.H
C:\PROGRAM FILES (X86)\MICROSOFT SDKS\WINDOWS\V7.1A\INCLUDE\PSHPACK4.H
C:\PROGRAM FILES (X86)\MICROSOFT SDKS\WINDOWS\V7.1A\INCLUDE\POPPACK.H
C:\PROGRAM FILES (X86)\MICROSOFT SDKS\WINDOWS\V7.1A\INCLUDE\PSHPACK2.H
C:\PROGRAM FILES (X86)\MICROSOFT SDKS\WINDOWS\V7.1A\INCLUDE\PSHPACK8.H
C:\PROGRAM FILES (X86)\MICROSOFT SDKS\WINDOWS\V7.1A\INCLUDE\KTMTYPES.H
C:\PROGRAM FILES (X86)\MICROSOFT SDKS\WINDOWS\V7.1A\INCLUDE\WINBASE.H
C:\PROGRAM FILES (X86)\MICROSOFT SDKS\WINDOWS\V7.1A\INCLUDE\WINERROR.H
C:\PROGRAM FILES (X86)\MICROSOFT SDKS\WINDOWS\V7.1A\INCLUDE\WINGDI.H
C:\PROGRAM FILES (X86)\MICROSOFT SDKS\WINDOWS\V7.1A\INCLUDE\PSHPACK1.H
C:\PROGRAM FILES (X86)\MICROSOFT SDKS\WINDOWS\V7.1A\INCLUDE\WINUSER.H
C:\PROGRAM FILES (X86)\MICROSOFT SDKS\WINDOWS\V7.1A\INCLUDE\TVOUT.H
C:\PROGRAM FILES (X86)\MICROSOFT SDKS\WINDOWS\V7.1A\INCLUDE\WINNLS.H
C:\PROGRAM FILES (X86)\MICROSOFT SDKS\WINDOWS\V7.1A\INCLUDE\WINCON.H
C:\PROGRAM FILES (X86)\MICROSOFT SDKS\WINDOWS\V7.1A\INCLUDE\WINVER.H
C:\PROGRAM FILES (X86)\MICROSOFT SDKS\WINDOWS\V7.1A\INCLUDE\VERRSRC.H
C:\PROGRAM FILES (X86)\MICROSOFT SDKS\WINDOWS\V7.1A\INCLUDE\WINREG.H
C:\PROGRAM FILES (X86)\MICROSOFT SDKS\WINDOWS\V7.1A\INCLUDE\REASON.H
C:\PROGRAM FILES (X86)\MICROSOFT SDKS\WINDOWS\V7.1A\INCLUDE\WINNETWK.H
C:\PROGRAM FILES (X86)\MICROSOFT SDKS\WINDOWS\V7.1A\INCLUDE\WNNC.H
C:\PROGRAM FILES (X86)\MICROSOFT SDKS\WINDOWS\V7.1A\INCLUDE\STRALIGN.H
C:\PROGRAM FILES (X86)\MICROSOFT SDKS\WINDOWS\V7.1A\INCLUDE\WINSVC.H
C:\PROGRAM FILES (X86)\MICROSOFT SDKS\WINDOWS\V7.1A\INCLUDE\MCX.H
C:\PROGRAM FILES (X86)\MICROSOFT SDKS\WINDOWS\V7.1A\INCLUDE\IMM.H
C:\PROGRAM FILES (X86)\MICROSOFT SDKS\WINDOWS\V7.1A\INCLUDE\IME_CMODES.H
C:\PROGRAM FILES\MICROSOFT VISUAL STUDIO\2022\COMMUNITY\VC\TOOLS\MSVC\14.16.27023\INCLUDE\ALGORITHM
E:\DEV\__REPOSITORY__\_H3ERA_PLUGINS_\__INCLUDE__\NPC_STRUCT.H
^E:\DEV\__REPOSITORY__\_H3ERA_PLUGINS_\BETTER_NPC\NPC_SSS.CPP
E:\DEV\__REPOSITORY__\_H3ERA_PLUGINS_\BETTER_NPC\HEADER.H
C:\PROGRAM FILES\MICROSOFT VISUAL STUDIO\2022\COMMUNITY\VC\TOOLS\MSVC\14.16.27023\INCLUDE\VECTOR
C:\PROGRAM FILES\MICROSOFT VISUAL STUDIO\2022\COMMUNITY\VC\TOOLS\MSVC\14.16.27023\INCLUDE\XMEMORY
C:\PROGRAM FILES\MICROSOFT VISUAL STUDIO\2022\COMMUNITY\VC\TOOLS\MSVC\14.16.27023\INCLUDE\XMEMORY0
C:\PROGRAM FILES\MICROSOFT VISUAL STUDIO\2022\COMMUNITY\VC\TOOLS\MSVC\14.16.27023\INCLUDE\CSTDINT
C:\PROGRAM FILES\MICROSOFT VISUAL STUDIO\2022\COMMUNITY\VC\TOOLS\MSVC\14.16.27023\INCLUDE\YVALS.H
C:\PROGRAM FILES\MICROSOFT VISUAL STUDIO\2022\COMMUNITY\VC\TOOLS\MSVC\14.16.27023\INCLUDE\YVALS_CORE.H
C:\PROGRAM FILES\MICROSOFT VISUAL STUDIO\2022\COMMUNITY\VC\TOOLS\MSVC\14.16.27023\INCLUDE\XKEYCHECK.H
C:\PROGRAM FILES\MICROSOFT VISUAL STUDIO\2022\COMMUNITY\VC\TOOLS\MSVC\14.16.27023\INCLUDE\CRTDEFS.H
C:\PROGRAM FILES\MICROSOFT VISUAL STUDIO\2022\COMMUNITY\VC\TOOLS\MSVC\14.16.27023\INCLUDE\VCRUNTIME.H
C:\PROGRAM FILES\MICROSOFT VISUAL STUDIO\2022\COMMUNITY\VC\TOOLS\MSVC\14.16.27023\INCLUDE\SAL.H
C:\PROGRAM FILES\MICROSOFT VISUAL STUDIO\2022\COMMUNITY\VC\TOOLS\MSVC\14.16.27023\INCLUDE\CONCURRENCYSAL.H
C:\PROGRAM FILES\MICROSOFT VISUAL STUDIO\2022\COMMUNITY\VC\TOOLS\MSVC\14.16.27023\INCLUDE\VADEFS.H
D:\WINDOWS KITS\10\INCLUDE\10.0.10240.0\UCRT\CORECRT.H
D:\WINDOWS KITS\10\INCLUDE\10.0.10240.0\UCRT\CRTDBG.H
C:\PROGRAM FILES\MICROSOFT VISUAL STUDIO\2022\COMMUNITY\VC\TOOLS\MSVC\14.16.27023\INCLUDE\VCRUNTIME_NEW_DEBUG.H
C:\PROGRAM FILES\MICROSOFT VISUAL STUDIO\2022\COMMUNITY\VC\TOOLS\MSVC\14.16.27023\INCLUDE\VCRUNTIME_NEW.H
C:\PROGRAM FILES\MICROSOFT VISUAL STUDIO\2022\COMMUNITY\VC\TOOLS\MSVC\14.16.27023\INCLUDE\USE_ANSI.H
C:\PROGRAM FILES\MICROSOFT VISUAL STUDIO\2022\COMMUNITY\VC\TOOLS\MSVC\14.16.27023\INCLUDE\STDINT.H
C:\PROGRAM FILES\MICROSOFT VISUAL STUDIO\2022\COMMUNITY\VC\TOOLS\MSVC\14.16.27023\INCLUDE\CSTDLIB
D:\WINDOWS KITS\10\INCLUDE\10.0.10240.0\UCRT\STDLIB.H
D:\WINDOWS KITS\10\INCLUDE\10.0.10240.0\UCRT\CORECRT_MALLOC.H
D:\WINDOWS KITS\10\INCLUDE\10.0.10240.0\UCRT\CORECRT_SEARCH.H
D:\WINDOWS KITS\10\INCLUDE\10.0.10240.0\UCRT\STDDEF.H
D:\WINDOWS KITS\10\INCLUDE\10.0.10240.0\UCRT\CORECRT_WSTDLIB.H
C:\PROGRAM FILES\MICROSOFT VISUAL STUDIO\2022\COMMUNITY\VC\TOOLS\MSVC\14.16.27023\INCLUDE\LIMITS.H
D:\WINDOWS KITS\10\INCLUDE\10.0.10240.0\UCRT\MATH.H
C:\PROGRAM FILES\MICROSOFT VISUAL STUDIO\2022\COMMUNITY\VC\TOOLS\MSVC\14.16.27023\INCLUDE\LIMITS
C:\PROGRAM FILES\MICROSOFT VISUAL STUDIO\2022\COMMUNITY\VC\TOOLS\MSVC\14.16.27023\INCLUDE\YMATH.H
C:\PROGRAM FILES\MICROSOFT VISUAL STUDIO\2022\COMMUNITY\VC\TOOLS\MSVC\14.16.27023\INCLUDE\CFLOAT
D:\WINDOWS KITS\10\INCLUDE\10.0.10240.0\UCRT\FLOAT.H
C:\PROGRAM FILES\MICROSOFT VISUAL STUDIO\2022\COMMUNITY\VC\TOOLS\MSVC\14.16.27023\INCLUDE\CLIMITS
C:\PROGRAM FILES\MICROSOFT VISUAL STUDIO\2022\COMMUNITY\VC\TOOLS\MSVC\14.16.27023\INCLUDE\CMATH
C:\PROGRAM FILES\MICROSOFT VISUAL STUDIO\2022\COMMUNITY\VC\TOOLS\MSVC\14.16.27023\INCLUDE\XTGMATH.H
C:\PROGRAM FILES\MICROSOFT VISUAL STUDIO\2022\COMMUNITY\VC\TOOLS\MSVC\14.16.27023\INCLUDE\XTR1COMMON
C:\PROGRAM FILES\MICROSOFT VISUAL STUDIO\2022\COMMUNITY\VC\TOOLS\MSVC\14.16.27023\INCLUDE\CWCHAR
D:\WINDOWS KITS\10\INCLUDE\10.0.10240.0\UCRT\WCHAR.H
D:\WINDOWS KITS\10\INCLUDE\10.0.10240.0\UCRT\CORECRT_MEMCPY_S.H
D:\WINDOWS KITS\10\INCLUDE\10.0.10240.0\UCRT\ERRNO.H
C:\PROGRAM FILES\MICROSOFT VISUAL STUDIO\2022\COMMUNITY\VC\TOOLS\MSVC\14.16.27023\INCLUDE\VCRUNTIME_STRING.H
D:\WINDOWS KITS\10\INCLUDE\10.0.10240.0\UCRT\CORECRT_WCONIO.H
D:\WINDOWS KITS\10\INCLUDE\10.0.10240.0\UCRT\CORECRT_STDIO_CONFIG.H
D:\WINDOWS KITS\10\INCLUDE\10.0.10240.0\UCRT\CORECRT_WCTYPE.H
D:\WINDOWS KITS\10\INCLUDE\10.0.10240.0\UCRT\CORECRT_WDIRECT.H
D:\WINDOWS KITS\10\INCLUDE\10.0.10240.0\UCRT\CORECRT_WIO.H
D:\WINDOWS KITS\10\INCLUDE\10.0.10240.0\UCRT\CORECRT_SHARE.H
D:\WINDOWS KITS\10\INCLUDE\10.0.10240.0\UCRT\CORECRT_WPROCESS.H
D:\WINDOWS KITS\10\INCLUDE\10.0.10240.0\UCRT\CORECRT_WSTDIO.H
D:\WINDOWS KITS\10\INCLUDE\10.0.10240.0\UCRT\CORECRT_WSTRING.H
D:\WINDOWS KITS\10\INCLUDE\10.0.10240.0\UCRT\CORECRT_WTIME.H
D:\WINDOWS KITS\10\INCLUDE\10.0.10240.0\UCRT\SYS\STAT.H
D:\WINDOWS KITS\10\INCLUDE\10.0.10240.0\UCRT\SYS\TYPES.H
C:\PROGRAM FILES\MICROSOFT VISUAL STUDIO\2022\COMMUNITY\VC\TOOLS\MSVC\14.16.27023\INCLUDE\XSTDDEF
C:\PROGRAM FILES\MICROSOFT VISUAL STUDIO\2022\COMMUNITY\VC\TOOLS\MSVC\14.16.27023\INCLUDE\CSTDDEF
C:\PROGRAM FILES\MICROSOFT VISUAL STUDIO\2022\COMMUNITY\VC\TOOLS\MSVC\14.16.27023\INCLUDE\INITIALIZER_LIST
C:\PROGRAM FILES\MICROSOFT VISUAL STUDIO\2022\COMMUNITY\VC\TOOLS\MSVC\14.16.27023\INCLUDE\NEW
C:\PROGRAM FILES\MICROSOFT VISUAL STUDIO\2022\COMMUNITY\VC\TOOLS\MSVC\14.16.27023\INCLUDE\EXCEPTION
C:\PROGRAM FILES\MICROSOFT VISUAL STUDIO\2022\COMMUNITY\VC\TOOLS\MSVC\14.16.27023\INCLUDE\TYPE_TRAITS
D:\WINDOWS KITS\10\INCLUDE\10.0.10240.0\UCRT\MALLOC.H
C:\PROGRAM FILES\MICROSOFT VISUAL STUDIO\2022\COMMUNITY\VC\TOOLS\MSVC\14.16.27023\INCLUDE\VCRUNTIME_EXCEPTION.H
C:\PROGRAM FILES\MICROSOFT VISUAL STUDIO\2022\COMMUNITY\VC\TOOLS\MSVC\14.16.27023\INCLUDE\EH.H
D:\WINDOWS KITS\10\INCLUDE\10.0.10240.0\UCRT\CORECRT_TERMINATE.H
C:\PROGRAM FILES\MICROSOFT VISUAL STUDIO\2022\COMMUNITY\VC\TOOLS\MSVC\14.16.27023\INCLUDE\XUTILITY
C:\PROGRAM FILES\MICROSOFT VISUAL STUDIO\2022\COMMUNITY\VC\TOOLS\MSVC\14.16.27023\INCLUDE\UTILITY
C:\PROGRAM FILES\MICROSOFT VISUAL STUDIO\2022\COMMUNITY\VC\TOOLS\MSVC\14.16.27023\INCLUDE\IOSFWD
C:\PROGRAM FILES\MICROSOFT VISUAL STUDIO\2022\COMMUNITY\VC\TOOLS\MSVC\14.16.27023\INCLUDE\CSTDIO
D:\WINDOWS KITS\10\INCLUDE\10.0.10240.0\UCRT\STDIO.H
C:\PROGRAM FILES\MICROSOFT VISUAL STUDIO\2022\COMMUNITY\VC\TOOLS\MSVC\14.16.27023\INCLUDE\CSTRING
D:\WINDOWS KITS\10\INCLUDE\10.0.10240.0\UCRT\STRING.H
D:\WINDOWS KITS\10\INCLUDE\10.0.10240.0\UCRT\CORECRT_MEMORY.H
C:\PROGRAM FILES\MICROSOFT VISUAL STUDIO\2022\COMMUNITY\VC\TOOLS\MSVC\14.16.27023\INCLUDE\XATOMIC0.H
C:\PROGRAM FILES\MICROSOFT VISUAL STUDIO\2022\COMMUNITY\VC\TOOLS\MSVC\14.16.27023\INCLUDE\INTRIN0.H
C:\PROGRAM FILES\MICROSOFT VISUAL STUDIO\2022\COMMUNITY\VC\TOOLS\MSVC\14.16.27023\INCLUDE\STDEXCEPT
C:\PROGRAM FILES\MICROSOFT VISUAL STUDIO\2022\COMMUNITY\VC\TOOLS\MSVC\14.16.27023\INCLUDE\XSTRING
C:\PROGRAM FILES\MICROSOFT VISUAL STUDIO\2022\COMMUNITY\VC\TOOLS\MSVC\14.16.27023\INCLUDE\XPOLYMORPHIC_ALLOCATOR.H
C:\PROGRAM FILES\MICROSOFT VISUAL STUDIO\2022\COMMUNITY\VC\TOOLS\MSVC\14.16.27023\INCLUDE\TUPLE
C:\PROGRAM FILES\MICROSOFT VISUAL STUDIO\2022\COMMUNITY\VC\TOOLS\MSVC\14.16.27023\INCLUDE\IOSTREAM
C:\PROGRAM FILES\MICROSOFT VISUAL STUDIO\2022\COMMUNITY\VC\TOOLS\MSVC\14.16.27023\INCLUDE\ISTREAM
C:\PROGRAM FILES\MICROSOFT VISUAL STUDIO\2022\COMMUNITY\VC\TOOLS\MSVC\14.16.27023\INCLUDE\OSTREAM
C:\PROGRAM FILES\MICROSOFT VISUAL STUDIO\2022\COMMUNITY\VC\TOOLS\MSVC\14.16.27023\INCLUDE\IOS
C:\PROGRAM FILES\MICROSOFT VISUAL STUDIO\2022\COMMUNITY\VC\TOOLS\MSVC\14.16.27023\INCLUDE\XLOCNUM
C:\PROGRAM FILES\MICROSOFT VISUAL STUDIO\2022\COMMUNITY\VC\TOOLS\MSVC\14.16.27023\INCLUDE\STREAMBUF
C:\PROGRAM FILES\MICROSOFT VISUAL STUDIO\2022\COMMUNITY\VC\TOOLS\MSVC\14.16.27023\INCLUDE\XIOSBASE
C:\PROGRAM FILES\MICROSOFT VISUAL STUDIO\2022\COMMUNITY\VC\TOOLS\MSVC\14.16.27023\INCLUDE\XLOCALE
C:\PROGRAM FILES\MICROSOFT VISUAL STUDIO\2022\COMMUNITY\VC\TOOLS\MSVC\14.16.27023\INCLUDE\TYPEINFO
C:\PROGRAM FILES\MICROSOFT VISUAL STUDIO\2022\COMMUNITY\VC\TOOLS\MSVC\14.16.27023\INCLUDE\VCRUNTIME_TYPEINFO.H
C:\PROGRAM FILES\MICROSOFT VISUAL STUDIO\2022\COMMUNITY\VC\TOOLS\MSVC\14.16.27023\INCLUDE\XLOCINFO
C:\PROGRAM FILES\MICROSOFT VISUAL STUDIO\2022\COMMUNITY\VC\TOOLS\MSVC\14.16.27023\INCLUDE\XLOCINFO.H
D:\WINDOWS KITS\10\INCLUDE\10.0.10240.0\UCRT\CTYPE.H
D:\WINDOWS KITS\10\INCLUDE\10.0.10240.0\UCRT\LOCALE.H
C:\PROGRAM FILES\MICROSOFT VISUAL STUDIO\2022\COMMUNITY\VC\TOOLS\MSVC\14.16.27023\INCLUDE\MEMORY
C:\PROGRAM FILES\MICROSOFT VISUAL STUDIO\2022\COMMUNITY\VC\TOOLS\MSVC\14.16.27023\INCLUDE\XFACET
C:\PROGRAM FILES\MICROSOFT VISUAL STUDIO\2022\COMMUNITY\VC\TOOLS\MSVC\14.16.27023\INCLUDE\SYSTEM_ERROR
C:\PROGRAM FILES\MICROSOFT VISUAL STUDIO\2022\COMMUNITY\VC\TOOLS\MSVC\14.16.27023\INCLUDE\CERRNO
C:\PROGRAM FILES\MICROSOFT VISUAL STUDIO\2022\COMMUNITY\VC\TOOLS\MSVC\14.16.27023\INCLUDE\XCALL_ONCE.H
C:\PROGRAM FILES\MICROSOFT VISUAL STUDIO\2022\COMMUNITY\VC\TOOLS\MSVC\14.16.27023\INCLUDE\XERRC.H
D:\WINDOWS KITS\10\INCLUDE\10.0.10240.0\UCRT\SHARE.H
E:\DEV\__REPOSITORY__\_H3ERA_PLUGINS_\__INCLUDE__\H3API\SINGLE_HEADER\H3API.HPP
C:\PROGRAM FILES (X86)\MICROSOFT SDKS\WINDOWS\V7.1A\INCLUDE\WINDOWS.H
C:\PROGRAM FILES (X86)\MICROSOFT SDKS\WINDOWS\V7.1A\INCLUDE\SDKDDKVER.H
C:\PROGRAM FILES\MICROSOFT VISUAL STUDIO\2022\COMMUNITY\VC\TOOLS\MSVC\14.16.27023\INCLUDE\EXCPT.H
C:\PROGRAM FILES\MICROSOFT VISUAL STUDIO\2022\COMMUNITY\VC\TOOLS\MSVC\14.16.27023\INCLUDE\STDARG.H
C:\PROGRAM FILES (X86)\MICROSOFT SDKS\WINDOWS\V7.1A\INCLUDE\WINDEF.H
C:\PROGRAM FILES (X86)\MICROSOFT SDKS\WINDOWS\V7.1A\INCLUDE\WINNT.H
C:\PROGRAM FILES (X86)\MICROSOFT SDKS\WINDOWS\V7.1A\INCLUDE\SPECSTRINGS.H
C:\PROGRAM FILES (X86)\MICROSOFT SDKS\WINDOWS\V7.1A\INCLUDE\SAL_SUPP.H
C:\PROGRAM FILES (X86)\MICROSOFT SDKS\WINDOWS\V7.1A\INCLUDE\SPECSTRINGS_SUPP.H
C:\PROGRAM FILES (X86)\MICROSOFT SDKS\WINDOWS\V7.1A\INCLUDE\SPECSTRINGS_STRICT.H
C:\PROGRAM FILES (X86)\MICROSOFT SDKS\WINDOWS\V7.1A\INCLUDE\SPECSTRINGS_UNDEF.H
C:\PROGRAM FILES (X86)\MICROSOFT SDKS\WINDOWS\V7.1A\INCLUDE\DRIVERSPECS.H
C:\PROGRAM FILES (X86)\MICROSOFT SDKS\WINDOWS\V7.1A\INCLUDE\SDV_DRIVERSPECS.H
C:\PROGRAM FILES (X86)\MICROSOFT SDKS\WINDOWS\V7.1A\INCLUDE\KERNELSPECS.H
C:\PROGRAM FILES (X86)\MICROSOFT SDKS\WINDOWS\V7.1A\INCLUDE\BASETSD.H
C:\PROGRAM FILES (X86)\MICROSOFT SDKS\WINDOWS\V7.1A\INCLUDE\GUIDDEF.H
C:\PROGRAM FILES (X86)\MICROSOFT SDKS\WINDOWS\V7.1A\INCLUDE\PSHPACK4.H
C:\PROGRAM FILES (X86)\MICROSOFT SDKS\WINDOWS\V7.1A\INCLUDE\POPPACK.H
C:\PROGRAM FILES (X86)\MICROSOFT SDKS\WINDOWS\V7.1A\INCLUDE\PSHPACK2.H
C:\PROGRAM FILES (X86)\MICROSOFT SDKS\WINDOWS\V7.1A\INCLUDE\PSHPACK8.H
C:\PROGRAM FILES (X86)\MICROSOFT SDKS\WINDOWS\V7.1A\INCLUDE\KTMTYPES.H
C:\PROGRAM FILES (X86)\MICROSOFT SDKS\WINDOWS\V7.1A\INCLUDE\WINBASE.H
C:\PROGRAM FILES (X86)\MICROSOFT SDKS\WINDOWS\V7.1A\INCLUDE\WINERROR.H
C:\PROGRAM FILES (X86)\MICROSOFT SDKS\WINDOWS\V7.1A\INCLUDE\WINGDI.H
C:\PROGRAM FILES (X86)\MICROSOFT SDKS\WINDOWS\V7.1A\INCLUDE\PSHPACK1.H
C:\PROGRAM FILES (X86)\MICROSOFT SDKS\WINDOWS\V7.1A\INCLUDE\WINUSER.H
C:\PROGRAM FILES (X86)\MICROSOFT SDKS\WINDOWS\V7.1A\INCLUDE\TVOUT.H
C:\PROGRAM FILES (X86)\MICROSOFT SDKS\WINDOWS\V7.1A\INCLUDE\WINNLS.H
C:\PROGRAM FILES (X86)\MICROSOFT SDKS\WINDOWS\V7.1A\INCLUDE\WINCON.H
C:\PROGRAM FILES (X86)\MICROSOFT SDKS\WINDOWS\V7.1A\INCLUDE\WINVER.H
C:\PROGRAM FILES (X86)\MICROSOFT SDKS\WINDOWS\V7.1A\INCLUDE\VERRSRC.H
C:\PROGRAM FILES (X86)\MICROSOFT SDKS\WINDOWS\V7.1A\INCLUDE\WINREG.H
C:\PROGRAM FILES (X86)\MICROSOFT SDKS\WINDOWS\V7.1A\INCLUDE\REASON.H
C:\PROGRAM FILES (X86)\MICROSOFT SDKS\WINDOWS\V7.1A\INCLUDE\WINNETWK.H
C:\PROGRAM FILES (X86)\MICROSOFT SDKS\WINDOWS\V7.1A\INCLUDE\WNNC.H
C:\PROGRAM FILES (X86)\MICROSOFT SDKS\WINDOWS\V7.1A\INCLUDE\STRALIGN.H
C:\PROGRAM FILES (X86)\MICROSOFT SDKS\WINDOWS\V7.1A\INCLUDE\WINSVC.H
C:\PROGRAM FILES (X86)\MICROSOFT SDKS\WINDOWS\V7.1A\INCLUDE\MCX.H
C:\PROGRAM FILES (X86)\MICROSOFT SDKS\WINDOWS\V7.1A\INCLUDE\IMM.H
C:\PROGRAM FILES (X86)\MICROSOFT SDKS\WINDOWS\V7.1A\INCLUDE\IME_CMODES.H
C:\PROGRAM FILES\MICROSOFT VISUAL STUDIO\2022\COMMUNITY\VC\TOOLS\MSVC\14.16.27023\INCLUDE\ALGORITHM
E:\DEV\__REPOSITORY__\_H3ERA_PLUGINS_\__INCLUDE__\NPC_STRUCT.H
E:\DEV\__REPOSITORY__\_H3ERA_PLUGINS_\__INCLUDE__\ERA.H
C:\PROGRAM FILES\MICROSOFT VISUAL STUDIO\2022\COMMUNITY\VC\TOOLS\MSVC\14.16.27023\INCLUDE\STRING
C:\PROGRAM FILES\MICROSOFT VISUAL STUDIO\2022\COMMUNITY\VC\TOOLS\MSVC\14.16.27023\INCLUDE\XSTRING_INSERT.H
E:\DEV\__REPOSITORY__\_H3ERA_PLUGINS_\BETTER_NPC\CREATURE_INFO_DLG.CPP
^E:\DEV\__REPOSITORY__\_H3ERA_PLUGINS_\BETTER_NPC\NPC_SKILLS.CPP
E:\DEV\__REPOSITORY__\_H3ERA_PLUGINS_\BETTER_NPC\HEADER.H
C:\PROGRAM FILES\MICROSOFT VISUAL STUDIO\2022\COMMUNITY\VC\TOOLS\MSVC\14.16.27023\INCLUDE\VECTOR
C:\PROGRAM FILES\MICROSOFT VISUAL STUDIO\2022\COMMUNITY\VC\TOOLS\MSVC\14.16.27023\INCLUDE\XMEMORY
C:\PROGRAM FILES\MICROSOFT VISUAL STUDIO\2022\COMMUNITY\VC\TOOLS\MSVC\14.16.27023\INCLUDE\XMEMORY0
C:\PROGRAM FILES\MICROSOFT VISUAL STUDIO\2022\COMMUNITY\VC\TOOLS\MSVC\14.16.27023\INCLUDE\CSTDINT
C:\PROGRAM FILES\MICROSOFT VISUAL STUDIO\2022\COMMUNITY\VC\TOOLS\MSVC\14.16.27023\INCLUDE\YVALS.H
C:\PROGRAM FILES\MICROSOFT VISUAL STUDIO\2022\COMMUNITY\VC\TOOLS\MSVC\14.16.27023\INCLUDE\YVALS_CORE.H
C:\PROGRAM FILES\MICROSOFT VISUAL STUDIO\2022\COMMUNITY\VC\TOOLS\MSVC\14.16.27023\INCLUDE\XKEYCHECK.H
C:\PROGRAM FILES\MICROSOFT VISUAL STUDIO\2022\COMMUNITY\VC\TOOLS\MSVC\14.16.27023\INCLUDE\CRTDEFS.H
C:\PROGRAM FILES\MICROSOFT VISUAL STUDIO\2022\COMMUNITY\VC\TOOLS\MSVC\14.16.27023\INCLUDE\VCRUNTIME.H
C:\PROGRAM FILES\MICROSOFT VISUAL STUDIO\2022\COMMUNITY\VC\TOOLS\MSVC\14.16.27023\INCLUDE\SAL.H
C:\PROGRAM FILES\MICROSOFT VISUAL STUDIO\2022\COMMUNITY\VC\TOOLS\MSVC\14.16.27023\INCLUDE\CONCURRENCYSAL.H
C:\PROGRAM FILES\MICROSOFT VISUAL STUDIO\2022\COMMUNITY\VC\TOOLS\MSVC\14.16.27023\INCLUDE\VADEFS.H
D:\WINDOWS KITS\10\INCLUDE\10.0.10240.0\UCRT\CORECRT.H
D:\WINDOWS KITS\10\INCLUDE\10.0.10240.0\UCRT\CRTDBG.H
C:\PROGRAM FILES\MICROSOFT VISUAL STUDIO\2022\COMMUNITY\VC\TOOLS\MSVC\14.16.27023\INCLUDE\VCRUNTIME_NEW_DEBUG.H
C:\PROGRAM FILES\MICROSOFT VISUAL STUDIO\2022\COMMUNITY\VC\TOOLS\MSVC\14.16.27023\INCLUDE\VCRUNTIME_NEW.H
C:\PROGRAM FILES\MICROSOFT VISUAL STUDIO\2022\COMMUNITY\VC\TOOLS\MSVC\14.16.27023\INCLUDE\USE_ANSI.H
C:\PROGRAM FILES\MICROSOFT VISUAL STUDIO\2022\COMMUNITY\VC\TOOLS\MSVC\14.16.27023\INCLUDE\STDINT.H
C:\PROGRAM FILES\MICROSOFT VISUAL STUDIO\2022\COMMUNITY\VC\TOOLS\MSVC\14.16.27023\INCLUDE\CSTDLIB
D:\WINDOWS KITS\10\INCLUDE\10.0.10240.0\UCRT\STDLIB.H
D:\WINDOWS KITS\10\INCLUDE\10.0.10240.0\UCRT\CORECRT_MALLOC.H
D:\WINDOWS KITS\10\INCLUDE\10.0.10240.0\UCRT\CORECRT_SEARCH.H
D:\WINDOWS KITS\10\INCLUDE\10.0.10240.0\UCRT\STDDEF.H
D:\WINDOWS KITS\10\INCLUDE\10.0.10240.0\UCRT\CORECRT_WSTDLIB.H
C:\PROGRAM FILES\MICROSOFT VISUAL STUDIO\2022\COMMUNITY\VC\TOOLS\MSVC\14.16.27023\INCLUDE\LIMITS.H
D:\WINDOWS KITS\10\INCLUDE\10.0.10240.0\UCRT\MATH.H
C:\PROGRAM FILES\MICROSOFT VISUAL STUDIO\2022\COMMUNITY\VC\TOOLS\MSVC\14.16.27023\INCLUDE\LIMITS
C:\PROGRAM FILES\MICROSOFT VISUAL STUDIO\2022\COMMUNITY\VC\TOOLS\MSVC\14.16.27023\INCLUDE\YMATH.H
C:\PROGRAM FILES\MICROSOFT VISUAL STUDIO\2022\COMMUNITY\VC\TOOLS\MSVC\14.16.27023\INCLUDE\CFLOAT
D:\WINDOWS KITS\10\INCLUDE\10.0.10240.0\UCRT\FLOAT.H
C:\PROGRAM FILES\MICROSOFT VISUAL STUDIO\2022\COMMUNITY\VC\TOOLS\MSVC\14.16.27023\INCLUDE\CLIMITS
C:\PROGRAM FILES\MICROSOFT VISUAL STUDIO\2022\COMMUNITY\VC\TOOLS\MSVC\14.16.27023\INCLUDE\CMATH
C:\PROGRAM FILES\MICROSOFT VISUAL STUDIO\2022\COMMUNITY\VC\TOOLS\MSVC\14.16.27023\INCLUDE\XTGMATH.H
C:\PROGRAM FILES\MICROSOFT VISUAL STUDIO\2022\COMMUNITY\VC\TOOLS\MSVC\14.16.27023\INCLUDE\XTR1COMMON
C:\PROGRAM FILES\MICROSOFT VISUAL STUDIO\2022\COMMUNITY\VC\TOOLS\MSVC\14.16.27023\INCLUDE\CWCHAR
D:\WINDOWS KITS\10\INCLUDE\10.0.10240.0\UCRT\WCHAR.H
D:\WINDOWS KITS\10\INCLUDE\10.0.10240.0\UCRT\CORECRT_MEMCPY_S.H
D:\WINDOWS KITS\10\INCLUDE\10.0.10240.0\UCRT\ERRNO.H
C:\PROGRAM FILES\MICROSOFT VISUAL STUDIO\2022\COMMUNITY\VC\TOOLS\MSVC\14.16.27023\INCLUDE\VCRUNTIME_STRING.H
D:\WINDOWS KITS\10\INCLUDE\10.0.10240.0\UCRT\CORECRT_WCONIO.H
D:\WINDOWS KITS\10\INCLUDE\10.0.10240.0\UCRT\CORECRT_STDIO_CONFIG.H
D:\WINDOWS KITS\10\INCLUDE\10.0.10240.0\UCRT\CORECRT_WCTYPE.H
D:\WINDOWS KITS\10\INCLUDE\10.0.10240.0\UCRT\CORECRT_WDIRECT.H
D:\WINDOWS KITS\10\INCLUDE\10.0.10240.0\UCRT\CORECRT_WIO.H
D:\WINDOWS KITS\10\INCLUDE\10.0.10240.0\UCRT\CORECRT_SHARE.H
D:\WINDOWS KITS\10\INCLUDE\10.0.10240.0\UCRT\CORECRT_WPROCESS.H
D:\WINDOWS KITS\10\INCLUDE\10.0.10240.0\UCRT\CORECRT_WSTDIO.H
D:\WINDOWS KITS\10\INCLUDE\10.0.10240.0\UCRT\CORECRT_WSTRING.H
D:\WINDOWS KITS\10\INCLUDE\10.0.10240.0\UCRT\CORECRT_WTIME.H
D:\WINDOWS KITS\10\INCLUDE\10.0.10240.0\UCRT\SYS\STAT.H
D:\WINDOWS KITS\10\INCLUDE\10.0.10240.0\UCRT\SYS\TYPES.H
C:\PROGRAM FILES\MICROSOFT VISUAL STUDIO\2022\COMMUNITY\VC\TOOLS\MSVC\14.16.27023\INCLUDE\XSTDDEF
C:\PROGRAM FILES\MICROSOFT VISUAL STUDIO\2022\COMMUNITY\VC\TOOLS\MSVC\14.16.27023\INCLUDE\CSTDDEF
C:\PROGRAM FILES\MICROSOFT VISUAL STUDIO\2022\COMMUNITY\VC\TOOLS\MSVC\14.16.27023\INCLUDE\INITIALIZER_LIST
C:\PROGRAM FILES\MICROSOFT VISUAL STUDIO\2022\COMMUNITY\VC\TOOLS\MSVC\14.16.27023\INCLUDE\NEW
C:\PROGRAM FILES\MICROSOFT VISUAL STUDIO\2022\COMMUNITY\VC\TOOLS\MSVC\14.16.27023\INCLUDE\EXCEPTION
C:\PROGRAM FILES\MICROSOFT VISUAL STUDIO\2022\COMMUNITY\VC\TOOLS\MSVC\14.16.27023\INCLUDE\TYPE_TRAITS
D:\WINDOWS KITS\10\INCLUDE\10.0.10240.0\UCRT\MALLOC.H
C:\PROGRAM FILES\MICROSOFT VISUAL STUDIO\2022\COMMUNITY\VC\TOOLS\MSVC\14.16.27023\INCLUDE\VCRUNTIME_EXCEPTION.H
C:\PROGRAM FILES\MICROSOFT VISUAL STUDIO\2022\COMMUNITY\VC\TOOLS\MSVC\14.16.27023\INCLUDE\EH.H
D:\WINDOWS KITS\10\INCLUDE\10.0.10240.0\UCRT\CORECRT_TERMINATE.H
C:\PROGRAM FILES\MICROSOFT VISUAL STUDIO\2022\COMMUNITY\VC\TOOLS\MSVC\14.16.27023\INCLUDE\XUTILITY
C:\PROGRAM FILES\MICROSOFT VISUAL STUDIO\2022\COMMUNITY\VC\TOOLS\MSVC\14.16.27023\INCLUDE\UTILITY
C:\PROGRAM FILES\MICROSOFT VISUAL STUDIO\2022\COMMUNITY\VC\TOOLS\MSVC\14.16.27023\INCLUDE\IOSFWD
C:\PROGRAM FILES\MICROSOFT VISUAL STUDIO\2022\COMMUNITY\VC\TOOLS\MSVC\14.16.27023\INCLUDE\CSTDIO
D:\WINDOWS KITS\10\INCLUDE\10.0.10240.0\UCRT\STDIO.H
C:\PROGRAM FILES\MICROSOFT VISUAL STUDIO\2022\COMMUNITY\VC\TOOLS\MSVC\14.16.27023\INCLUDE\CSTRING
D:\WINDOWS KITS\10\INCLUDE\10.0.10240.0\UCRT\STRING.H
D:\WINDOWS KITS\10\INCLUDE\10.0.10240.0\UCRT\CORECRT_MEMORY.H
C:\PROGRAM FILES\MICROSOFT VISUAL STUDIO\2022\COMMUNITY\VC\TOOLS\MSVC\14.16.27023\INCLUDE\XATOMIC0.H
C:\PROGRAM FILES\MICROSOFT VISUAL STUDIO\2022\COMMUNITY\VC\TOOLS\MSVC\14.16.27023\INCLUDE\INTRIN0.H
C:\PROGRAM FILES\MICROSOFT VISUAL STUDIO\2022\COMMUNITY\VC\TOOLS\MSVC\14.16.27023\INCLUDE\STDEXCEPT
C:\PROGRAM FILES\MICROSOFT VISUAL STUDIO\2022\COMMUNITY\VC\TOOLS\MSVC\14.16.27023\INCLUDE\XSTRING
C:\PROGRAM FILES\MICROSOFT VISUAL STUDIO\2022\COMMUNITY\VC\TOOLS\MSVC\14.16.27023\INCLUDE\XPOLYMORPHIC_ALLOCATOR.H
C:\PROGRAM FILES\MICROSOFT VISUAL STUDIO\2022\COMMUNITY\VC\TOOLS\MSVC\14.16.27023\INCLUDE\TUPLE
C:\PROGRAM FILES\MICROSOFT VISUAL STUDIO\2022\COMMUNITY\VC\TOOLS\MSVC\14.16.27023\INCLUDE\IOSTREAM
C:\PROGRAM FILES\MICROSOFT VISUAL STUDIO\2022\COMMUNITY\VC\TOOLS\MSVC\14.16.27023\INCLUDE\ISTREAM
C:\PROGRAM FILES\MICROSOFT VISUAL STUDIO\2022\COMMUNITY\VC\TOOLS\MSVC\14.16.27023\INCLUDE\OSTREAM
C:\PROGRAM FILES\MICROSOFT VISUAL STUDIO\2022\COMMUNITY\VC\TOOLS\MSVC\14.16.27023\INCLUDE\IOS
C:\PROGRAM FILES\MICROSOFT VISUAL STUDIO\2022\COMMUNITY\VC\TOOLS\MSVC\14.16.27023\INCLUDE\XLOCNUM
C:\PROGRAM FILES\MICROSOFT VISUAL STUDIO\2022\COMMUNITY\VC\TOOLS\MSVC\14.16.27023\INCLUDE\STREAMBUF
C:\PROGRAM FILES\MICROSOFT VISUAL STUDIO\2022\COMMUNITY\VC\TOOLS\MSVC\14.16.27023\INCLUDE\XIOSBASE
C:\PROGRAM FILES\MICROSOFT VISUAL STUDIO\2022\COMMUNITY\VC\TOOLS\MSVC\14.16.27023\INCLUDE\XLOCALE
C:\PROGRAM FILES\MICROSOFT VISUAL STUDIO\2022\COMMUNITY\VC\TOOLS\MSVC\14.16.27023\INCLUDE\TYPEINFO
C:\PROGRAM FILES\MICROSOFT VISUAL STUDIO\2022\COMMUNITY\VC\TOOLS\MSVC\14.16.27023\INCLUDE\VCRUNTIME_TYPEINFO.H
C:\PROGRAM FILES\MICROSOFT VISUAL STUDIO\2022\COMMUNITY\VC\TOOLS\MSVC\14.16.27023\INCLUDE\XLOCINFO
C:\PROGRAM FILES\MICROSOFT VISUAL STUDIO\2022\COMMUNITY\VC\TOOLS\MSVC\14.16.27023\INCLUDE\XLOCINFO.H
D:\WINDOWS KITS\10\INCLUDE\10.0.10240.0\UCRT\CTYPE.H
D:\WINDOWS KITS\10\INCLUDE\10.0.10240.0\UCRT\LOCALE.H
C:\PROGRAM FILES\MICROSOFT VISUAL STUDIO\2022\COMMUNITY\VC\TOOLS\MSVC\14.16.27023\INCLUDE\MEMORY
C:\PROGRAM FILES\MICROSOFT VISUAL STUDIO\2022\COMMUNITY\VC\TOOLS\MSVC\14.16.27023\INCLUDE\XFACET
C:\PROGRAM FILES\MICROSOFT VISUAL STUDIO\2022\COMMUNITY\VC\TOOLS\MSVC\14.16.27023\INCLUDE\SYSTEM_ERROR
C:\PROGRAM FILES\MICROSOFT VISUAL STUDIO\2022\COMMUNITY\VC\TOOLS\MSVC\14.16.27023\INCLUDE\CERRNO
C:\PROGRAM FILES\MICROSOFT VISUAL STUDIO\2022\COMMUNITY\VC\TOOLS\MSVC\14.16.27023\INCLUDE\XCALL_ONCE.H
C:\PROGRAM FILES\MICROSOFT VISUAL STUDIO\2022\COMMUNITY\VC\TOOLS\MSVC\14.16.27023\INCLUDE\XERRC.H
D:\WINDOWS KITS\10\INCLUDE\10.0.10240.0\UCRT\SHARE.H
E:\DEV\__REPOSITORY__\_H3ERA_PLUGINS_\__INCLUDE__\H3API\SINGLE_HEADER\H3API.HPP
C:\PROGRAM FILES (X86)\MICROSOFT SDKS\WINDOWS\V7.1A\INCLUDE\WINDOWS.H
C:\PROGRAM FILES (X86)\MICROSOFT SDKS\WINDOWS\V7.1A\INCLUDE\SDKDDKVER.H
C:\PROGRAM FILES\MICROSOFT VISUAL STUDIO\2022\COMMUNITY\VC\TOOLS\MSVC\14.16.27023\INCLUDE\EXCPT.H
C:\PROGRAM FILES\MICROSOFT VISUAL STUDIO\2022\COMMUNITY\VC\TOOLS\MSVC\14.16.27023\INCLUDE\STDARG.H
C:\PROGRAM FILES (X86)\MICROSOFT SDKS\WINDOWS\V7.1A\INCLUDE\WINDEF.H
C:\PROGRAM FILES (X86)\MICROSOFT SDKS\WINDOWS\V7.1A\INCLUDE\WINNT.H
C:\PROGRAM FILES (X86)\MICROSOFT SDKS\WINDOWS\V7.1A\INCLUDE\SPECSTRINGS.H
C:\PROGRAM FILES (X86)\MICROSOFT SDKS\WINDOWS\V7.1A\INCLUDE\SAL_SUPP.H
C:\PROGRAM FILES (X86)\MICROSOFT SDKS\WINDOWS\V7.1A\INCLUDE\SPECSTRINGS_SUPP.H
C:\PROGRAM FILES (X86)\MICROSOFT SDKS\WINDOWS\V7.1A\INCLUDE\SPECSTRINGS_STRICT.H
C:\PROGRAM FILES (X86)\MICROSOFT SDKS\WINDOWS\V7.1A\INCLUDE\SPECSTRINGS_UNDEF.H
C:\PROGRAM FILES (X86)\MICROSOFT SDKS\WINDOWS\V7.1A\INCLUDE\DRIVERSPECS.H
C:\PROGRAM FILES (X86)\MICROSOFT SDKS\WINDOWS\V7.1A\INCLUDE\SDV_DRIVERSPECS.H
C:\PROGRAM FILES (X86)\MICROSOFT SDKS\WINDOWS\V7.1A\INCLUDE\KERNELSPECS.H
C:\PROGRAM FILES (X86)\MICROSOFT SDKS\WINDOWS\V7.1A\INCLUDE\BASETSD.H
C:\PROGRAM FILES (X86)\MICROSOFT SDKS\WINDOWS\V7.1A\INCLUDE\GUIDDEF.H
C:\PROGRAM FILES (X86)\MICROSOFT SDKS\WINDOWS\V7.1A\INCLUDE\PSHPACK4.H
C:\PROGRAM FILES (X86)\MICROSOFT SDKS\WINDOWS\V7.1A\INCLUDE\POPPACK.H
C:\PROGRAM FILES (X86)\MICROSOFT SDKS\WINDOWS\V7.1A\INCLUDE\PSHPACK2.H
C:\PROGRAM FILES (X86)\MICROSOFT SDKS\WINDOWS\V7.1A\INCLUDE\PSHPACK8.H
C:\PROGRAM FILES (X86)\MICROSOFT SDKS\WINDOWS\V7.1A\INCLUDE\KTMTYPES.H
C:\PROGRAM FILES (X86)\MICROSOFT SDKS\WINDOWS\V7.1A\INCLUDE\WINBASE.H
C:\PROGRAM FILES (X86)\MICROSOFT SDKS\WINDOWS\V7.1A\INCLUDE\WINERROR.H
C:\PROGRAM FILES (X86)\MICROSOFT SDKS\WINDOWS\V7.1A\INCLUDE\WINGDI.H
C:\PROGRAM FILES (X86)\MICROSOFT SDKS\WINDOWS\V7.1A\INCLUDE\PSHPACK1.H
C:\PROGRAM FILES (X86)\MICROSOFT SDKS\WINDOWS\V7.1A\INCLUDE\WINUSER.H
C:\PROGRAM FILES (X86)\MICROSOFT SDKS\WINDOWS\V7.1A\INCLUDE\TVOUT.H
C:\PROGRAM FILES (X86)\MICROSOFT SDKS\WINDOWS\V7.1A\INCLUDE\WINNLS.H
C:\PROGRAM FILES (X86)\MICROSOFT SDKS\WINDOWS\V7.1A\INCLUDE\WINCON.H
C:\PROGRAM FILES (X86)\MICROSOFT SDKS\WINDOWS\V7.1A\INCLUDE\WINVER.H
C:\PROGRAM FILES (X86)\MICROSOFT SDKS\WINDOWS\V7.1A\INCLUDE\VERRSRC.H
C:\PROGRAM FILES (X86)\MICROSOFT SDKS\WINDOWS\V7.1A\INCLUDE\WINREG.H
C:\PROGRAM FILES (X86)\MICROSOFT SDKS\WINDOWS\V7.1A\INCLUDE\REASON.H
C:\PROGRAM FILES (X86)\MICROSOFT SDKS\WINDOWS\V7.1A\INCLUDE\WINNETWK.H
C:\PROGRAM FILES (X86)\MICROSOFT SDKS\WINDOWS\V7.1A\INCLUDE\WNNC.H
C:\PROGRAM FILES (X86)\MICROSOFT SDKS\WINDOWS\V7.1A\INCLUDE\STRALIGN.H
C:\PROGRAM FILES (X86)\MICROSOFT SDKS\WINDOWS\V7.1A\INCLUDE\WINSVC.H
C:\PROGRAM FILES (X86)\MICROSOFT SDKS\WINDOWS\V7.1A\INCLUDE\MCX.H
C:\PROGRAM FILES (X86)\MICROSOFT SDKS\WINDOWS\V7.1A\INCLUDE\IMM.H
C:\PROGRAM FILES (X86)\MICROSOFT SDKS\WINDOWS\V7.1A\INCLUDE\IME_CMODES.H
C:\PROGRAM FILES\MICROSOFT VISUAL STUDIO\2022\COMMUNITY\VC\TOOLS\MSVC\14.16.27023\INCLUDE\ALGORITHM
E:\DEV\__REPOSITORY__\_H3ERA_PLUGINS_\__INCLUDE__\NPC_STRUCT.H
E:\DEV\__REPOSITORY__\_H3ERA_PLUGINS_\BETTER_NPC\CALL_HELPER.H
C:\PROGRAM FILES\MICROSOFT VISUAL STUDIO\2022\COMMUNITY\VC\TOOLS\MSVC\14.16.27023\INCLUDE\MAP
C:\PROGRAM FILES\MICROSOFT VISUAL STUDIO\2022\COMMUNITY\VC\TOOLS\MSVC\14.16.27023\INCLUDE\XTREE
C:\PROGRAM FILES\MICROSOFT VISUAL STUDIO\2022\COMMUNITY\VC\TOOLS\MSVC\14.16.27023\INCLUDE\XNODE_HANDLE.H
C:\PROGRAM FILES\MICROSOFT VISUAL STUDIO\2022\COMMUNITY\VC\TOOLS\MSVC\14.16.27023\INCLUDE\STRING
C:\PROGRAM FILES\MICROSOFT VISUAL STUDIO\2022\COMMUNITY\VC\TOOLS\MSVC\14.16.27023\INCLUDE\XSTRING_INSERT.H
^E:\DEV\__REPOSITORY__\_H3ERA_PLUGINS_\BETTER_NPC\NPC_CLASSES.CPP
C:\PROGRAM FILES\MICROSOFT VISUAL STUDIO\2022\COMMUNITY\VC\TOOLS\MSVC\14.16.27023\BIN\HOSTX86\X86\1033\CLUI.DLL
C:\WINDOWS\GLOBALIZATION\SORTING\SORTDEFAULT.NLS
C:\WINDOWS\SYSTEM32\TZRES.DLL
E:\DEV\__REPOSITORY__\_H3ERA_PLUGINS_\BETTER_NPC\HEADER.H
C:\PROGRAM FILES\MICROSOFT VISUAL STUDIO\2022\COMMUNITY\VC\TOOLS\MSVC\14.16.27023\INCLUDE\VECTOR
C:\PROGRAM FILES\MICROSOFT VISUAL STUDIO\2022\COMMUNITY\VC\TOOLS\MSVC\14.16.27023\INCLUDE\XMEMORY
C:\PROGRAM FILES\MICROSOFT VISUAL STUDIO\2022\COMMUNITY\VC\TOOLS\MSVC\14.16.27023\INCLUDE\XMEMORY0
C:\PROGRAM FILES\MICROSOFT VISUAL STUDIO\2022\COMMUNITY\VC\TOOLS\MSVC\14.16.27023\INCLUDE\CSTDINT
C:\PROGRAM FILES\MICROSOFT VISUAL STUDIO\2022\COMMUNITY\VC\TOOLS\MSVC\14.16.27023\INCLUDE\YVALS.H
C:\PROGRAM FILES\MICROSOFT VISUAL STUDIO\2022\COMMUNITY\VC\TOOLS\MSVC\14.16.27023\INCLUDE\YVALS_CORE.H
C:\PROGRAM FILES\MICROSOFT VISUAL STUDIO\2022\COMMUNITY\VC\TOOLS\MSVC\14.16.27023\INCLUDE\XKEYCHECK.H
C:\PROGRAM FILES\MICROSOFT VISUAL STUDIO\2022\COMMUNITY\VC\TOOLS\MSVC\14.16.27023\INCLUDE\CRTDEFS.H
C:\PROGRAM FILES\MICROSOFT VISUAL STUDIO\2022\COMMUNITY\VC\TOOLS\MSVC\14.16.27023\INCLUDE\VCRUNTIME.H
C:\PROGRAM FILES\MICROSOFT VISUAL STUDIO\2022\COMMUNITY\VC\TOOLS\MSVC\14.16.27023\INCLUDE\SAL.H
C:\PROGRAM FILES\MICROSOFT VISUAL STUDIO\2022\COMMUNITY\VC\TOOLS\MSVC\14.16.27023\INCLUDE\CONCURRENCYSAL.H
C:\PROGRAM FILES\MICROSOFT VISUAL STUDIO\2022\COMMUNITY\VC\TOOLS\MSVC\14.16.27023\INCLUDE\VADEFS.H
D:\WINDOWS KITS\10\INCLUDE\10.0.10240.0\UCRT\CORECRT.H
D:\WINDOWS KITS\10\INCLUDE\10.0.10240.0\UCRT\CRTDBG.H
C:\PROGRAM FILES\MICROSOFT VISUAL STUDIO\2022\COMMUNITY\VC\TOOLS\MSVC\14.16.27023\INCLUDE\VCRUNTIME_NEW_DEBUG.H
C:\PROGRAM FILES\MICROSOFT VISUAL STUDIO\2022\COMMUNITY\VC\TOOLS\MSVC\14.16.27023\INCLUDE\VCRUNTIME_NEW.H
C:\PROGRAM FILES\MICROSOFT VISUAL STUDIO\2022\COMMUNITY\VC\TOOLS\MSVC\14.16.27023\INCLUDE\USE_ANSI.H
C:\PROGRAM FILES\MICROSOFT VISUAL STUDIO\2022\COMMUNITY\VC\TOOLS\MSVC\14.16.27023\INCLUDE\STDINT.H
C:\PROGRAM FILES\MICROSOFT VISUAL STUDIO\2022\COMMUNITY\VC\TOOLS\MSVC\14.16.27023\INCLUDE\CSTDLIB
D:\WINDOWS KITS\10\INCLUDE\10.0.10240.0\UCRT\STDLIB.H
D:\WINDOWS KITS\10\INCLUDE\10.0.10240.0\UCRT\CORECRT_MALLOC.H
D:\WINDOWS KITS\10\INCLUDE\10.0.10240.0\UCRT\CORECRT_SEARCH.H
D:\WINDOWS KITS\10\INCLUDE\10.0.10240.0\UCRT\STDDEF.H
D:\WINDOWS KITS\10\INCLUDE\10.0.10240.0\UCRT\CORECRT_WSTDLIB.H
C:\PROGRAM FILES\MICROSOFT VISUAL STUDIO\2022\COMMUNITY\VC\TOOLS\MSVC\14.16.27023\INCLUDE\LIMITS.H
D:\WINDOWS KITS\10\INCLUDE\10.0.10240.0\UCRT\MATH.H
C:\PROGRAM FILES\MICROSOFT VISUAL STUDIO\2022\COMMUNITY\VC\TOOLS\MSVC\14.16.27023\INCLUDE\LIMITS
C:\PROGRAM FILES\MICROSOFT VISUAL STUDIO\2022\COMMUNITY\VC\TOOLS\MSVC\14.16.27023\INCLUDE\YMATH.H
C:\PROGRAM FILES\MICROSOFT VISUAL STUDIO\2022\COMMUNITY\VC\TOOLS\MSVC\14.16.27023\INCLUDE\CFLOAT
D:\WINDOWS KITS\10\INCLUDE\10.0.10240.0\UCRT\FLOAT.H
C:\PROGRAM FILES\MICROSOFT VISUAL STUDIO\2022\COMMUNITY\VC\TOOLS\MSVC\14.16.27023\INCLUDE\CLIMITS
C:\PROGRAM FILES\MICROSOFT VISUAL STUDIO\2022\COMMUNITY\VC\TOOLS\MSVC\14.16.27023\INCLUDE\CMATH
C:\PROGRAM FILES\MICROSOFT VISUAL STUDIO\2022\COMMUNITY\VC\TOOLS\MSVC\14.16.27023\INCLUDE\XTGMATH.H
C:\PROGRAM FILES\MICROSOFT VISUAL STUDIO\2022\COMMUNITY\VC\TOOLS\MSVC\14.16.27023\INCLUDE\XTR1COMMON
C:\PROGRAM FILES\MICROSOFT VISUAL STUDIO\2022\COMMUNITY\VC\TOOLS\MSVC\14.16.27023\INCLUDE\CWCHAR
D:\WINDOWS KITS\10\INCLUDE\10.0.10240.0\UCRT\WCHAR.H
D:\WINDOWS KITS\10\INCLUDE\10.0.10240.0\UCRT\CORECRT_MEMCPY_S.H
D:\WINDOWS KITS\10\INCLUDE\10.0.10240.0\UCRT\ERRNO.H
C:\PROGRAM FILES\MICROSOFT VISUAL STUDIO\2022\COMMUNITY\VC\TOOLS\MSVC\14.16.27023\INCLUDE\VCRUNTIME_STRING.H
D:\WINDOWS KITS\10\INCLUDE\10.0.10240.0\UCRT\CORECRT_WCONIO.H
D:\WINDOWS KITS\10\INCLUDE\10.0.10240.0\UCRT\CORECRT_STDIO_CONFIG.H
D:\WINDOWS KITS\10\INCLUDE\10.0.10240.0\UCRT\CORECRT_WCTYPE.H
D:\WINDOWS KITS\10\INCLUDE\10.0.10240.0\UCRT\CORECRT_WDIRECT.H
D:\WINDOWS KITS\10\INCLUDE\10.0.10240.0\UCRT\CORECRT_WIO.H
D:\WINDOWS KITS\10\INCLUDE\10.0.10240.0\UCRT\CORECRT_SHARE.H
D:\WINDOWS KITS\10\INCLUDE\10.0.10240.0\UCRT\CORECRT_WPROCESS.H
D:\WINDOWS KITS\10\INCLUDE\10.0.10240.0\UCRT\CORECRT_WSTDIO.H
D:\WINDOWS KITS\10\INCLUDE\10.0.10240.0\UCRT\CORECRT_WSTRING.H
D:\WINDOWS KITS\10\INCLUDE\10.0.10240.0\UCRT\CORECRT_WTIME.H
D:\WINDOWS KITS\10\INCLUDE\10.0.10240.0\UCRT\SYS\STAT.H
D:\WINDOWS KITS\10\INCLUDE\10.0.10240.0\UCRT\SYS\TYPES.H
C:\PROGRAM FILES\MICROSOFT VISUAL STUDIO\2022\COMMUNITY\VC\TOOLS\MSVC\14.16.27023\INCLUDE\XSTDDEF
C:\PROGRAM FILES\MICROSOFT VISUAL STUDIO\2022\COMMUNITY\VC\TOOLS\MSVC\14.16.27023\INCLUDE\CSTDDEF
C:\PROGRAM FILES\MICROSOFT VISUAL STUDIO\2022\COMMUNITY\VC\TOOLS\MSVC\14.16.27023\INCLUDE\INITIALIZER_LIST
C:\PROGRAM FILES\MICROSOFT VISUAL STUDIO\2022\COMMUNITY\VC\TOOLS\MSVC\14.16.27023\INCLUDE\NEW
C:\PROGRAM FILES\MICROSOFT VISUAL STUDIO\2022\COMMUNITY\VC\TOOLS\MSVC\14.16.27023\INCLUDE\EXCEPTION
C:\PROGRAM FILES\MICROSOFT VISUAL STUDIO\2022\COMMUNITY\VC\TOOLS\MSVC\14.16.27023\INCLUDE\TYPE_TRAITS
D:\WINDOWS KITS\10\INCLUDE\10.0.10240.0\UCRT\MALLOC.H
C:\PROGRAM FILES\MICROSOFT VISUAL STUDIO\2022\COMMUNITY\VC\TOOLS\MSVC\14.16.27023\INCLUDE\VCRUNTIME_EXCEPTION.H
C:\PROGRAM FILES\MICROSOFT VISUAL STUDIO\2022\COMMUNITY\VC\TOOLS\MSVC\14.16.27023\INCLUDE\EH.H
D:\WINDOWS KITS\10\INCLUDE\10.0.10240.0\UCRT\CORECRT_TERMINATE.H
C:\PROGRAM FILES\MICROSOFT VISUAL STUDIO\2022\COMMUNITY\VC\TOOLS\MSVC\14.16.27023\INCLUDE\XUTILITY
C:\PROGRAM FILES\MICROSOFT VISUAL STUDIO\2022\COMMUNITY\VC\TOOLS\MSVC\14.16.27023\INCLUDE\UTILITY
C:\PROGRAM FILES\MICROSOFT VISUAL STUDIO\2022\COMMUNITY\VC\TOOLS\MSVC\14.16.27023\INCLUDE\IOSFWD
C:\PROGRAM FILES\MICROSOFT VISUAL STUDIO\2022\COMMUNITY\VC\TOOLS\MSVC\14.16.27023\INCLUDE\CSTDIO
D:\WINDOWS KITS\10\INCLUDE\10.0.10240.0\UCRT\STDIO.H
C:\PROGRAM FILES\MICROSOFT VISUAL STUDIO\2022\COMMUNITY\VC\TOOLS\MSVC\14.16.27023\INCLUDE\CSTRING
D:\WINDOWS KITS\10\INCLUDE\10.0.10240.0\UCRT\STRING.H
D:\WINDOWS KITS\10\INCLUDE\10.0.10240.0\UCRT\CORECRT_MEMORY.H
C:\PROGRAM FILES\MICROSOFT VISUAL STUDIO\2022\COMMUNITY\VC\TOOLS\MSVC\14.16.27023\INCLUDE\XATOMIC0.H
C:\PROGRAM FILES\MICROSOFT VISUAL STUDIO\2022\COMMUNITY\VC\TOOLS\MSVC\14.16.27023\INCLUDE\INTRIN0.H
C:\PROGRAM FILES\MICROSOFT VISUAL STUDIO\2022\COMMUNITY\VC\TOOLS\MSVC\14.16.27023\INCLUDE\STDEXCEPT
C:\PROGRAM FILES\MICROSOFT VISUAL STUDIO\2022\COMMUNITY\VC\TOOLS\MSVC\14.16.27023\INCLUDE\XSTRING
C:\PROGRAM FILES\MICROSOFT VISUAL STUDIO\2022\COMMUNITY\VC\TOOLS\MSVC\14.16.27023\INCLUDE\XPOLYMORPHIC_ALLOCATOR.H
C:\PROGRAM FILES\MICROSOFT VISUAL STUDIO\2022\COMMUNITY\VC\TOOLS\MSVC\14.16.27023\INCLUDE\TUPLE
C:\PROGRAM FILES\MICROSOFT VISUAL STUDIO\2022\COMMUNITY\VC\TOOLS\MSVC\14.16.27023\INCLUDE\IOSTREAM
C:\PROGRAM FILES\MICROSOFT VISUAL STUDIO\2022\COMMUNITY\VC\TOOLS\MSVC\14.16.27023\INCLUDE\ISTREAM
C:\PROGRAM FILES\MICROSOFT VISUAL STUDIO\2022\COMMUNITY\VC\TOOLS\MSVC\14.16.27023\INCLUDE\OSTREAM
C:\PROGRAM FILES\MICROSOFT VISUAL STUDIO\2022\COMMUNITY\VC\TOOLS\MSVC\14.16.27023\INCLUDE\IOS
C:\PROGRAM FILES\MICROSOFT VISUAL STUDIO\2022\COMMUNITY\VC\TOOLS\MSVC\14.16.27023\INCLUDE\XLOCNUM
C:\PROGRAM FILES\MICROSOFT VISUAL STUDIO\2022\COMMUNITY\VC\TOOLS\MSVC\14.16.27023\INCLUDE\STREAMBUF
C:\PROGRAM FILES\MICROSOFT VISUAL STUDIO\2022\COMMUNITY\VC\TOOLS\MSVC\14.16.27023\INCLUDE\XIOSBASE
C:\PROGRAM FILES\MICROSOFT VISUAL STUDIO\2022\COMMUNITY\VC\TOOLS\MSVC\14.16.27023\INCLUDE\XLOCALE
C:\PROGRAM FILES\MICROSOFT VISUAL STUDIO\2022\COMMUNITY\VC\TOOLS\MSVC\14.16.27023\INCLUDE\TYPEINFO
C:\PROGRAM FILES\MICROSOFT VISUAL STUDIO\2022\COMMUNITY\VC\TOOLS\MSVC\14.16.27023\INCLUDE\VCRUNTIME_TYPEINFO.H
C:\PROGRAM FILES\MICROSOFT VISUAL STUDIO\2022\COMMUNITY\VC\TOOLS\MSVC\14.16.27023\INCLUDE\XLOCINFO
C:\PROGRAM FILES\MICROSOFT VISUAL STUDIO\2022\COMMUNITY\VC\TOOLS\MSVC\14.16.27023\INCLUDE\XLOCINFO.H
D:\WINDOWS KITS\10\INCLUDE\10.0.10240.0\UCRT\CTYPE.H
D:\WINDOWS KITS\10\INCLUDE\10.0.10240.0\UCRT\LOCALE.H
C:\PROGRAM FILES\MICROSOFT VISUAL STUDIO\2022\COMMUNITY\VC\TOOLS\MSVC\14.16.27023\INCLUDE\MEMORY
C:\PROGRAM FILES\MICROSOFT VISUAL STUDIO\2022\COMMUNITY\VC\TOOLS\MSVC\14.16.27023\INCLUDE\XFACET
C:\PROGRAM FILES\MICROSOFT VISUAL STUDIO\2022\COMMUNITY\VC\TOOLS\MSVC\14.16.27023\INCLUDE\SYSTEM_ERROR
C:\PROGRAM FILES\MICROSOFT VISUAL STUDIO\2022\COMMUNITY\VC\TOOLS\MSVC\14.16.27023\INCLUDE\CERRNO
C:\PROGRAM FILES\MICROSOFT VISUAL STUDIO\2022\COMMUNITY\VC\TOOLS\MSVC\14.16.27023\INCLUDE\XCALL_ONCE.H
C:\PROGRAM FILES\MICROSOFT VISUAL STUDIO\2022\COMMUNITY\VC\TOOLS\MSVC\14.16.27023\INCLUDE\XERRC.H
D:\WINDOWS KITS\10\INCLUDE\10.0.10240.0\UCRT\SHARE.H
E:\DEV\__REPOSITORY__\_H3ERA_PLUGINS_\__INCLUDE__\H3API\SINGLE_HEADER\H3API.HPP
C:\PROGRAM FILES (X86)\MICROSOFT SDKS\WINDOWS\V7.1A\INCLUDE\WINDOWS.H
C:\PROGRAM FILES (X86)\MICROSOFT SDKS\WINDOWS\V7.1A\INCLUDE\SDKDDKVER.H
C:\PROGRAM FILES\MICROSOFT VISUAL STUDIO\2022\COMMUNITY\VC\TOOLS\MSVC\14.16.27023\INCLUDE\EXCPT.H
C:\PROGRAM FILES\MICROSOFT VISUAL STUDIO\2022\COMMUNITY\VC\TOOLS\MSVC\14.16.27023\INCLUDE\STDARG.H
C:\PROGRAM FILES (X86)\MICROSOFT SDKS\WINDOWS\V7.1A\INCLUDE\WINDEF.H
C:\PROGRAM FILES (X86)\MICROSOFT SDKS\WINDOWS\V7.1A\INCLUDE\WINNT.H
C:\PROGRAM FILES (X86)\MICROSOFT SDKS\WINDOWS\V7.1A\INCLUDE\SPECSTRINGS.H
C:\PROGRAM FILES (X86)\MICROSOFT SDKS\WINDOWS\V7.1A\INCLUDE\SAL_SUPP.H
C:\PROGRAM FILES (X86)\MICROSOFT SDKS\WINDOWS\V7.1A\INCLUDE\SPECSTRINGS_SUPP.H
C:\PROGRAM FILES (X86)\MICROSOFT SDKS\WINDOWS\V7.1A\INCLUDE\SPECSTRINGS_STRICT.H
C:\PROGRAM FILES (X86)\MICROSOFT SDKS\WINDOWS\V7.1A\INCLUDE\SPECSTRINGS_UNDEF.H
C:\PROGRAM FILES (X86)\MICROSOFT SDKS\WINDOWS\V7.1A\INCLUDE\DRIVERSPECS.H
C:\PROGRAM FILES (X86)\MICROSOFT SDKS\WINDOWS\V7.1A\INCLUDE\SDV_DRIVERSPECS.H
C:\PROGRAM FILES (X86)\MICROSOFT SDKS\WINDOWS\V7.1A\INCLUDE\KERNELSPECS.H
C:\PROGRAM FILES (X86)\MICROSOFT SDKS\WINDOWS\V7.1A\INCLUDE\BASETSD.H
C:\PROGRAM FILES (X86)\MICROSOFT SDKS\WINDOWS\V7.1A\INCLUDE\GUIDDEF.H
C:\PROGRAM FILES (X86)\MICROSOFT SDKS\WINDOWS\V7.1A\INCLUDE\PSHPACK4.H
C:\PROGRAM FILES (X86)\MICROSOFT SDKS\WINDOWS\V7.1A\INCLUDE\POPPACK.H
C:\PROGRAM FILES (X86)\MICROSOFT SDKS\WINDOWS\V7.1A\INCLUDE\PSHPACK2.H
C:\PROGRAM FILES (X86)\MICROSOFT SDKS\WINDOWS\V7.1A\INCLUDE\PSHPACK8.H
C:\PROGRAM FILES (X86)\MICROSOFT SDKS\WINDOWS\V7.1A\INCLUDE\KTMTYPES.H
C:\PROGRAM FILES (X86)\MICROSOFT SDKS\WINDOWS\V7.1A\INCLUDE\WINBASE.H
C:\PROGRAM FILES (X86)\MICROSOFT SDKS\WINDOWS\V7.1A\INCLUDE\WINERROR.H
C:\PROGRAM FILES (X86)\MICROSOFT SDKS\WINDOWS\V7.1A\INCLUDE\WINGDI.H
C:\PROGRAM FILES (X86)\MICROSOFT SDKS\WINDOWS\V7.1A\INCLUDE\PSHPACK1.H
C:\PROGRAM FILES (X86)\MICROSOFT SDKS\WINDOWS\V7.1A\INCLUDE\WINUSER.H
C:\PROGRAM FILES (X86)\MICROSOFT SDKS\WINDOWS\V7.1A\INCLUDE\TVOUT.H
C:\PROGRAM FILES (X86)\MICROSOFT SDKS\WINDOWS\V7.1A\INCLUDE\WINNLS.H
C:\PROGRAM FILES (X86)\MICROSOFT SDKS\WINDOWS\V7.1A\INCLUDE\WINCON.H
C:\PROGRAM FILES (X86)\MICROSOFT SDKS\WINDOWS\V7.1A\INCLUDE\WINVER.H
C:\PROGRAM FILES (X86)\MICROSOFT SDKS\WINDOWS\V7.1A\INCLUDE\VERRSRC.H
C:\PROGRAM FILES (X86)\MICROSOFT SDKS\WINDOWS\V7.1A\INCLUDE\WINREG.H
C:\PROGRAM FILES (X86)\MICROSOFT SDKS\WINDOWS\V7.1A\INCLUDE\REASON.H
C:\PROGRAM FILES (X86)\MICROSOFT SDKS\WINDOWS\V7.1A\INCLUDE\WINNETWK.H
C:\PROGRAM FILES (X86)\MICROSOFT SDKS\WINDOWS\V7.1A\INCLUDE\WNNC.H
C:\PROGRAM FILES (X86)\MICROSOFT SDKS\WINDOWS\V7.1A\INCLUDE\STRALIGN.H
C:\PROGRAM FILES (X86)\MICROSOFT SDKS\WINDOWS\V7.1A\INCLUDE\WINSVC.H
C:\PROGRAM FILES (X86)\MICROSOFT SDKS\WINDOWS\V7.1A\INCLUDE\MCX.H
C:\PROGRAM FILES (X86)\MICROSOFT SDKS\WINDOWS\V7.1A\INCLUDE\IMM.H
C:\PROGRAM FILES (X86)\MICROSOFT SDKS\WINDOWS\V7.1A\INCLUDE\IME_CMODES.H
C:\PROGRAM FILES\MICROSOFT VISUAL STUDIO\2022\COMMUNITY\VC\TOOLS\MSVC\14.16.27023\INCLUDE\ALGORITHM
E:\DEV\__REPOSITORY__\_H3ERA_PLUGINS_\__INCLUDE__\NPC_STRUCT.H
E:\DEV\__REPOSITORY__\_H3ERA_PLUGINS_\BETTER_NPC\CALL_HELPER.H
C:\PROGRAM FILES\MICROSOFT VISUAL STUDIO\2022\COMMUNITY\VC\TOOLS\MSVC\14.16.27023\INCLUDE\MAP
C:\PROGRAM FILES\MICROSOFT VISUAL STUDIO\2022\COMMUNITY\VC\TOOLS\MSVC\14.16.27023\INCLUDE\XTREE
C:\PROGRAM FILES\MICROSOFT VISUAL STUDIO\2022\COMMUNITY\VC\TOOLS\MSVC\14.16.27023\INCLUDE\XNODE_HANDLE.H
C:\PROGRAM FILES\MICROSOFT VISUAL STUDIO\2022\COMMUNITY\VC\TOOLS\MSVC\14.16.27023\INCLUDE\STRING
C:\PROGRAM FILES\MICROSOFT VISUAL STUDIO\2022\COMMUNITY\VC\TOOLS\MSVC\14.16.27023\INCLUDE\XSTRING_INSERT.H
