^E:\DEV\__REPOSITORY__\_H3ERA_PLUGINS_\BETTER_NPC\RELEASE\NPC_SSS.OBJ
/OUT:"E:\DEV\__REPOSITORY__\_H3ERA_PLUGINS_\BETTER_NPC\RELEASE\BETTER_NPC.DLL" /INCREMENTAL:NO /NOLOGO /MANIFEST /MANIFESTUAC:NO /manifest:embed /manifestinput:"C:\PROGRAM FILES (X86)\MICROSOFT VISUAL STUDIO\2019\COMMUNITY\VC\TOOLS\MSVC\14.29.30133\INCLUDE\MANIFEST\DPIAWARE.MANIFEST" /DEBUG /PDB:"E:\DEV\__REPOSITORY__\_H3ERA_PLUGINS_\BETTER_NPC\RELEASE\BETTER_NPC.PDB" /SUBSYSTEM:WINDOWS /OPT:REF /OPT:ICF /LTCG:incremental /LTCGOUT:"RELEASE\BETTER_NPC.IOBJ" /TLBID:1 /DYNAMICBASE /NXCOMPAT /IMPLIB:"E:\DEV\__REPOSITORY__\_H3ERA_PLUGINS_\BETTER_NPC\RELEASE\BETTER_NPC.LIB" /MACHINE:X86 /SAFESEH /DLL RELEASE\NPC_SSS.OBJ
^C:\DEV\H3ERA_PLUGINS\_H3ERA_PLUGINS_\BETTER_NPC\RELEASE\NPC_SKILLS.OBJ|C:\DEV\H3ERA_PLUGINS\_H3ERA_PLUGINS_\BETTER_NPC\RELEASE\NPC_SPECIAL.OBJ|C:\DEV\H3ERA_PLUGINS\_H3ERA_PLUGINS_\BETTER_NPC\RELEASE\NPC_SSS.OBJ
/OUT:"C:\DEV\H3ERA_PLUGINS\_H3ERA_PLUGINS_\BETTER_NPC\RELEASE\BETTER_NPC.DLL" /INCREMENTAL:NO /NOLOGO /MANIFEST /MANIFESTUAC:NO /manifest:embed /manifestinput:"C:\PROGRAM FILES\MICROSOFT VISUAL STUDIO\2022\COMMUNITY\VC\TOOLS\MSVC\14.16.27023\INCLUDE\MANIFEST\DPIAWARE.MANIFEST" /DEBUG /PDB:"C:\DEV\H3ERA_PLUGINS\_H3ERA_PLUGINS_\BETTER_NPC\RELEASE\BETTER_NPC.PDB" /SUBSYSTEM:WINDOWS,"5.01" /OPT:REF /OPT:ICF /LTCG:incremental /TLBID:1 /DYNAMICBASE /NXCOMPAT /IMPLIB:"C:\DEV\H3ERA_PLUGINS\_H3ERA_PLUGINS_\BETTER_NPC\RELEASE\BETTER_NPC.LIB" /MACHINE:X86 /SAFESEH /DLL RELEASE\NPC_SKILLS.OBJRELEASE\NPC_SPECIAL.OBJRELEASE\NPC_SSS.OBJ
^E:\DEV\__REPOSITORY__\_H3ERA_PLUGINS_\BETTER_NPC\RELEASE\NPC_CLASSES.OBJ|E:\DEV\__REPOSITORY__\_H3ERA_PLUGINS_\BETTER_NPC\RELEASE\NPC_SKILLS.OBJ|E:\DEV\__REPOSITORY__\_H3ERA_PLUGINS_\BETTER_NPC\RELEASE\NPC_SPECIAL.OBJ|E:\DEV\__REPOSITORY__\_H3ERA_PLUGINS_\BETTER_NPC\RELEASE\NPC_SSS.OBJ
/OUT:"E:\DEV\__REPOSITORY__\_H3ERA_PLUGINS_\BETTER_NPC\RELEASE\BETTER_NPC.DLL" /INCREMENTAL:NO /NOLOGO /MANIFEST /MANIFESTUAC:NO /manifest:embed /manifestinput:"C:\PROGRAM FILES\MICROSOFT VISUAL STUDIO\2022\COMMUNITY\VC\TOOLS\MSVC\14.16.27023\INCLUDE\MANIFEST\DPIAWARE.MANIFEST" /DEBUG /PDB:"E:\DEV\__REPOSITORY__\_H3ERA_PLUGINS_\BETTER_NPC\RELEASE\BETTER_NPC.PDB" /SUBSYSTEM:WINDOWS,"5.01" /OPT:REF /OPT:ICF /LTCG:incremental /TLBID:1 /DYNAMICBASE /NXCOMPAT /IMPLIB:"E:\DEV\__REPOSITORY__\_H3ERA_PLUGINS_\BETTER_NPC\RELEASE\BETTER_NPC.LIB" /MACHINE:X86 /SAFESEH /DLL RELEASE\NPC_CLASSES.OBJRELEASE\NPC_SKILLS.OBJRELEASE\NPC_SPECIAL.OBJRELEASE\NPC_SSS.OBJ
