^C:\DEV\H3ERA_PLUGINS\_H3ERA_PLUGINS_\GRANDMASTER_MAGIC\GRANDMASTER_MAGIC\ADVENTURE_SPELLS.CPP
/c /Zi /nologo /W3 /WX- /diagnostics:classic /sdl- /Od /Oi /Oy- /GL /D WIN32 /D NDEBUG /D GRANDMASTERMAGIC_EXPORTS /D _WINDOWS /D _USRDLL /D _USING_V110_SDK71_ /D _WINDLL /D _UNICODE /D UNICODE /Gm- /EHsc /MT /GS /Gy /fp:precise /Zc:wchar_t /Zc:forScope /Zc:inline /std:c++latest /Fo"RELEASE\\" /Fd"RELEASE\VC141.PDB" /Gd /TP /analyze- /FC C:\DEV\H3ERA_PLUGINS\_H3ERA_PLUGINS_\GRANDMASTER_MAGIC\GRANDMASTER_MAGIC\ADVENTURE_SPELLS.CPP
^C:\DEV\H3ERA_PLUGINS\_H3ERA_PLUGINS_\GRANDMASTER_MAGIC\GRANDMASTER_MAGIC\CHAINLIGHTING.CPP
/c /Zi /nologo /W3 /WX- /diagnostics:classic /sdl- /Od /Oi /Oy- /GL /D WIN32 /D NDEBUG /D GRANDMASTERMAGIC_EXPORTS /D _WINDOWS /D _USRDLL /D _USING_V110_SDK71_ /D _WINDLL /D _UNICODE /D UNICODE /Gm- /EHsc /MT /GS /Gy /fp:precise /Zc:wchar_t /Zc:forScope /Zc:inline /std:c++latest /Fo"RELEASE\\" /Fd"RELEASE\VC141.PDB" /Gd /TP /analyze- /FC C:\DEV\H3ERA_PLUGINS\_H3ERA_PLUGINS_\GRANDMASTER_MAGIC\GRANDMASTER_MAGIC\CHAINLIGHTING.CPP
^C:\DEV\H3ERA_PLUGINS\_H3ERA_PLUGINS_\GRANDMASTER_MAGIC\GRANDMASTER_MAGIC\DLLMAIN.CPP
/c /Zi /nologo /W3 /WX- /diagnostics:classic /sdl- /Od /Oi /Oy- /GL /D WIN32 /D NDEBUG /D GRANDMASTERMAGIC_EXPORTS /D _WINDOWS /D _USRDLL /D _USING_V110_SDK71_ /D _WINDLL /D _UNICODE /D UNICODE /Gm- /EHsc /MT /GS /Gy /fp:precise /Zc:wchar_t /Zc:forScope /Zc:inline /std:c++latest /Fo"RELEASE\\" /Fd"RELEASE\VC141.PDB" /Gd /TP /analyze- /FC C:\DEV\H3ERA_PLUGINS\_H3ERA_PLUGINS_\GRANDMASTER_MAGIC\GRANDMASTER_MAGIC\DLLMAIN.CPP
^C:\DEV\H3ERA_PLUGINS\_H3ERA_PLUGINS_\GRANDMASTER_MAGIC\GRANDMASTER_MAGIC\APPLIEDSPELLS.CPP
/c /Zi /nologo /W3 /WX- /diagnostics:classic /sdl- /Od /Oi /Oy- /GL /D WIN32 /D NDEBUG /D GRANDMASTERMAGIC_EXPORTS /D _WINDOWS /D _USRDLL /D _USING_V110_SDK71_ /D _WINDLL /D _UNICODE /D UNICODE /Gm- /EHsc /MT /GS /Gy /fp:precise /Zc:wchar_t /Zc:forScope /Zc:inline /std:c++latest /Fo"RELEASE\\" /Fd"RELEASE\VC141.PDB" /Gd /TP /analyze- /FC C:\DEV\H3ERA_PLUGINS\_H3ERA_PLUGINS_\GRANDMASTER_MAGIC\GRANDMASTER_MAGIC\APPLIEDSPELLS.CPP
^C:\DEV\H3ERA_PLUGINS\_H3ERA_PLUGINS_\GRANDMASTER_MAGIC\GRANDMASTER_MAGIC\GM_MAGIC_FIXES.CPP
/c /Zi /nologo /W3 /WX- /diagnostics:classic /sdl- /Od /Oi /Oy- /GL /D WIN32 /D NDEBUG /D GRANDMASTERMAGIC_EXPORTS /D _WINDOWS /D _USRDLL /D _USING_V110_SDK71_ /D _WINDLL /D _UNICODE /D UNICODE /Gm- /EHsc /MT /GS /Gy /fp:precise /Zc:wchar_t /Zc:forScope /Zc:inline /std:c++latest /Fo"RELEASE\\" /Fd"RELEASE\VC141.PDB" /Gd /TP /analyze- /FC C:\DEV\H3ERA_PLUGINS\_H3ERA_PLUGINS_\GRANDMASTER_MAGIC\GRANDMASTER_MAGIC\GM_MAGIC_FIXES.CPP
^C:\DEV\H3ERA_PLUGINS\_H3ERA_PLUGINS_\GRANDMASTER_MAGIC\GRANDMASTER_MAGIC\HEALING_SPELLS.CPP
/c /Zi /nologo /W3 /WX- /diagnostics:classic /sdl- /Od /Oi /Oy- /GL /D WIN32 /D NDEBUG /D GRANDMASTERMAGIC_EXPORTS /D _WINDOWS /D _USRDLL /D _USING_V110_SDK71_ /D _WINDLL /D _UNICODE /D UNICODE /Gm- /EHsc /MT /GS /Gy /fp:precise /Zc:wchar_t /Zc:forScope /Zc:inline /std:c++latest /Fo"RELEASE\\" /Fd"RELEASE\VC141.PDB" /Gd /TP /analyze- /FC C:\DEV\H3ERA_PLUGINS\_H3ERA_PLUGINS_\GRANDMASTER_MAGIC\GRANDMASTER_MAGIC\HEALING_SPELLS.CPP
^C:\DEV\H3ERA_PLUGINS\_H3ERA_PLUGINS_\GRANDMASTER_MAGIC\GRANDMASTER_MAGIC\MAGIC_SPECIALTIES.CPP
/c /Zi /nologo /W3 /WX- /diagnostics:classic /sdl- /Od /Oi /Oy- /GL /D WIN32 /D NDEBUG /D GRANDMASTERMAGIC_EXPORTS /D _WINDOWS /D _USRDLL /D _USING_V110_SDK71_ /D _WINDLL /D _UNICODE /D UNICODE /Gm- /EHsc /MT /GS /Gy /fp:precise /Zc:wchar_t /Zc:forScope /Zc:inline /std:c++latest /Fo"RELEASE\\" /Fd"RELEASE\VC141.PDB" /Gd /TP /analyze- /FC C:\DEV\H3ERA_PLUGINS\_H3ERA_PLUGINS_\GRANDMASTER_MAGIC\GRANDMASTER_MAGIC\MAGIC_SPECIALTIES.CPP
^C:\DEV\H3ERA_PLUGINS\_H3ERA_PLUGINS_\GRANDMASTER_MAGIC\GRANDMASTER_MAGIC\MASSDAMAGESPELLS.CPP
/c /Zi /nologo /W3 /WX- /diagnostics:classic /sdl- /Od /Oi /Oy- /GL /D WIN32 /D NDEBUG /D GRANDMASTERMAGIC_EXPORTS /D _WINDOWS /D _USRDLL /D _USING_V110_SDK71_ /D _WINDLL /D _UNICODE /D UNICODE /Gm- /EHsc /MT /GS /Gy /fp:precise /Zc:wchar_t /Zc:forScope /Zc:inline /std:c++latest /Fo"RELEASE\\" /Fd"RELEASE\VC141.PDB" /Gd /TP /analyze- /FC C:\DEV\H3ERA_PLUGINS\_H3ERA_PLUGINS_\GRANDMASTER_MAGIC\GRANDMASTER_MAGIC\MASSDAMAGESPELLS.CPP
^C:\DEV\H3ERA_PLUGINS\_H3ERA_PLUGINS_\GRANDMASTER_MAGIC\GRANDMASTER_MAGIC\QUICKSAND_LANDMINE.CPP
/c /Zi /nologo /W3 /WX- /diagnostics:classic /sdl- /Od /Oi /Oy- /GL /D WIN32 /D NDEBUG /D GRANDMASTERMAGIC_EXPORTS /D _WINDOWS /D _USRDLL /D _USING_V110_SDK71_ /D _WINDLL /D _UNICODE /D UNICODE /Gm- /EHsc /MT /GS /Gy /fp:precise /Zc:wchar_t /Zc:forScope /Zc:inline /std:c++latest /Fo"RELEASE\\" /Fd"RELEASE\VC141.PDB" /Gd /TP /analyze- /FC C:\DEV\H3ERA_PLUGINS\_H3ERA_PLUGINS_\GRANDMASTER_MAGIC\GRANDMASTER_MAGIC\QUICKSAND_LANDMINE.CPP
^C:\DEV\H3ERA_PLUGINS\_H3ERA_PLUGINS_\GRANDMASTER_MAGIC\GRANDMASTER_MAGIC\SPELL_DESCRIPTION.CPP
/c /Zi /nologo /W3 /WX- /diagnostics:classic /sdl- /Od /Oi /Oy- /GL /D WIN32 /D NDEBUG /D GRANDMASTERMAGIC_EXPORTS /D _WINDOWS /D _USRDLL /D _USING_V110_SDK71_ /D _WINDLL /D _UNICODE /D UNICODE /Gm- /EHsc /MT /GS /Gy /fp:precise /Zc:wchar_t /Zc:forScope /Zc:inline /std:c++latest /Fo"RELEASE\\" /Fd"RELEASE\VC141.PDB" /Gd /TP /analyze- /FC C:\DEV\H3ERA_PLUGINS\_H3ERA_PLUGINS_\GRANDMASTER_MAGIC\GRANDMASTER_MAGIC\SPELL_DESCRIPTION.CPP
^C:\DEV\H3ERA_PLUGINS\_H3ERA_PLUGINS_\GRANDMASTER_MAGIC\GRANDMASTER_MAGIC\SUMMONCLONE.CPP
/c /Zi /nologo /W3 /WX- /diagnostics:classic /sdl- /Od /Oi /Oy- /GL /D WIN32 /D NDEBUG /D GRANDMASTERMAGIC_EXPORTS /D _WINDOWS /D _USRDLL /D _USING_V110_SDK71_ /D _WINDLL /D _UNICODE /D UNICODE /Gm- /EHsc /MT /GS /Gy /fp:precise /Zc:wchar_t /Zc:forScope /Zc:inline /std:c++latest /Fo"RELEASE\\" /Fd"RELEASE\VC141.PDB" /Gd /TP /analyze- /FC C:\DEV\H3ERA_PLUGINS\_H3ERA_PLUGINS_\GRANDMASTER_MAGIC\GRANDMASTER_MAGIC\SUMMONCLONE.CPP
^C:\DEV\H3ERA_PLUGINS\_H3ERA_PLUGINS_\GRANDMASTER_MAGIC\GRANDMASTER_MAGIC\_EXTENDED_SPELL_INFO_.CPP
/c /Zi /nologo /W3 /WX- /diagnostics:classic /sdl- /Od /Oi /Oy- /GL /D WIN32 /D NDEBUG /D GRANDMASTERMAGIC_EXPORTS /D _WINDOWS /D _USRDLL /D _USING_V110_SDK71_ /D _WINDLL /D _UNICODE /D UNICODE /Gm- /EHsc /MT /GS /Gy /fp:precise /Zc:wchar_t /Zc:forScope /Zc:inline /std:c++latest /Fo"RELEASE\\" /Fd"RELEASE\VC141.PDB" /Gd /TP /analyze- /FC C:\DEV\H3ERA_PLUGINS\_H3ERA_PLUGINS_\GRANDMASTER_MAGIC\GRANDMASTER_MAGIC\_EXTENDED_SPELL_INFO_.CPP
^C:\DEV\H3ERA_PLUGINS\_H3ERA_PLUGINS_\GRANDMASTER_MAGIC\GRANDMASTER_MAGIC\__INCLUDE\HEROES.CPP
/c /Zi /nologo /W3 /WX- /diagnostics:classic /sdl- /Od /Oi /Oy- /GL /D WIN32 /D NDEBUG /D GRANDMASTERMAGIC_EXPORTS /D _WINDOWS /D _USRDLL /D _USING_V110_SDK71_ /D _WINDLL /D _UNICODE /D UNICODE /Gm- /EHsc /MT /GS /Gy /fp:precise /Zc:wchar_t /Zc:forScope /Zc:inline /std:c++latest /Fo"RELEASE\\" /Fd"RELEASE\VC141.PDB" /Gd /TP /analyze- /FC C:\DEV\H3ERA_PLUGINS\_H3ERA_PLUGINS_\GRANDMASTER_MAGIC\GRANDMASTER_MAGIC\__INCLUDE\HEROES.CPP
^C:\DEV\H3ERA_PLUGINS\_H3ERA_PLUGINS_\GRANDMASTER_MAGIC\GRANDMASTER_MAGIC\MORE_SPELLS.CPP
/c /Zi /nologo /W3 /WX- /diagnostics:classic /sdl- /Od /Oi /Oy- /GL /D WIN32 /D NDEBUG /D GRANDMASTERMAGIC_EXPORTS /D _WINDOWS /D _USRDLL /D _USING_V110_SDK71_ /D _WINDLL /D _UNICODE /D UNICODE /Gm- /EHsc /MT /GS /Gy /fp:precise /Zc:wchar_t /Zc:forScope /Zc:inline /std:c++latest /Fo"RELEASE\\" /Fd"RELEASE\VC141.PDB" /Gd /TP /analyze- /FC C:\DEV\H3ERA_PLUGINS\_H3ERA_PLUGINS_\GRANDMASTER_MAGIC\GRANDMASTER_MAGIC\MORE_SPELLS.CPP
^E:\DEV\__REPOSITORY__\_H3ERA_PLUGINS_\GRANDMASTER_MAGIC\GRANDMASTER_MAGIC\GM_MAGIC_FIXES.CPP
/c /Zi /nologo /W3 /WX- /diagnostics:classic /sdl- /Od /Oi /Oy- /GL /D WIN32 /D NDEBUG /D GRANDMASTERMAGIC_EXPORTS /D _WINDOWS /D _USRDLL /D _USING_V110_SDK71_ /D _WINDLL /D _UNICODE /D UNICODE /Gm- /EHsc /MT /GS /Gy /fp:precise /Zc:wchar_t /Zc:forScope /Zc:inline /std:c++latest /Fo"RELEASE\\" /Fd"RELEASE\VC141.PDB" /Gd /TP /analyze- /FC E:\DEV\__REPOSITORY__\_H3ERA_PLUGINS_\GRANDMASTER_MAGIC\GRANDMASTER_MAGIC\GM_MAGIC_FIXES.CPP
^E:\DEV\__REPOSITORY__\_H3ERA_PLUGINS_\GRANDMASTER_MAGIC\GRANDMASTER_MAGIC\__INCLUDE\HEROES.CPP
/c /Zi /nologo /W3 /WX- /diagnostics:classic /sdl- /Od /Oi /Oy- /GL /D WIN32 /D NDEBUG /D GRANDMASTERMAGIC_EXPORTS /D _WINDOWS /D _USRDLL /D _USING_V110_SDK71_ /D _WINDLL /D _UNICODE /D UNICODE /Gm- /EHsc /MT /GS /Gy /fp:precise /Zc:wchar_t /Zc:forScope /Zc:inline /std:c++latest /Fo"RELEASE\\" /Fd"RELEASE\VC141.PDB" /Gd /TP /analyze- /FC E:\DEV\__REPOSITORY__\_H3ERA_PLUGINS_\GRANDMASTER_MAGIC\GRANDMASTER_MAGIC\__INCLUDE\HEROES.CPP
^E:\DEV\__REPOSITORY__\_H3ERA_PLUGINS_\GRANDMASTER_MAGIC\GRANDMASTER_MAGIC\ADVENTURE_SPELLS.CPP
/c /Zi /nologo /W3 /WX- /diagnostics:classic /sdl- /Od /Oi /Oy- /GL /D WIN32 /D NDEBUG /D GRANDMASTERMAGIC_EXPORTS /D _WINDOWS /D _USRDLL /D _USING_V110_SDK71_ /D _WINDLL /D _UNICODE /D UNICODE /Gm- /EHsc /MT /GS /Gy /fp:precise /Zc:wchar_t /Zc:forScope /Zc:inline /std:c++latest /Fo"RELEASE\\" /Fd"RELEASE\VC141.PDB" /Gd /TP /analyze- /FC E:\DEV\__REPOSITORY__\_H3ERA_PLUGINS_\GRANDMASTER_MAGIC\GRANDMASTER_MAGIC\ADVENTURE_SPELLS.CPP
^E:\DEV\__REPOSITORY__\_H3ERA_PLUGINS_\GRANDMASTER_MAGIC\GRANDMASTER_MAGIC\APPLIEDSPELLS.CPP
/c /Zi /nologo /W3 /WX- /diagnostics:classic /sdl- /Od /Oi /Oy- /GL /D WIN32 /D NDEBUG /D GRANDMASTERMAGIC_EXPORTS /D _WINDOWS /D _USRDLL /D _USING_V110_SDK71_ /D _WINDLL /D _UNICODE /D UNICODE /Gm- /EHsc /MT /GS /Gy /fp:precise /Zc:wchar_t /Zc:forScope /Zc:inline /std:c++latest /Fo"RELEASE\\" /Fd"RELEASE\VC141.PDB" /Gd /TP /analyze- /FC E:\DEV\__REPOSITORY__\_H3ERA_PLUGINS_\GRANDMASTER_MAGIC\GRANDMASTER_MAGIC\APPLIEDSPELLS.CPP
^E:\DEV\__REPOSITORY__\_H3ERA_PLUGINS_\GRANDMASTER_MAGIC\GRANDMASTER_MAGIC\CHAINLIGHTING.CPP
/c /Zi /nologo /W3 /WX- /diagnostics:classic /sdl- /Od /Oi /Oy- /GL /D WIN32 /D NDEBUG /D GRANDMASTERMAGIC_EXPORTS /D _WINDOWS /D _USRDLL /D _USING_V110_SDK71_ /D _WINDLL /D _UNICODE /D UNICODE /Gm- /EHsc /MT /GS /Gy /fp:precise /Zc:wchar_t /Zc:forScope /Zc:inline /std:c++latest /Fo"RELEASE\\" /Fd"RELEASE\VC141.PDB" /Gd /TP /analyze- /FC E:\DEV\__REPOSITORY__\_H3ERA_PLUGINS_\GRANDMASTER_MAGIC\GRANDMASTER_MAGIC\CHAINLIGHTING.CPP
^E:\DEV\__REPOSITORY__\_H3ERA_PLUGINS_\GRANDMASTER_MAGIC\GRANDMASTER_MAGIC\HEALING_SPELLS.CPP
/c /Zi /nologo /W3 /WX- /diagnostics:classic /sdl- /Od /Oi /Oy- /GL /D WIN32 /D NDEBUG /D GRANDMASTERMAGIC_EXPORTS /D _WINDOWS /D _USRDLL /D _USING_V110_SDK71_ /D _WINDLL /D _UNICODE /D UNICODE /Gm- /EHsc /MT /GS /Gy /fp:precise /Zc:wchar_t /Zc:forScope /Zc:inline /std:c++latest /Fo"RELEASE\\" /Fd"RELEASE\VC141.PDB" /Gd /TP /analyze- /FC E:\DEV\__REPOSITORY__\_H3ERA_PLUGINS_\GRANDMASTER_MAGIC\GRANDMASTER_MAGIC\HEALING_SPELLS.CPP
^E:\DEV\__REPOSITORY__\_H3ERA_PLUGINS_\GRANDMASTER_MAGIC\GRANDMASTER_MAGIC\MAGIC_SPECIALTIES.CPP
/c /Zi /nologo /W3 /WX- /diagnostics:classic /sdl- /Od /Oi /Oy- /GL /D WIN32 /D NDEBUG /D GRANDMASTERMAGIC_EXPORTS /D _WINDOWS /D _USRDLL /D _USING_V110_SDK71_ /D _WINDLL /D _UNICODE /D UNICODE /Gm- /EHsc /MT /GS /Gy /fp:precise /Zc:wchar_t /Zc:forScope /Zc:inline /std:c++latest /Fo"RELEASE\\" /Fd"RELEASE\VC141.PDB" /Gd /TP /analyze- /FC E:\DEV\__REPOSITORY__\_H3ERA_PLUGINS_\GRANDMASTER_MAGIC\GRANDMASTER_MAGIC\MAGIC_SPECIALTIES.CPP
^E:\DEV\__REPOSITORY__\_H3ERA_PLUGINS_\GRANDMASTER_MAGIC\GRANDMASTER_MAGIC\MASSDAMAGESPELLS.CPP
/c /Zi /nologo /W3 /WX- /diagnostics:classic /sdl- /Od /Oi /Oy- /GL /D WIN32 /D NDEBUG /D GRANDMASTERMAGIC_EXPORTS /D _WINDOWS /D _USRDLL /D _USING_V110_SDK71_ /D _WINDLL /D _UNICODE /D UNICODE /Gm- /EHsc /MT /GS /Gy /fp:precise /Zc:wchar_t /Zc:forScope /Zc:inline /std:c++latest /Fo"RELEASE\\" /Fd"RELEASE\VC141.PDB" /Gd /TP /analyze- /FC E:\DEV\__REPOSITORY__\_H3ERA_PLUGINS_\GRANDMASTER_MAGIC\GRANDMASTER_MAGIC\MASSDAMAGESPELLS.CPP
^E:\DEV\__REPOSITORY__\_H3ERA_PLUGINS_\GRANDMASTER_MAGIC\GRANDMASTER_MAGIC\QUICKSAND_LANDMINE.CPP
/c /Zi /nologo /W3 /WX- /diagnostics:classic /sdl- /Od /Oi /Oy- /GL /D WIN32 /D NDEBUG /D GRANDMASTERMAGIC_EXPORTS /D _WINDOWS /D _USRDLL /D _USING_V110_SDK71_ /D _WINDLL /D _UNICODE /D UNICODE /Gm- /EHsc /MT /GS /Gy /fp:precise /Zc:wchar_t /Zc:forScope /Zc:inline /std:c++latest /Fo"RELEASE\\" /Fd"RELEASE\VC141.PDB" /Gd /TP /analyze- /FC E:\DEV\__REPOSITORY__\_H3ERA_PLUGINS_\GRANDMASTER_MAGIC\GRANDMASTER_MAGIC\QUICKSAND_LANDMINE.CPP
^E:\DEV\__REPOSITORY__\_H3ERA_PLUGINS_\GRANDMASTER_MAGIC\GRANDMASTER_MAGIC\SPELL_DESCRIPTION.CPP
/c /Zi /nologo /W3 /WX- /diagnostics:classic /sdl- /Od /Oi /Oy- /GL /D WIN32 /D NDEBUG /D GRANDMASTERMAGIC_EXPORTS /D _WINDOWS /D _USRDLL /D _USING_V110_SDK71_ /D _WINDLL /D _UNICODE /D UNICODE /Gm- /EHsc /MT /GS /Gy /fp:precise /Zc:wchar_t /Zc:forScope /Zc:inline /std:c++latest /Fo"RELEASE\\" /Fd"RELEASE\VC141.PDB" /Gd /TP /analyze- /FC E:\DEV\__REPOSITORY__\_H3ERA_PLUGINS_\GRANDMASTER_MAGIC\GRANDMASTER_MAGIC\SPELL_DESCRIPTION.CPP
^E:\DEV\__REPOSITORY__\_H3ERA_PLUGINS_\GRANDMASTER_MAGIC\GRANDMASTER_MAGIC\SUMMONCLONE.CPP
/c /Zi /nologo /W3 /WX- /diagnostics:classic /sdl- /Od /Oi /Oy- /GL /D WIN32 /D NDEBUG /D GRANDMASTERMAGIC_EXPORTS /D _WINDOWS /D _USRDLL /D _USING_V110_SDK71_ /D _WINDLL /D _UNICODE /D UNICODE /Gm- /EHsc /MT /GS /Gy /fp:precise /Zc:wchar_t /Zc:forScope /Zc:inline /std:c++latest /Fo"RELEASE\\" /Fd"RELEASE\VC141.PDB" /Gd /TP /analyze- /FC E:\DEV\__REPOSITORY__\_H3ERA_PLUGINS_\GRANDMASTER_MAGIC\GRANDMASTER_MAGIC\SUMMONCLONE.CPP
^E:\DEV\__REPOSITORY__\_H3ERA_PLUGINS_\GRANDMASTER_MAGIC\GRANDMASTER_MAGIC\DLLMAIN.CPP
/c /Zi /nologo /W3 /WX- /diagnostics:classic /sdl- /Od /Oi /Oy- /GL /D WIN32 /D NDEBUG /D GRANDMASTERMAGIC_EXPORTS /D _WINDOWS /D _USRDLL /D _USING_V110_SDK71_ /D _WINDLL /D _UNICODE /D UNICODE /Gm- /EHsc /MT /GS /Gy /fp:precise /Zc:wchar_t /Zc:forScope /Zc:inline /std:c++latest /Fo"RELEASE\\" /Fd"RELEASE\VC141.PDB" /Gd /TP /analyze- /FC E:\DEV\__REPOSITORY__\_H3ERA_PLUGINS_\GRANDMASTER_MAGIC\GRANDMASTER_MAGIC\DLLMAIN.CPP
^E:\DEV\__REPOSITORY__\_H3ERA_PLUGINS_\GRANDMASTER_MAGIC\GRANDMASTER_MAGIC\_EXTENDED_SPELL_INFO_.CPP
/c /Zi /nologo /W3 /WX- /diagnostics:classic /sdl- /Od /Oi /Oy- /GL /D WIN32 /D NDEBUG /D GRANDMASTERMAGIC_EXPORTS /D _WINDOWS /D _USRDLL /D _USING_V110_SDK71_ /D _WINDLL /D _UNICODE /D UNICODE /Gm- /EHsc /MT /GS /Gy /fp:precise /Zc:wchar_t /Zc:forScope /Zc:inline /std:c++latest /Fo"RELEASE\\" /Fd"RELEASE\VC141.PDB" /Gd /TP /analyze- /FC E:\DEV\__REPOSITORY__\_H3ERA_PLUGINS_\GRANDMASTER_MAGIC\GRANDMASTER_MAGIC\_EXTENDED_SPELL_INFO_.CPP
^E:\DEV\__REPOSITORY__\_H3ERA_PLUGINS_\GRANDMASTER_MAGIC\GRANDMASTER_MAGIC\MORE_SPELLS.CPP
/c /Zi /nologo /W3 /WX- /diagnostics:classic /sdl- /Od /Oi /Oy- /GL /D WIN32 /D NDEBUG /D GRANDMASTERMAGIC_EXPORTS /D _WINDOWS /D _USRDLL /D _USING_V110_SDK71_ /D _WINDLL /D _UNICODE /D UNICODE /Gm- /EHsc /MT /GS /Gy /fp:precise /Zc:wchar_t /Zc:forScope /Zc:inline /std:c++latest /Fo"RELEASE\\" /Fd"RELEASE\VC141.PDB" /Gd /TP /analyze- /FC E:\DEV\__REPOSITORY__\_H3ERA_PLUGINS_\GRANDMASTER_MAGIC\GRANDMASTER_MAGIC\MORE_SPELLS.CPP
