^E:\DEV\__REPOSITORY__\_h3era_Plugins_\Grandmaster_Magic\Grandmaster_Magic\Grandmaster_Magic.vcxproj
E:\DEV\__REPOSITORY__\_h3era_Plugins_\Grandmaster_Magic\Grandmaster_Magic\Release\Grandmaster_Magic.lib
E:\DEV\__REPOSITORY__\_h3era_Plugins_\Grandmaster_Magic\Grandmaster_Magic\Release\Grandmaster_Magic.exp
E:\DEV\__REPOSITORY__\_h3era_Plugins_\Grandmaster_Magic\Grandmaster_Magic\Release\Grandmaster_Magic.ipdb
E:\DEV\__REPOSITORY__\_h3era_Plugins_\Grandmaster_Magic\Grandmaster_Magic\Release\Grandmaster_Magic.iobj
^E:\DEV\__REPOSITORY__\_h3era_Plugins_\Grandmaster_Magic\Grandmaster_Magic\Grandmaster_Magic.vcxproj
E:\DEV\__REPOSITORY__\_h3era_Plugins_\Grandmaster_Magic\Grandmaster_Magic\Release\Grandmaster_Magic.lib
E:\DEV\__REPOSITORY__\_h3era_Plugins_\Grandmaster_Magic\Grandmaster_Magic\Release\Grandmaster_Magic.exp
E:\DEV\__REPOSITORY__\_h3era_Plugins_\Grandmaster_Magic\Grandmaster_Magic\Release\Grandmaster_Magic.ipdb
E:\DEV\__REPOSITORY__\_h3era_Plugins_\Grandmaster_Magic\Grandmaster_Magic\Release\Grandmaster_Magic.iobj
^E:\DEV\__REPOSITORY__\_h3era_Plugins_\Grandmaster_Magic\Grandmaster_Magic\Grandmaster_Magic.vcxproj
E:\DEV\__REPOSITORY__\_h3era_Plugins_\Grandmaster_Magic\Grandmaster_Magic\Release\Grandmaster_Magic.lib
E:\DEV\__REPOSITORY__\_h3era_Plugins_\Grandmaster_Magic\Grandmaster_Magic\Release\Grandmaster_Magic.exp
E:\DEV\__REPOSITORY__\_h3era_Plugins_\Grandmaster_Magic\Grandmaster_Magic\Release\Grandmaster_Magic.ipdb
E:\DEV\__REPOSITORY__\_h3era_Plugins_\Grandmaster_Magic\Grandmaster_Magic\Release\Grandmaster_Magic.iobj
^E:\DEV\__REPOSITORY__\_h3era_Plugins_\Grandmaster_Magic\Grandmaster_Magic\Grandmaster_Magic.vcxproj
E:\DEV\__REPOSITORY__\_h3era_Plugins_\Grandmaster_Magic\Grandmaster_Magic\Release\Grandmaster_Magic.lib
E:\DEV\__REPOSITORY__\_h3era_Plugins_\Grandmaster_Magic\Grandmaster_Magic\Release\Grandmaster_Magic.exp
E:\DEV\__REPOSITORY__\_h3era_Plugins_\Grandmaster_Magic\Grandmaster_Magic\Release\Grandmaster_Magic.ipdb
E:\DEV\__REPOSITORY__\_h3era_Plugins_\Grandmaster_Magic\Grandmaster_Magic\Release\Grandmaster_Magic.iobj
^E:\DEV\__REPOSITORY__\_h3era_Plugins_\Grandmaster_Magic\Grandmaster_Magic\Grandmaster_Magic.vcxproj
E:\DEV\__REPOSITORY__\_h3era_Plugins_\Grandmaster_Magic\Grandmaster_Magic\Release\Grandmaster_Magic.lib
E:\DEV\__REPOSITORY__\_h3era_Plugins_\Grandmaster_Magic\Grandmaster_Magic\Release\Grandmaster_Magic.exp
E:\DEV\__REPOSITORY__\_h3era_Plugins_\Grandmaster_Magic\Grandmaster_Magic\Release\Grandmaster_Magic.ipdb
E:\DEV\__REPOSITORY__\_h3era_Plugins_\Grandmaster_Magic\Grandmaster_Magic\Release\Grandmaster_Magic.iobj
^E:\DEV\__REPOSITORY__\_h3era_Plugins_\Grandmaster_Magic\Grandmaster_Magic\Grandmaster_Magic.vcxproj
E:\DEV\__REPOSITORY__\_h3era_Plugins_\Grandmaster_Magic\Grandmaster_Magic\Release\Grandmaster_Magic.lib
E:\DEV\__REPOSITORY__\_h3era_Plugins_\Grandmaster_Magic\Grandmaster_Magic\Release\Grandmaster_Magic.exp
E:\DEV\__REPOSITORY__\_h3era_Plugins_\Grandmaster_Magic\Grandmaster_Magic\Release\Grandmaster_Magic.ipdb
E:\DEV\__REPOSITORY__\_h3era_Plugins_\Grandmaster_Magic\Grandmaster_Magic\Release\Grandmaster_Magic.iobj
^E:\DEV\__REPOSITORY__\_h3era_Plugins_\Grandmaster_Magic\Grandmaster_Magic\Grandmaster_Magic.vcxproj
E:\DEV\__REPOSITORY__\_h3era_Plugins_\Grandmaster_Magic\Grandmaster_Magic\Release\Grandmaster_Magic.lib
E:\DEV\__REPOSITORY__\_h3era_Plugins_\Grandmaster_Magic\Grandmaster_Magic\Release\Grandmaster_Magic.exp
E:\DEV\__REPOSITORY__\_h3era_Plugins_\Grandmaster_Magic\Grandmaster_Magic\Release\Grandmaster_Magic.ipdb
E:\DEV\__REPOSITORY__\_h3era_Plugins_\Grandmaster_Magic\Grandmaster_Magic\Release\Grandmaster_Magic.iobj
^E:\DEV\__REPOSITORY__\_h3era_Plugins_\Grandmaster_Magic\Grandmaster_Magic\Grandmaster_Magic.vcxproj
E:\DEV\__REPOSITORY__\_h3era_Plugins_\Grandmaster_Magic\Grandmaster_Magic\Release\Grandmaster_Magic.lib
E:\DEV\__REPOSITORY__\_h3era_Plugins_\Grandmaster_Magic\Grandmaster_Magic\Release\Grandmaster_Magic.exp
E:\DEV\__REPOSITORY__\_h3era_Plugins_\Grandmaster_Magic\Grandmaster_Magic\Release\Grandmaster_Magic.ipdb
E:\DEV\__REPOSITORY__\_h3era_Plugins_\Grandmaster_Magic\Grandmaster_Magic\Release\Grandmaster_Magic.iobj
^E:\DEV\__REPOSITORY__\_h3era_Plugins_\Grandmaster_Magic\Grandmaster_Magic\Grandmaster_Magic.vcxproj
E:\DEV\__REPOSITORY__\_h3era_Plugins_\Grandmaster_Magic\Grandmaster_Magic\Release\Grandmaster_Magic.lib
E:\DEV\__REPOSITORY__\_h3era_Plugins_\Grandmaster_Magic\Grandmaster_Magic\Release\Grandmaster_Magic.exp
E:\DEV\__REPOSITORY__\_h3era_Plugins_\Grandmaster_Magic\Grandmaster_Magic\Release\Grandmaster_Magic.ipdb
E:\DEV\__REPOSITORY__\_h3era_Plugins_\Grandmaster_Magic\Grandmaster_Magic\Release\Grandmaster_Magic.iobj
^E:\DEV\__REPOSITORY__\_h3era_Plugins_\Grandmaster_Magic\Grandmaster_Magic\Grandmaster_Magic.vcxproj
E:\DEV\__REPOSITORY__\_h3era_Plugins_\Grandmaster_Magic\Grandmaster_Magic\Release\Grandmaster_Magic.lib
E:\DEV\__REPOSITORY__\_h3era_Plugins_\Grandmaster_Magic\Grandmaster_Magic\Release\Grandmaster_Magic.exp
E:\DEV\__REPOSITORY__\_h3era_Plugins_\Grandmaster_Magic\Grandmaster_Magic\Release\Grandmaster_Magic.ipdb
E:\DEV\__REPOSITORY__\_h3era_Plugins_\Grandmaster_Magic\Grandmaster_Magic\Release\Grandmaster_Magic.iobj
^E:\DEV\__REPOSITORY__\_h3era_Plugins_\Grandmaster_Magic\Grandmaster_Magic\Grandmaster_Magic.vcxproj
E:\DEV\__REPOSITORY__\_h3era_Plugins_\Grandmaster_Magic\Grandmaster_Magic\Release\Grandmaster_Magic.lib
E:\DEV\__REPOSITORY__\_h3era_Plugins_\Grandmaster_Magic\Grandmaster_Magic\Release\Grandmaster_Magic.exp
E:\DEV\__REPOSITORY__\_h3era_Plugins_\Grandmaster_Magic\Grandmaster_Magic\Release\Grandmaster_Magic.ipdb
E:\DEV\__REPOSITORY__\_h3era_Plugins_\Grandmaster_Magic\Grandmaster_Magic\Release\Grandmaster_Magic.iobj
^E:\DEV\__REPOSITORY__\_h3era_Plugins_\Grandmaster_Magic\Grandmaster_Magic\Grandmaster_Magic.vcxproj
E:\DEV\__REPOSITORY__\_h3era_Plugins_\Grandmaster_Magic\Grandmaster_Magic\Release\Grandmaster_Magic.lib
E:\DEV\__REPOSITORY__\_h3era_Plugins_\Grandmaster_Magic\Grandmaster_Magic\Release\Grandmaster_Magic.exp
E:\DEV\__REPOSITORY__\_h3era_Plugins_\Grandmaster_Magic\Grandmaster_Magic\Release\Grandmaster_Magic.ipdb
E:\DEV\__REPOSITORY__\_h3era_Plugins_\Grandmaster_Magic\Grandmaster_Magic\Release\Grandmaster_Magic.iobj
^E:\DEV\__REPOSITORY__\_h3era_Plugins_\Grandmaster_Magic\Grandmaster_Magic\Grandmaster_Magic.vcxproj
E:\DEV\__REPOSITORY__\_h3era_Plugins_\Grandmaster_Magic\Grandmaster_Magic\Release\Grandmaster_Magic.lib
E:\DEV\__REPOSITORY__\_h3era_Plugins_\Grandmaster_Magic\Grandmaster_Magic\Release\Grandmaster_Magic.exp
E:\DEV\__REPOSITORY__\_h3era_Plugins_\Grandmaster_Magic\Grandmaster_Magic\Release\Grandmaster_Magic.ipdb
E:\DEV\__REPOSITORY__\_h3era_Plugins_\Grandmaster_Magic\Grandmaster_Magic\Release\Grandmaster_Magic.iobj
^E:\DEV\__REPOSITORY__\_h3era_Plugins_\Grandmaster_Magic\Grandmaster_Magic\Grandmaster_Magic.vcxproj
E:\DEV\__REPOSITORY__\_h3era_Plugins_\Grandmaster_Magic\Grandmaster_Magic\Release\Grandmaster_Magic.lib
E:\DEV\__REPOSITORY__\_h3era_Plugins_\Grandmaster_Magic\Grandmaster_Magic\Release\Grandmaster_Magic.exp
E:\DEV\__REPOSITORY__\_h3era_Plugins_\Grandmaster_Magic\Grandmaster_Magic\Release\Grandmaster_Magic.ipdb
E:\DEV\__REPOSITORY__\_h3era_Plugins_\Grandmaster_Magic\Grandmaster_Magic\Release\Grandmaster_Magic.iobj
^E:\DEV\__REPOSITORY__\_h3era_Plugins_\Grandmaster_Magic\Grandmaster_Magic\Grandmaster_Magic.vcxproj
E:\DEV\__REPOSITORY__\_h3era_Plugins_\Grandmaster_Magic\Grandmaster_Magic\Release\Grandmaster_Magic.lib
E:\DEV\__REPOSITORY__\_h3era_Plugins_\Grandmaster_Magic\Grandmaster_Magic\Release\Grandmaster_Magic.exp
E:\DEV\__REPOSITORY__\_h3era_Plugins_\Grandmaster_Magic\Grandmaster_Magic\Release\Grandmaster_Magic.ipdb
E:\DEV\__REPOSITORY__\_h3era_Plugins_\Grandmaster_Magic\Grandmaster_Magic\Release\Grandmaster_Magic.iobj
^E:\DEV\__REPOSITORY__\_h3era_Plugins_\Grandmaster_Magic\Grandmaster_Magic\Grandmaster_Magic.vcxproj
E:\DEV\__REPOSITORY__\_h3era_Plugins_\Grandmaster_Magic\Grandmaster_Magic\Release\Grandmaster_Magic.lib
E:\DEV\__REPOSITORY__\_h3era_Plugins_\Grandmaster_Magic\Grandmaster_Magic\Release\Grandmaster_Magic.exp
E:\DEV\__REPOSITORY__\_h3era_Plugins_\Grandmaster_Magic\Grandmaster_Magic\Release\Grandmaster_Magic.ipdb
E:\DEV\__REPOSITORY__\_h3era_Plugins_\Grandmaster_Magic\Grandmaster_Magic\Release\Grandmaster_Magic.iobj
^E:\DEV\__REPOSITORY__\_h3era_Plugins_\Grandmaster_Magic\Grandmaster_Magic\Grandmaster_Magic.vcxproj
E:\DEV\__REPOSITORY__\_h3era_Plugins_\Grandmaster_Magic\Grandmaster_Magic\Release\Grandmaster_Magic.lib
E:\DEV\__REPOSITORY__\_h3era_Plugins_\Grandmaster_Magic\Grandmaster_Magic\Release\Grandmaster_Magic.exp
E:\DEV\__REPOSITORY__\_h3era_Plugins_\Grandmaster_Magic\Grandmaster_Magic\Release\Grandmaster_Magic.ipdb
E:\DEV\__REPOSITORY__\_h3era_Plugins_\Grandmaster_Magic\Grandmaster_Magic\Release\Grandmaster_Magic.iobj
^E:\DEV\__REPOSITORY__\_h3era_Plugins_\Grandmaster_Magic\Grandmaster_Magic\Grandmaster_Magic.vcxproj
E:\DEV\__REPOSITORY__\_h3era_Plugins_\Grandmaster_Magic\Grandmaster_Magic\Release\Grandmaster_Magic.lib
E:\DEV\__REPOSITORY__\_h3era_Plugins_\Grandmaster_Magic\Grandmaster_Magic\Release\Grandmaster_Magic.exp
E:\DEV\__REPOSITORY__\_h3era_Plugins_\Grandmaster_Magic\Grandmaster_Magic\Release\Grandmaster_Magic.ipdb
E:\DEV\__REPOSITORY__\_h3era_Plugins_\Grandmaster_Magic\Grandmaster_Magic\Release\Grandmaster_Magic.iobj
^E:\DEV\__REPOSITORY__\_h3era_Plugins_\Grandmaster_Magic\Grandmaster_Magic\Grandmaster_Magic.vcxproj
E:\DEV\__REPOSITORY__\_h3era_Plugins_\Grandmaster_Magic\Grandmaster_Magic\Release\Grandmaster_Magic.lib
E:\DEV\__REPOSITORY__\_h3era_Plugins_\Grandmaster_Magic\Grandmaster_Magic\Release\Grandmaster_Magic.exp
E:\DEV\__REPOSITORY__\_h3era_Plugins_\Grandmaster_Magic\Grandmaster_Magic\Release\Grandmaster_Magic.ipdb
E:\DEV\__REPOSITORY__\_h3era_Plugins_\Grandmaster_Magic\Grandmaster_Magic\Release\Grandmaster_Magic.iobj
^E:\DEV\__REPOSITORY__\_h3era_Plugins_\Grandmaster_Magic\Grandmaster_Magic\Grandmaster_Magic.vcxproj
E:\DEV\__REPOSITORY__\_h3era_Plugins_\Grandmaster_Magic\Grandmaster_Magic\Release\Grandmaster_Magic.lib
E:\DEV\__REPOSITORY__\_h3era_Plugins_\Grandmaster_Magic\Grandmaster_Magic\Release\Grandmaster_Magic.exp
E:\DEV\__REPOSITORY__\_h3era_Plugins_\Grandmaster_Magic\Grandmaster_Magic\Release\Grandmaster_Magic.ipdb
E:\DEV\__REPOSITORY__\_h3era_Plugins_\Grandmaster_Magic\Grandmaster_Magic\Release\Grandmaster_Magic.iobj
^E:\DEV\__REPOSITORY__\_h3era_Plugins_\Grandmaster_Magic\Grandmaster_Magic\Grandmaster_Magic.vcxproj
E:\DEV\__REPOSITORY__\_h3era_Plugins_\Grandmaster_Magic\Grandmaster_Magic\Release\Grandmaster_Magic.lib
E:\DEV\__REPOSITORY__\_h3era_Plugins_\Grandmaster_Magic\Grandmaster_Magic\Release\Grandmaster_Magic.exp
E:\DEV\__REPOSITORY__\_h3era_Plugins_\Grandmaster_Magic\Grandmaster_Magic\Release\Grandmaster_Magic.ipdb
E:\DEV\__REPOSITORY__\_h3era_Plugins_\Grandmaster_Magic\Grandmaster_Magic\Release\Grandmaster_Magic.iobj
^E:\DEV\__REPOSITORY__\_h3era_Plugins_\Grandmaster_Magic\Grandmaster_Magic\Grandmaster_Magic.vcxproj
E:\DEV\__REPOSITORY__\_h3era_Plugins_\Grandmaster_Magic\Grandmaster_Magic\Release\Grandmaster_Magic.lib
E:\DEV\__REPOSITORY__\_h3era_Plugins_\Grandmaster_Magic\Grandmaster_Magic\Release\Grandmaster_Magic.exp
E:\DEV\__REPOSITORY__\_h3era_Plugins_\Grandmaster_Magic\Grandmaster_Magic\Release\Grandmaster_Magic.ipdb
E:\DEV\__REPOSITORY__\_h3era_Plugins_\Grandmaster_Magic\Grandmaster_Magic\Release\Grandmaster_Magic.iobj
^E:\DEV\__REPOSITORY__\_h3era_Plugins_\Grandmaster_Magic\Grandmaster_Magic\Grandmaster_Magic.vcxproj
E:\DEV\__REPOSITORY__\_h3era_Plugins_\Grandmaster_Magic\Grandmaster_Magic\Release\Grandmaster_Magic.lib
E:\DEV\__REPOSITORY__\_h3era_Plugins_\Grandmaster_Magic\Grandmaster_Magic\Release\Grandmaster_Magic.exp
E:\DEV\__REPOSITORY__\_h3era_Plugins_\Grandmaster_Magic\Grandmaster_Magic\Release\Grandmaster_Magic.ipdb
E:\DEV\__REPOSITORY__\_h3era_Plugins_\Grandmaster_Magic\Grandmaster_Magic\Release\Grandmaster_Magic.iobj
^E:\DEV\__REPOSITORY__\_h3era_Plugins_\Grandmaster_Magic\Grandmaster_Magic\Grandmaster_Magic.vcxproj
E:\DEV\__REPOSITORY__\_h3era_Plugins_\Grandmaster_Magic\Grandmaster_Magic\Release\Grandmaster_Magic.lib
E:\DEV\__REPOSITORY__\_h3era_Plugins_\Grandmaster_Magic\Grandmaster_Magic\Release\Grandmaster_Magic.exp
E:\DEV\__REPOSITORY__\_h3era_Plugins_\Grandmaster_Magic\Grandmaster_Magic\Release\Grandmaster_Magic.ipdb
E:\DEV\__REPOSITORY__\_h3era_Plugins_\Grandmaster_Magic\Grandmaster_Magic\Release\Grandmaster_Magic.iobj
^E:\DEV\__REPOSITORY__\_h3era_Plugins_\Grandmaster_Magic\Grandmaster_Magic\Grandmaster_Magic.vcxproj
E:\DEV\__REPOSITORY__\_h3era_Plugins_\Grandmaster_Magic\Grandmaster_Magic\Release\Grandmaster_Magic.lib
E:\DEV\__REPOSITORY__\_h3era_Plugins_\Grandmaster_Magic\Grandmaster_Magic\Release\Grandmaster_Magic.exp
E:\DEV\__REPOSITORY__\_h3era_Plugins_\Grandmaster_Magic\Grandmaster_Magic\Release\Grandmaster_Magic.ipdb
E:\DEV\__REPOSITORY__\_h3era_Plugins_\Grandmaster_Magic\Grandmaster_Magic\Release\Grandmaster_Magic.iobj
^E:\DEV\__REPOSITORY__\_h3era_Plugins_\Grandmaster_Magic\Grandmaster_Magic\Grandmaster_Magic.vcxproj
E:\DEV\__REPOSITORY__\_h3era_Plugins_\Grandmaster_Magic\Grandmaster_Magic\Release\Grandmaster_Magic.lib
E:\DEV\__REPOSITORY__\_h3era_Plugins_\Grandmaster_Magic\Grandmaster_Magic\Release\Grandmaster_Magic.exp
E:\DEV\__REPOSITORY__\_h3era_Plugins_\Grandmaster_Magic\Grandmaster_Magic\Release\Grandmaster_Magic.ipdb
E:\DEV\__REPOSITORY__\_h3era_Plugins_\Grandmaster_Magic\Grandmaster_Magic\Release\Grandmaster_Magic.iobj
^E:\DEV\__REPOSITORY__\_h3era_Plugins_\Grandmaster_Magic\Grandmaster_Magic\Grandmaster_Magic.vcxproj
E:\DEV\__REPOSITORY__\_h3era_Plugins_\Grandmaster_Magic\Grandmaster_Magic\Release\Grandmaster_Magic.lib
E:\DEV\__REPOSITORY__\_h3era_Plugins_\Grandmaster_Magic\Grandmaster_Magic\Release\Grandmaster_Magic.exp
E:\DEV\__REPOSITORY__\_h3era_Plugins_\Grandmaster_Magic\Grandmaster_Magic\Release\Grandmaster_Magic.ipdb
E:\DEV\__REPOSITORY__\_h3era_Plugins_\Grandmaster_Magic\Grandmaster_Magic\Release\Grandmaster_Magic.iobj
^E:\DEV\__REPOSITORY__\_h3era_Plugins_\Grandmaster_Magic\Grandmaster_Magic\Grandmaster_Magic.vcxproj
E:\DEV\__REPOSITORY__\_h3era_Plugins_\Grandmaster_Magic\Grandmaster_Magic\Release\Grandmaster_Magic.lib
E:\DEV\__REPOSITORY__\_h3era_Plugins_\Grandmaster_Magic\Grandmaster_Magic\Release\Grandmaster_Magic.exp
E:\DEV\__REPOSITORY__\_h3era_Plugins_\Grandmaster_Magic\Grandmaster_Magic\Release\Grandmaster_Magic.ipdb
E:\DEV\__REPOSITORY__\_h3era_Plugins_\Grandmaster_Magic\Grandmaster_Magic\Release\Grandmaster_Magic.iobj
^E:\DEV\__REPOSITORY__\_h3era_Plugins_\Grandmaster_Magic\Grandmaster_Magic\Grandmaster_Magic.vcxproj
E:\DEV\__REPOSITORY__\_h3era_Plugins_\Grandmaster_Magic\Grandmaster_Magic\Release\Grandmaster_Magic.lib
E:\DEV\__REPOSITORY__\_h3era_Plugins_\Grandmaster_Magic\Grandmaster_Magic\Release\Grandmaster_Magic.exp
E:\DEV\__REPOSITORY__\_h3era_Plugins_\Grandmaster_Magic\Grandmaster_Magic\Release\Grandmaster_Magic.ipdb
E:\DEV\__REPOSITORY__\_h3era_Plugins_\Grandmaster_Magic\Grandmaster_Magic\Release\Grandmaster_Magic.iobj
^E:\DEV\__REPOSITORY__\_h3era_Plugins_\Grandmaster_Magic\Grandmaster_Magic\Grandmaster_Magic.vcxproj
E:\DEV\__REPOSITORY__\_h3era_Plugins_\Grandmaster_Magic\Grandmaster_Magic\Release\Grandmaster_Magic.lib
E:\DEV\__REPOSITORY__\_h3era_Plugins_\Grandmaster_Magic\Grandmaster_Magic\Release\Grandmaster_Magic.exp
E:\DEV\__REPOSITORY__\_h3era_Plugins_\Grandmaster_Magic\Grandmaster_Magic\Release\Grandmaster_Magic.ipdb
E:\DEV\__REPOSITORY__\_h3era_Plugins_\Grandmaster_Magic\Grandmaster_Magic\Release\Grandmaster_Magic.iobj
^E:\DEV\__REPOSITORY__\_h3era_Plugins_\Grandmaster_Magic\Grandmaster_Magic\Grandmaster_Magic.vcxproj
E:\DEV\__REPOSITORY__\_h3era_Plugins_\Grandmaster_Magic\Grandmaster_Magic\Release\Grandmaster_Magic.lib
E:\DEV\__REPOSITORY__\_h3era_Plugins_\Grandmaster_Magic\Grandmaster_Magic\Release\Grandmaster_Magic.exp
E:\DEV\__REPOSITORY__\_h3era_Plugins_\Grandmaster_Magic\Grandmaster_Magic\Release\Grandmaster_Magic.ipdb
E:\DEV\__REPOSITORY__\_h3era_Plugins_\Grandmaster_Magic\Grandmaster_Magic\Release\Grandmaster_Magic.iobj
^E:\DEV\__REPOSITORY__\_h3era_Plugins_\Grandmaster_Magic\Grandmaster_Magic\Grandmaster_Magic.vcxproj
E:\DEV\__REPOSITORY__\_h3era_Plugins_\Grandmaster_Magic\Grandmaster_Magic\Release\Grandmaster_Magic.lib
E:\DEV\__REPOSITORY__\_h3era_Plugins_\Grandmaster_Magic\Grandmaster_Magic\Release\Grandmaster_Magic.exp
E:\DEV\__REPOSITORY__\_h3era_Plugins_\Grandmaster_Magic\Grandmaster_Magic\Release\Grandmaster_Magic.ipdb
E:\DEV\__REPOSITORY__\_h3era_Plugins_\Grandmaster_Magic\Grandmaster_Magic\Release\Grandmaster_Magic.iobj
^E:\DEV\__REPOSITORY__\_h3era_Plugins_\Grandmaster_Magic\Grandmaster_Magic\Grandmaster_Magic.vcxproj
E:\DEV\__REPOSITORY__\_h3era_Plugins_\Grandmaster_Magic\Grandmaster_Magic\Release\Grandmaster_Magic.lib
E:\DEV\__REPOSITORY__\_h3era_Plugins_\Grandmaster_Magic\Grandmaster_Magic\Release\Grandmaster_Magic.exp
E:\DEV\__REPOSITORY__\_h3era_Plugins_\Grandmaster_Magic\Grandmaster_Magic\Release\Grandmaster_Magic.ipdb
E:\DEV\__REPOSITORY__\_h3era_Plugins_\Grandmaster_Magic\Grandmaster_Magic\Release\Grandmaster_Magic.iobj
^E:\DEV\__REPOSITORY__\_h3era_Plugins_\Grandmaster_Magic\Grandmaster_Magic\Grandmaster_Magic.vcxproj
E:\DEV\__REPOSITORY__\_h3era_Plugins_\Grandmaster_Magic\Grandmaster_Magic\Release\Grandmaster_Magic.lib
E:\DEV\__REPOSITORY__\_h3era_Plugins_\Grandmaster_Magic\Grandmaster_Magic\Release\Grandmaster_Magic.exp
E:\DEV\__REPOSITORY__\_h3era_Plugins_\Grandmaster_Magic\Grandmaster_Magic\Release\Grandmaster_Magic.ipdb
E:\DEV\__REPOSITORY__\_h3era_Plugins_\Grandmaster_Magic\Grandmaster_Magic\Release\Grandmaster_Magic.iobj
^E:\DEV\__REPOSITORY__\_h3era_Plugins_\Grandmaster_Magic\Grandmaster_Magic\Grandmaster_Magic.vcxproj
E:\DEV\__REPOSITORY__\_h3era_Plugins_\Grandmaster_Magic\Grandmaster_Magic\Release\Grandmaster_Magic.lib
E:\DEV\__REPOSITORY__\_h3era_Plugins_\Grandmaster_Magic\Grandmaster_Magic\Release\Grandmaster_Magic.exp
E:\DEV\__REPOSITORY__\_h3era_Plugins_\Grandmaster_Magic\Grandmaster_Magic\Release\Grandmaster_Magic.ipdb
E:\DEV\__REPOSITORY__\_h3era_Plugins_\Grandmaster_Magic\Grandmaster_Magic\Release\Grandmaster_Magic.iobj
^E:\DEV\__REPOSITORY__\_h3era_Plugins_\Grandmaster_Magic\Grandmaster_Magic\Grandmaster_Magic.vcxproj
E:\DEV\__REPOSITORY__\_h3era_Plugins_\Grandmaster_Magic\Grandmaster_Magic\Release\Grandmaster_Magic.lib
E:\DEV\__REPOSITORY__\_h3era_Plugins_\Grandmaster_Magic\Grandmaster_Magic\Release\Grandmaster_Magic.exp
E:\DEV\__REPOSITORY__\_h3era_Plugins_\Grandmaster_Magic\Grandmaster_Magic\Release\Grandmaster_Magic.ipdb
E:\DEV\__REPOSITORY__\_h3era_Plugins_\Grandmaster_Magic\Grandmaster_Magic\Release\Grandmaster_Magic.iobj
^E:\DEV\__REPOSITORY__\_h3era_Plugins_\Grandmaster_Magic\Grandmaster_Magic\Grandmaster_Magic.vcxproj
E:\DEV\__REPOSITORY__\_h3era_Plugins_\Grandmaster_Magic\Grandmaster_Magic\Release\Grandmaster_Magic.lib
E:\DEV\__REPOSITORY__\_h3era_Plugins_\Grandmaster_Magic\Grandmaster_Magic\Release\Grandmaster_Magic.exp
E:\DEV\__REPOSITORY__\_h3era_Plugins_\Grandmaster_Magic\Grandmaster_Magic\Release\Grandmaster_Magic.ipdb
E:\DEV\__REPOSITORY__\_h3era_Plugins_\Grandmaster_Magic\Grandmaster_Magic\Release\Grandmaster_Magic.iobj
^E:\DEV\__REPOSITORY__\_h3era_Plugins_\Grandmaster_Magic\Grandmaster_Magic\Grandmaster_Magic.vcxproj
E:\DEV\__REPOSITORY__\_h3era_Plugins_\Grandmaster_Magic\Grandmaster_Magic\Release\Grandmaster_Magic.lib
E:\DEV\__REPOSITORY__\_h3era_Plugins_\Grandmaster_Magic\Grandmaster_Magic\Release\Grandmaster_Magic.exp
E:\DEV\__REPOSITORY__\_h3era_Plugins_\Grandmaster_Magic\Grandmaster_Magic\Release\Grandmaster_Magic.ipdb
E:\DEV\__REPOSITORY__\_h3era_Plugins_\Grandmaster_Magic\Grandmaster_Magic\Release\Grandmaster_Magic.iobj
^E:\DEV\__REPOSITORY__\_h3era_Plugins_\Grandmaster_Magic\Grandmaster_Magic\Grandmaster_Magic.vcxproj
E:\DEV\__REPOSITORY__\_h3era_Plugins_\Grandmaster_Magic\Grandmaster_Magic\Release\Grandmaster_Magic.lib
E:\DEV\__REPOSITORY__\_h3era_Plugins_\Grandmaster_Magic\Grandmaster_Magic\Release\Grandmaster_Magic.exp
E:\DEV\__REPOSITORY__\_h3era_Plugins_\Grandmaster_Magic\Grandmaster_Magic\Release\Grandmaster_Magic.ipdb
E:\DEV\__REPOSITORY__\_h3era_Plugins_\Grandmaster_Magic\Grandmaster_Magic\Release\Grandmaster_Magic.iobj
^E:\DEV\__REPOSITORY__\_h3era_Plugins_\Grandmaster_Magic\Grandmaster_Magic\Grandmaster_Magic.vcxproj
E:\DEV\__REPOSITORY__\_h3era_Plugins_\Grandmaster_Magic\Grandmaster_Magic\Release\Grandmaster_Magic.lib
E:\DEV\__REPOSITORY__\_h3era_Plugins_\Grandmaster_Magic\Grandmaster_Magic\Release\Grandmaster_Magic.exp
E:\DEV\__REPOSITORY__\_h3era_Plugins_\Grandmaster_Magic\Grandmaster_Magic\Release\Grandmaster_Magic.ipdb
E:\DEV\__REPOSITORY__\_h3era_Plugins_\Grandmaster_Magic\Grandmaster_Magic\Release\Grandmaster_Magic.iobj
^E:\DEV\__REPOSITORY__\_h3era_Plugins_\Grandmaster_Magic\Grandmaster_Magic\Grandmaster_Magic.vcxproj
E:\DEV\__REPOSITORY__\_h3era_Plugins_\Grandmaster_Magic\Grandmaster_Magic\Release\Grandmaster_Magic.lib
E:\DEV\__REPOSITORY__\_h3era_Plugins_\Grandmaster_Magic\Grandmaster_Magic\Release\Grandmaster_Magic.exp
E:\DEV\__REPOSITORY__\_h3era_Plugins_\Grandmaster_Magic\Grandmaster_Magic\Release\Grandmaster_Magic.ipdb
E:\DEV\__REPOSITORY__\_h3era_Plugins_\Grandmaster_Magic\Grandmaster_Magic\Release\Grandmaster_Magic.iobj
^E:\DEV\__REPOSITORY__\_h3era_Plugins_\Grandmaster_Magic\Grandmaster_Magic\Grandmaster_Magic.vcxproj
E:\DEV\__REPOSITORY__\_h3era_Plugins_\Grandmaster_Magic\Grandmaster_Magic\Release\Grandmaster_Magic.lib
E:\DEV\__REPOSITORY__\_h3era_Plugins_\Grandmaster_Magic\Grandmaster_Magic\Release\Grandmaster_Magic.exp
E:\DEV\__REPOSITORY__\_h3era_Plugins_\Grandmaster_Magic\Grandmaster_Magic\Release\Grandmaster_Magic.ipdb
E:\DEV\__REPOSITORY__\_h3era_Plugins_\Grandmaster_Magic\Grandmaster_Magic\Release\Grandmaster_Magic.iobj
^E:\DEV\__REPOSITORY__\_h3era_Plugins_\Grandmaster_Magic\Grandmaster_Magic\Grandmaster_Magic.vcxproj
E:\DEV\__REPOSITORY__\_h3era_Plugins_\Grandmaster_Magic\Grandmaster_Magic\Release\Grandmaster_Magic.lib
E:\DEV\__REPOSITORY__\_h3era_Plugins_\Grandmaster_Magic\Grandmaster_Magic\Release\Grandmaster_Magic.exp
E:\DEV\__REPOSITORY__\_h3era_Plugins_\Grandmaster_Magic\Grandmaster_Magic\Release\Grandmaster_Magic.ipdb
E:\DEV\__REPOSITORY__\_h3era_Plugins_\Grandmaster_Magic\Grandmaster_Magic\Release\Grandmaster_Magic.iobj
^E:\DEV\__REPOSITORY__\_h3era_Plugins_\Grandmaster_Magic\Grandmaster_Magic\Grandmaster_Magic.vcxproj
E:\DEV\__REPOSITORY__\_h3era_Plugins_\Grandmaster_Magic\Grandmaster_Magic\Release\Grandmaster_Magic.lib
E:\DEV\__REPOSITORY__\_h3era_Plugins_\Grandmaster_Magic\Grandmaster_Magic\Release\Grandmaster_Magic.exp
E:\DEV\__REPOSITORY__\_h3era_Plugins_\Grandmaster_Magic\Grandmaster_Magic\Release\Grandmaster_Magic.ipdb
E:\DEV\__REPOSITORY__\_h3era_Plugins_\Grandmaster_Magic\Grandmaster_Magic\Release\Grandmaster_Magic.iobj
^E:\DEV\__REPOSITORY__\_h3era_Plugins_\Grandmaster_Magic\Grandmaster_Magic\Grandmaster_Magic.vcxproj
E:\DEV\__REPOSITORY__\_h3era_Plugins_\Grandmaster_Magic\Grandmaster_Magic\Release\Grandmaster_Magic.lib
E:\DEV\__REPOSITORY__\_h3era_Plugins_\Grandmaster_Magic\Grandmaster_Magic\Release\Grandmaster_Magic.exp
E:\DEV\__REPOSITORY__\_h3era_Plugins_\Grandmaster_Magic\Grandmaster_Magic\Release\Grandmaster_Magic.ipdb
E:\DEV\__REPOSITORY__\_h3era_Plugins_\Grandmaster_Magic\Grandmaster_Magic\Release\Grandmaster_Magic.iobj
^E:\DEV\__REPOSITORY__\_h3era_Plugins_\Grandmaster_Magic\Grandmaster_Magic\Grandmaster_Magic.vcxproj
E:\DEV\__REPOSITORY__\_h3era_Plugins_\Grandmaster_Magic\Grandmaster_Magic\Release\Grandmaster_Magic.lib
E:\DEV\__REPOSITORY__\_h3era_Plugins_\Grandmaster_Magic\Grandmaster_Magic\Release\Grandmaster_Magic.exp
E:\DEV\__REPOSITORY__\_h3era_Plugins_\Grandmaster_Magic\Grandmaster_Magic\Release\Grandmaster_Magic.ipdb
E:\DEV\__REPOSITORY__\_h3era_Plugins_\Grandmaster_Magic\Grandmaster_Magic\Release\Grandmaster_Magic.iobj
^E:\DEV\__REPOSITORY__\_h3era_Plugins_\Grandmaster_Magic\Grandmaster_Magic\Grandmaster_Magic.vcxproj
E:\DEV\__REPOSITORY__\_h3era_Plugins_\Grandmaster_Magic\Grandmaster_Magic\Release\Grandmaster_Magic.lib
E:\DEV\__REPOSITORY__\_h3era_Plugins_\Grandmaster_Magic\Grandmaster_Magic\Release\Grandmaster_Magic.exp
E:\DEV\__REPOSITORY__\_h3era_Plugins_\Grandmaster_Magic\Grandmaster_Magic\Release\Grandmaster_Magic.ipdb
E:\DEV\__REPOSITORY__\_h3era_Plugins_\Grandmaster_Magic\Grandmaster_Magic\Release\Grandmaster_Magic.iobj
^E:\DEV\__REPOSITORY__\_h3era_Plugins_\Grandmaster_Magic\Grandmaster_Magic\Grandmaster_Magic.vcxproj
E:\DEV\__REPOSITORY__\_h3era_Plugins_\Grandmaster_Magic\Grandmaster_Magic\Release\Grandmaster_Magic.lib
E:\DEV\__REPOSITORY__\_h3era_Plugins_\Grandmaster_Magic\Grandmaster_Magic\Release\Grandmaster_Magic.exp
E:\DEV\__REPOSITORY__\_h3era_Plugins_\Grandmaster_Magic\Grandmaster_Magic\Release\Grandmaster_Magic.ipdb
E:\DEV\__REPOSITORY__\_h3era_Plugins_\Grandmaster_Magic\Grandmaster_Magic\Release\Grandmaster_Magic.iobj
^C:\DEV\h3era_plugins\_h3era_plugins_\Grandmaster_Magic\Grandmaster_Magic\Grandmaster_Magic.vcxproj
C:\DEV\h3era_plugins\_h3era_plugins_\Grandmaster_Magic\Grandmaster_Magic\Release\Grandmaster_Magic.lib
C:\DEV\h3era_plugins\_h3era_plugins_\Grandmaster_Magic\Grandmaster_Magic\Release\Grandmaster_Magic.exp
C:\DEV\h3era_plugins\_h3era_plugins_\Grandmaster_Magic\Grandmaster_Magic\Release\Grandmaster_Magic.ipdb
C:\DEV\h3era_plugins\_h3era_plugins_\Grandmaster_Magic\Grandmaster_Magic\Release\Grandmaster_Magic.iobj
^C:\DEV\h3era_plugins\_h3era_plugins_\Grandmaster_Magic\Grandmaster_Magic\Grandmaster_Magic.vcxproj
C:\DEV\h3era_plugins\_h3era_plugins_\Grandmaster_Magic\Grandmaster_Magic\Release\Grandmaster_Magic.lib
C:\DEV\h3era_plugins\_h3era_plugins_\Grandmaster_Magic\Grandmaster_Magic\Release\Grandmaster_Magic.exp
C:\DEV\h3era_plugins\_h3era_plugins_\Grandmaster_Magic\Grandmaster_Magic\Release\Grandmaster_Magic.ipdb
C:\DEV\h3era_plugins\_h3era_plugins_\Grandmaster_Magic\Grandmaster_Magic\Release\Grandmaster_Magic.iobj
^E:\DEV\__REPOSITORY__\_h3era_Plugins_\Grandmaster_Magic\Grandmaster_Magic\Grandmaster_Magic.vcxproj
E:\DEV\__REPOSITORY__\_h3era_Plugins_\Grandmaster_Magic\Grandmaster_Magic\Release\Grandmaster_Magic.lib
E:\DEV\__REPOSITORY__\_h3era_Plugins_\Grandmaster_Magic\Grandmaster_Magic\Release\Grandmaster_Magic.exp
E:\DEV\__REPOSITORY__\_h3era_Plugins_\Grandmaster_Magic\Grandmaster_Magic\Release\Grandmaster_Magic.ipdb
E:\DEV\__REPOSITORY__\_h3era_Plugins_\Grandmaster_Magic\Grandmaster_Magic\Release\Grandmaster_Magic.iobj
^E:\DEV\__REPOSITORY__\_h3era_Plugins_\Grandmaster_Magic\Grandmaster_Magic\Grandmaster_Magic.vcxproj
E:\DEV\__REPOSITORY__\_h3era_Plugins_\Grandmaster_Magic\Grandmaster_Magic\Release\Grandmaster_Magic.lib
E:\DEV\__REPOSITORY__\_h3era_Plugins_\Grandmaster_Magic\Grandmaster_Magic\Release\Grandmaster_Magic.exp
E:\DEV\__REPOSITORY__\_h3era_Plugins_\Grandmaster_Magic\Grandmaster_Magic\Release\Grandmaster_Magic.ipdb
E:\DEV\__REPOSITORY__\_h3era_Plugins_\Grandmaster_Magic\Grandmaster_Magic\Release\Grandmaster_Magic.iobj
^E:\DEV\__REPOSITORY__\_h3era_Plugins_\Grandmaster_Magic\Grandmaster_Magic\Grandmaster_Magic.vcxproj
E:\DEV\__REPOSITORY__\_h3era_Plugins_\Grandmaster_Magic\Grandmaster_Magic\Release\Grandmaster_Magic.lib
E:\DEV\__REPOSITORY__\_h3era_Plugins_\Grandmaster_Magic\Grandmaster_Magic\Release\Grandmaster_Magic.exp
E:\DEV\__REPOSITORY__\_h3era_Plugins_\Grandmaster_Magic\Grandmaster_Magic\Release\Grandmaster_Magic.ipdb
E:\DEV\__REPOSITORY__\_h3era_Plugins_\Grandmaster_Magic\Grandmaster_Magic\Release\Grandmaster_Magic.iobj
^E:\DEV\__REPOSITORY__\_h3era_Plugins_\Grandmaster_Magic\Grandmaster_Magic\Grandmaster_Magic.vcxproj
E:\DEV\__REPOSITORY__\_h3era_Plugins_\Grandmaster_Magic\Grandmaster_Magic\Release\Grandmaster_Magic.lib
E:\DEV\__REPOSITORY__\_h3era_Plugins_\Grandmaster_Magic\Grandmaster_Magic\Release\Grandmaster_Magic.exp
E:\DEV\__REPOSITORY__\_h3era_Plugins_\Grandmaster_Magic\Grandmaster_Magic\Release\Grandmaster_Magic.ipdb
E:\DEV\__REPOSITORY__\_h3era_Plugins_\Grandmaster_Magic\Grandmaster_Magic\Release\Grandmaster_Magic.iobj
^E:\DEV\__REPOSITORY__\_h3era_Plugins_\Grandmaster_Magic\Grandmaster_Magic\Grandmaster_Magic.vcxproj
E:\DEV\__REPOSITORY__\_h3era_Plugins_\Grandmaster_Magic\Grandmaster_Magic\Release\Grandmaster_Magic.lib
E:\DEV\__REPOSITORY__\_h3era_Plugins_\Grandmaster_Magic\Grandmaster_Magic\Release\Grandmaster_Magic.exp
E:\DEV\__REPOSITORY__\_h3era_Plugins_\Grandmaster_Magic\Grandmaster_Magic\Release\Grandmaster_Magic.ipdb
E:\DEV\__REPOSITORY__\_h3era_Plugins_\Grandmaster_Magic\Grandmaster_Magic\Release\Grandmaster_Magic.iobj
^E:\DEV\__REPOSITORY__\_h3era_Plugins_\Grandmaster_Magic\Grandmaster_Magic\Grandmaster_Magic.vcxproj
E:\DEV\__REPOSITORY__\_h3era_Plugins_\Grandmaster_Magic\Grandmaster_Magic\Release\Grandmaster_Magic.lib
E:\DEV\__REPOSITORY__\_h3era_Plugins_\Grandmaster_Magic\Grandmaster_Magic\Release\Grandmaster_Magic.exp
E:\DEV\__REPOSITORY__\_h3era_Plugins_\Grandmaster_Magic\Grandmaster_Magic\Release\Grandmaster_Magic.ipdb
E:\DEV\__REPOSITORY__\_h3era_Plugins_\Grandmaster_Magic\Grandmaster_Magic\Release\Grandmaster_Magic.iobj
^E:\DEV\__REPOSITORY__\_h3era_Plugins_\Grandmaster_Magic\Grandmaster_Magic\Grandmaster_Magic.vcxproj
E:\DEV\__REPOSITORY__\_h3era_Plugins_\Grandmaster_Magic\Grandmaster_Magic\Release\Grandmaster_Magic.lib
E:\DEV\__REPOSITORY__\_h3era_Plugins_\Grandmaster_Magic\Grandmaster_Magic\Release\Grandmaster_Magic.exp
E:\DEV\__REPOSITORY__\_h3era_Plugins_\Grandmaster_Magic\Grandmaster_Magic\Release\Grandmaster_Magic.ipdb
E:\DEV\__REPOSITORY__\_h3era_Plugins_\Grandmaster_Magic\Grandmaster_Magic\Release\Grandmaster_Magic.iobj
^E:\DEV\__REPOSITORY__\_h3era_Plugins_\Grandmaster_Magic\Grandmaster_Magic\Grandmaster_Magic.vcxproj
E:\DEV\__REPOSITORY__\_h3era_Plugins_\Grandmaster_Magic\Grandmaster_Magic\Release\Grandmaster_Magic.lib
E:\DEV\__REPOSITORY__\_h3era_Plugins_\Grandmaster_Magic\Grandmaster_Magic\Release\Grandmaster_Magic.exp
E:\DEV\__REPOSITORY__\_h3era_Plugins_\Grandmaster_Magic\Grandmaster_Magic\Release\Grandmaster_Magic.ipdb
E:\DEV\__REPOSITORY__\_h3era_Plugins_\Grandmaster_Magic\Grandmaster_Magic\Release\Grandmaster_Magic.iobj
^E:\DEV\__REPOSITORY__\_h3era_Plugins_\Grandmaster_Magic\Grandmaster_Magic\Grandmaster_Magic.vcxproj
E:\DEV\__REPOSITORY__\_h3era_Plugins_\Grandmaster_Magic\Grandmaster_Magic\Release\Grandmaster_Magic.lib
E:\DEV\__REPOSITORY__\_h3era_Plugins_\Grandmaster_Magic\Grandmaster_Magic\Release\Grandmaster_Magic.exp
E:\DEV\__REPOSITORY__\_h3era_Plugins_\Grandmaster_Magic\Grandmaster_Magic\Release\Grandmaster_Magic.ipdb
E:\DEV\__REPOSITORY__\_h3era_Plugins_\Grandmaster_Magic\Grandmaster_Magic\Release\Grandmaster_Magic.iobj
^E:\DEV\__REPOSITORY__\_h3era_Plugins_\Grandmaster_Magic\Grandmaster_Magic\Grandmaster_Magic.vcxproj
E:\DEV\__REPOSITORY__\_h3era_Plugins_\Grandmaster_Magic\Grandmaster_Magic\Release\Grandmaster_Magic.lib
E:\DEV\__REPOSITORY__\_h3era_Plugins_\Grandmaster_Magic\Grandmaster_Magic\Release\Grandmaster_Magic.exp
E:\DEV\__REPOSITORY__\_h3era_Plugins_\Grandmaster_Magic\Grandmaster_Magic\Release\Grandmaster_Magic.ipdb
E:\DEV\__REPOSITORY__\_h3era_Plugins_\Grandmaster_Magic\Grandmaster_Magic\Release\Grandmaster_Magic.iobj
^E:\DEV\__REPOSITORY__\_h3era_Plugins_\Grandmaster_Magic\Grandmaster_Magic\Grandmaster_Magic.vcxproj
E:\DEV\__REPOSITORY__\_h3era_Plugins_\Grandmaster_Magic\Grandmaster_Magic\Release\Grandmaster_Magic.lib
E:\DEV\__REPOSITORY__\_h3era_Plugins_\Grandmaster_Magic\Grandmaster_Magic\Release\Grandmaster_Magic.exp
E:\DEV\__REPOSITORY__\_h3era_Plugins_\Grandmaster_Magic\Grandmaster_Magic\Release\Grandmaster_Magic.ipdb
E:\DEV\__REPOSITORY__\_h3era_Plugins_\Grandmaster_Magic\Grandmaster_Magic\Release\Grandmaster_Magic.iobj
^E:\DEV\__REPOSITORY__\_h3era_Plugins_\Grandmaster_Magic\Grandmaster_Magic\Grandmaster_Magic.vcxproj
E:\DEV\__REPOSITORY__\_h3era_Plugins_\Grandmaster_Magic\Grandmaster_Magic\Release\Grandmaster_Magic.lib
E:\DEV\__REPOSITORY__\_h3era_Plugins_\Grandmaster_Magic\Grandmaster_Magic\Release\Grandmaster_Magic.exp
E:\DEV\__REPOSITORY__\_h3era_Plugins_\Grandmaster_Magic\Grandmaster_Magic\Release\Grandmaster_Magic.ipdb
E:\DEV\__REPOSITORY__\_h3era_Plugins_\Grandmaster_Magic\Grandmaster_Magic\Release\Grandmaster_Magic.iobj
^E:\DEV\__REPOSITORY__\_h3era_Plugins_\Grandmaster_Magic\Grandmaster_Magic\Grandmaster_Magic.vcxproj
E:\DEV\__REPOSITORY__\_h3era_Plugins_\Grandmaster_Magic\Grandmaster_Magic\Release\Grandmaster_Magic.lib
E:\DEV\__REPOSITORY__\_h3era_Plugins_\Grandmaster_Magic\Grandmaster_Magic\Release\Grandmaster_Magic.exp
E:\DEV\__REPOSITORY__\_h3era_Plugins_\Grandmaster_Magic\Grandmaster_Magic\Release\Grandmaster_Magic.ipdb
E:\DEV\__REPOSITORY__\_h3era_Plugins_\Grandmaster_Magic\Grandmaster_Magic\Release\Grandmaster_Magic.iobj
^E:\DEV\__REPOSITORY__\_h3era_Plugins_\Grandmaster_Magic\Grandmaster_Magic\Grandmaster_Magic.vcxproj
E:\DEV\__REPOSITORY__\_h3era_Plugins_\Grandmaster_Magic\Grandmaster_Magic\Release\Grandmaster_Magic.lib
E:\DEV\__REPOSITORY__\_h3era_Plugins_\Grandmaster_Magic\Grandmaster_Magic\Release\Grandmaster_Magic.exp
E:\DEV\__REPOSITORY__\_h3era_Plugins_\Grandmaster_Magic\Grandmaster_Magic\Release\Grandmaster_Magic.ipdb
E:\DEV\__REPOSITORY__\_h3era_Plugins_\Grandmaster_Magic\Grandmaster_Magic\Release\Grandmaster_Magic.iobj
^E:\DEV\__REPOSITORY__\_h3era_Plugins_\Grandmaster_Magic\Grandmaster_Magic\Grandmaster_Magic.vcxproj
E:\DEV\__REPOSITORY__\_h3era_Plugins_\Grandmaster_Magic\Grandmaster_Magic\Release\Grandmaster_Magic.lib
E:\DEV\__REPOSITORY__\_h3era_Plugins_\Grandmaster_Magic\Grandmaster_Magic\Release\Grandmaster_Magic.exp
E:\DEV\__REPOSITORY__\_h3era_Plugins_\Grandmaster_Magic\Grandmaster_Magic\Release\Grandmaster_Magic.ipdb
E:\DEV\__REPOSITORY__\_h3era_Plugins_\Grandmaster_Magic\Grandmaster_Magic\Release\Grandmaster_Magic.iobj
^E:\DEV\__REPOSITORY__\_h3era_Plugins_\Grandmaster_Magic\Grandmaster_Magic\Grandmaster_Magic.vcxproj
E:\DEV\__REPOSITORY__\_h3era_Plugins_\Grandmaster_Magic\Grandmaster_Magic\Release\Grandmaster_Magic.lib
E:\DEV\__REPOSITORY__\_h3era_Plugins_\Grandmaster_Magic\Grandmaster_Magic\Release\Grandmaster_Magic.exp
E:\DEV\__REPOSITORY__\_h3era_Plugins_\Grandmaster_Magic\Grandmaster_Magic\Release\Grandmaster_Magic.ipdb
E:\DEV\__REPOSITORY__\_h3era_Plugins_\Grandmaster_Magic\Grandmaster_Magic\Release\Grandmaster_Magic.iobj
^E:\DEV\__REPOSITORY__\_h3era_Plugins_\Grandmaster_Magic\Grandmaster_Magic\Grandmaster_Magic.vcxproj
E:\DEV\__REPOSITORY__\_h3era_Plugins_\Grandmaster_Magic\Grandmaster_Magic\Release\Grandmaster_Magic.lib
E:\DEV\__REPOSITORY__\_h3era_Plugins_\Grandmaster_Magic\Grandmaster_Magic\Release\Grandmaster_Magic.exp
E:\DEV\__REPOSITORY__\_h3era_Plugins_\Grandmaster_Magic\Grandmaster_Magic\Release\Grandmaster_Magic.ipdb
E:\DEV\__REPOSITORY__\_h3era_Plugins_\Grandmaster_Magic\Grandmaster_Magic\Release\Grandmaster_Magic.iobj
^E:\DEV\__REPOSITORY__\_h3era_Plugins_\Grandmaster_Magic\Grandmaster_Magic\Grandmaster_Magic.vcxproj
E:\DEV\__REPOSITORY__\_h3era_Plugins_\Grandmaster_Magic\Grandmaster_Magic\Release\Grandmaster_Magic.lib
E:\DEV\__REPOSITORY__\_h3era_Plugins_\Grandmaster_Magic\Grandmaster_Magic\Release\Grandmaster_Magic.exp
E:\DEV\__REPOSITORY__\_h3era_Plugins_\Grandmaster_Magic\Grandmaster_Magic\Release\Grandmaster_Magic.ipdb
E:\DEV\__REPOSITORY__\_h3era_Plugins_\Grandmaster_Magic\Grandmaster_Magic\Release\Grandmaster_Magic.iobj
^E:\DEV\__REPOSITORY__\_h3era_Plugins_\Grandmaster_Magic\Grandmaster_Magic\Grandmaster_Magic.vcxproj
E:\DEV\__REPOSITORY__\_h3era_Plugins_\Grandmaster_Magic\Grandmaster_Magic\Release\Grandmaster_Magic.lib
E:\DEV\__REPOSITORY__\_h3era_Plugins_\Grandmaster_Magic\Grandmaster_Magic\Release\Grandmaster_Magic.exp
E:\DEV\__REPOSITORY__\_h3era_Plugins_\Grandmaster_Magic\Grandmaster_Magic\Release\Grandmaster_Magic.ipdb
E:\DEV\__REPOSITORY__\_h3era_Plugins_\Grandmaster_Magic\Grandmaster_Magic\Release\Grandmaster_Magic.iobj
^E:\DEV\__REPOSITORY__\_h3era_Plugins_\Grandmaster_Magic\Grandmaster_Magic\Grandmaster_Magic.vcxproj
E:\DEV\__REPOSITORY__\_h3era_Plugins_\Grandmaster_Magic\Grandmaster_Magic\Release\Grandmaster_Magic.lib
E:\DEV\__REPOSITORY__\_h3era_Plugins_\Grandmaster_Magic\Grandmaster_Magic\Release\Grandmaster_Magic.exp
E:\DEV\__REPOSITORY__\_h3era_Plugins_\Grandmaster_Magic\Grandmaster_Magic\Release\Grandmaster_Magic.ipdb
E:\DEV\__REPOSITORY__\_h3era_Plugins_\Grandmaster_Magic\Grandmaster_Magic\Release\Grandmaster_Magic.iobj
^E:\DEV\__REPOSITORY__\_h3era_plugins_\Grandmaster_Magic\Grandmaster_Magic\Grandmaster_Magic.vcxproj
E:\DEV\__REPOSITORY__\_h3era_plugins_\Grandmaster_Magic\Grandmaster_Magic\Release\Grandmaster_Magic.lib
E:\DEV\__REPOSITORY__\_h3era_plugins_\Grandmaster_Magic\Grandmaster_Magic\Release\Grandmaster_Magic.exp
E:\DEV\__REPOSITORY__\_h3era_plugins_\Grandmaster_Magic\Grandmaster_Magic\Release\Grandmaster_Magic.ipdb
E:\DEV\__REPOSITORY__\_h3era_plugins_\Grandmaster_Magic\Grandmaster_Magic\Release\Grandmaster_Magic.iobj
^E:\DEV\__REPOSITORY__\_h3era_plugins_\Grandmaster_Magic\Grandmaster_Magic\Grandmaster_Magic.vcxproj
E:\DEV\__REPOSITORY__\_h3era_plugins_\Grandmaster_Magic\Grandmaster_Magic\Release\Grandmaster_Magic.lib
E:\DEV\__REPOSITORY__\_h3era_plugins_\Grandmaster_Magic\Grandmaster_Magic\Release\Grandmaster_Magic.exp
E:\DEV\__REPOSITORY__\_h3era_plugins_\Grandmaster_Magic\Grandmaster_Magic\Release\Grandmaster_Magic.ipdb
E:\DEV\__REPOSITORY__\_h3era_plugins_\Grandmaster_Magic\Grandmaster_Magic\Release\Grandmaster_Magic.iobj
^E:\DEV\__REPOSITORY__\_h3era_plugins_\Grandmaster_Magic\Grandmaster_Magic\Grandmaster_Magic.vcxproj
E:\DEV\__REPOSITORY__\_h3era_plugins_\Grandmaster_Magic\Grandmaster_Magic\Release\Grandmaster_Magic.lib
E:\DEV\__REPOSITORY__\_h3era_plugins_\Grandmaster_Magic\Grandmaster_Magic\Release\Grandmaster_Magic.exp
E:\DEV\__REPOSITORY__\_h3era_plugins_\Grandmaster_Magic\Grandmaster_Magic\Release\Grandmaster_Magic.ipdb
E:\DEV\__REPOSITORY__\_h3era_plugins_\Grandmaster_Magic\Grandmaster_Magic\Release\Grandmaster_Magic.iobj
^E:\DEV\__REPOSITORY__\_h3era_plugins_\Grandmaster_Magic\Grandmaster_Magic\Grandmaster_Magic.vcxproj
E:\DEV\__REPOSITORY__\_h3era_plugins_\Grandmaster_Magic\Grandmaster_Magic\Release\Grandmaster_Magic.lib
E:\DEV\__REPOSITORY__\_h3era_plugins_\Grandmaster_Magic\Grandmaster_Magic\Release\Grandmaster_Magic.exp
E:\DEV\__REPOSITORY__\_h3era_plugins_\Grandmaster_Magic\Grandmaster_Magic\Release\Grandmaster_Magic.ipdb
E:\DEV\__REPOSITORY__\_h3era_plugins_\Grandmaster_Magic\Grandmaster_Magic\Release\Grandmaster_Magic.iobj
^E:\DEV\__REPOSITORY__\_h3era_plugins_\Grandmaster_Magic\Grandmaster_Magic\Grandmaster_Magic.vcxproj
E:\DEV\__REPOSITORY__\_h3era_plugins_\Grandmaster_Magic\Grandmaster_Magic\Release\Grandmaster_Magic.lib
E:\DEV\__REPOSITORY__\_h3era_plugins_\Grandmaster_Magic\Grandmaster_Magic\Release\Grandmaster_Magic.exp
E:\DEV\__REPOSITORY__\_h3era_plugins_\Grandmaster_Magic\Grandmaster_Magic\Release\Grandmaster_Magic.ipdb
E:\DEV\__REPOSITORY__\_h3era_plugins_\Grandmaster_Magic\Grandmaster_Magic\Release\Grandmaster_Magic.iobj
^E:\DEV\__REPOSITORY__\_h3era_plugins_\Grandmaster_Magic\Grandmaster_Magic\Grandmaster_Magic.vcxproj
E:\DEV\__REPOSITORY__\_h3era_plugins_\Grandmaster_Magic\Grandmaster_Magic\Release\Grandmaster_Magic.lib
E:\DEV\__REPOSITORY__\_h3era_plugins_\Grandmaster_Magic\Grandmaster_Magic\Release\Grandmaster_Magic.exp
E:\DEV\__REPOSITORY__\_h3era_plugins_\Grandmaster_Magic\Grandmaster_Magic\Release\Grandmaster_Magic.ipdb
E:\DEV\__REPOSITORY__\_h3era_plugins_\Grandmaster_Magic\Grandmaster_Magic\Release\Grandmaster_Magic.iobj
^E:\DEV\__REPOSITORY__\_h3era_plugins_\Grandmaster_Magic\Grandmaster_Magic\Grandmaster_Magic.vcxproj
E:\DEV\__REPOSITORY__\_h3era_plugins_\Grandmaster_Magic\Grandmaster_Magic\Release\Grandmaster_Magic.lib
E:\DEV\__REPOSITORY__\_h3era_plugins_\Grandmaster_Magic\Grandmaster_Magic\Release\Grandmaster_Magic.exp
E:\DEV\__REPOSITORY__\_h3era_plugins_\Grandmaster_Magic\Grandmaster_Magic\Release\Grandmaster_Magic.ipdb
E:\DEV\__REPOSITORY__\_h3era_plugins_\Grandmaster_Magic\Grandmaster_Magic\Release\Grandmaster_Magic.iobj
^E:\DEV\__REPOSITORY__\_h3era_plugins_\Grandmaster_Magic\Grandmaster_Magic\Grandmaster_Magic.vcxproj
E:\DEV\__REPOSITORY__\_h3era_plugins_\Grandmaster_Magic\Grandmaster_Magic\Release\Grandmaster_Magic.lib
E:\DEV\__REPOSITORY__\_h3era_plugins_\Grandmaster_Magic\Grandmaster_Magic\Release\Grandmaster_Magic.exp
E:\DEV\__REPOSITORY__\_h3era_plugins_\Grandmaster_Magic\Grandmaster_Magic\Release\Grandmaster_Magic.ipdb
E:\DEV\__REPOSITORY__\_h3era_plugins_\Grandmaster_Magic\Grandmaster_Magic\Release\Grandmaster_Magic.iobj
^E:\DEV\__REPOSITORY__\_h3era_plugins_\Grandmaster_Magic\Grandmaster_Magic\Grandmaster_Magic.vcxproj
E:\DEV\__REPOSITORY__\_h3era_plugins_\Grandmaster_Magic\Grandmaster_Magic\Release\Grandmaster_Magic.lib
E:\DEV\__REPOSITORY__\_h3era_plugins_\Grandmaster_Magic\Grandmaster_Magic\Release\Grandmaster_Magic.exp
E:\DEV\__REPOSITORY__\_h3era_plugins_\Grandmaster_Magic\Grandmaster_Magic\Release\Grandmaster_Magic.ipdb
E:\DEV\__REPOSITORY__\_h3era_plugins_\Grandmaster_Magic\Grandmaster_Magic\Release\Grandmaster_Magic.iobj
