^E:\DEV\__REPOSITORY__\_H3ERA_PLUGINS_\GRANDMASTER_MAGIC\GRANDMASTER_MAGIC\RELEASE\ADVENTURE_SPELLS.OBJ|E:\DEV\__REPOSITORY__\_H3ERA_PLUGINS_\GRANDMASTER_MAGIC\GRANDMASTER_MAGIC\RELEASE\APPLIEDSPELLS.OBJ|E:\DEV\__REPOSITORY__\_H3ERA_PLUGINS_\GRANDMASTER_MAGIC\GRANDMASTER_MAGIC\RELEASE\CHAINLIGHTING.OBJ|E:\DEV\__REPOSITORY__\_H3ERA_PLUGINS_\GRANDMASTER_MAGIC\GRANDMASTER_MAGIC\RELEASE\DLLMAIN.OBJ|E:\DEV\__REPOSITORY__\_H3ERA_PLUGINS_\GRANDMASTER_MAGIC\GRANDMASTER_MAGIC\RELEASE\GM_MAGIC_FIXES.OBJ|E:\DEV\__REPOSITORY__\_H3ERA_PLUGINS_\GRANDMASTER_MAGIC\GRANDMASTER_MAGIC\RELEASE\HEALING_SPELLS.OBJ|E:\DEV\__REPOSITORY__\_H3ERA_PLUGINS_\GRANDMASTER_MAGIC\GRANDMASTER_MAGIC\RELEASE\HEROES.OBJ|E:\DEV\__REPOSITORY__\_H3ERA_PLUGINS_\GRANDMASTER_MAGIC\GRANDMASTER_MAGIC\RELEASE\MAGIC_SPECIALTIES.OBJ|E:\DEV\__REPOSITORY__\_H3ERA_PLUGINS_\GRANDMASTER_MAGIC\GRANDMASTER_MAGIC\RELEASE\MASSDAMAGESPELLS.OBJ|E:\DEV\__REPOSITORY__\_H3ERA_PLUGINS_\GRANDMASTER_MAGIC\GRANDMASTER_MAGIC\RELEASE\MORE_SPELLS.OBJ|E:\DEV\__REPOSITORY__\_H3ERA_PLUGINS_\GRANDMASTER_MAGIC\GRANDMASTER_MAGIC\RELEASE\QUICKSAND_LANDMINE.OBJ|E:\DEV\__REPOSITORY__\_H3ERA_PLUGINS_\GRANDMASTER_MAGIC\GRANDMASTER_MAGIC\RELEASE\SPELL_DESCRIPTION.OBJ|E:\DEV\__REPOSITORY__\_H3ERA_PLUGINS_\GRANDMASTER_MAGIC\GRANDMASTER_MAGIC\RELEASE\SUMMONCLONE.OBJ|E:\DEV\__REPOSITORY__\_H3ERA_PLUGINS_\GRANDMASTER_MAGIC\GRANDMASTER_MAGIC\RELEASE\_EXTENDED_SPELL_INFO_.OBJ
E:\DEV\__REPOSITORY__\_H3ERA_PLUGINS_\GRANDMASTER_MAGIC\GRANDMASTER_MAGIC\RELEASE\GRANDMASTER_MAGIC.ERA
E:\DEV\__REPOSITORY__\_H3ERA_PLUGINS_\GRANDMASTER_MAGIC\GRANDMASTER_MAGIC\RELEASE\GRANDMASTER_MAGIC.PDB
