^C:\USERS\MAJC89\DROPBOX\WORKING CODE\HEROES3.5\_PLUGINS_\EMERALD3\EMERALD\CONFIG.CPP|C:\USERS\MAJC89\DROPBOX\WORKING CODE\HEROES3.5\_PLUGINS_\EMERALD3\EMERALD\DUPLICATE.CPP|C:\USERS\MAJC89\DROPBOX\WORKING CODE\HEROES3.5\_PLUGINS_\EMERALD3\EMERALD\EMERALD.CPP|C:\USERS\MAJC89\DROPBOX\WORKING CODE\HEROES3.5\_PLUGINS_\EMERALD3\EMERALD\EVENTS.CPP|C:\USERS\MAJC89\DROPBOX\WORKING CODE\HEROES3.5\_PLUGINS_\EMERALD3\EMERALD\LUCKMORALE.CPP|C:\USERS\MAJC89\DROPBOX\WORKING CODE\HEROES3.5\_PLUGINS_\EMERALD3\EMERALD\PROPERTIES.CPP|C:\USERS\MAJC89\DROPBOX\WORKING CODE\HEROES3.5\_PLUGINS_\EMERALD3\EMERALD\RANDOM.CPP|C:\USERS\MAJC89\DROPBOX\WORKING CODE\HEROES3.5\_PLUGINS_\EMERALD3\EMERALD\RESISTANCE.CPP|C:\USERS\MAJC89\DROPBOX\WORKING CODE\HEROES3.5\_PLUGINS_\EMERALD3\__INCLUDE\HEROES.CPP
C:\USERS\MAJC89\DROPBOX\WORKING CODE\HEROES3.5\_PLUGINS_\EMERALD3\EMERALD\DEBUG\VC140.PDB
C:\USERS\MAJC89\DROPBOX\WORKING CODE\HEROES3.5\_PLUGINS_\EMERALD3\EMERALD\DEBUG\VC140.IDB
C:\USERS\MAJC89\DROPBOX\WORKING CODE\HEROES3.5\_PLUGINS_\EMERALD3\EMERALD\DEBUG\HEROES.OBJ
C:\USERS\MAJC89\DROPBOX\WORKING CODE\HEROES3.5\_PLUGINS_\EMERALD3\EMERALD\DEBUG\CONFIG.OBJ
C:\USERS\MAJC89\DROPBOX\WORKING CODE\HEROES3.5\_PLUGINS_\EMERALD3\EMERALD\DEBUG\DUPLICATE.OBJ
C:\USERS\MAJC89\DROPBOX\WORKING CODE\HEROES3.5\_PLUGINS_\EMERALD3\EMERALD\DEBUG\EMERALD.OBJ
C:\USERS\MAJC89\DROPBOX\WORKING CODE\HEROES3.5\_PLUGINS_\EMERALD3\EMERALD\DEBUG\EVENTS.OBJ
C:\USERS\MAJC89\DROPBOX\WORKING CODE\HEROES3.5\_PLUGINS_\EMERALD3\EMERALD\DEBUG\LUCKMORALE.OBJ
C:\USERS\MAJC89\DROPBOX\WORKING CODE\HEROES3.5\_PLUGINS_\EMERALD3\EMERALD\DEBUG\PROPERTIES.OBJ
C:\USERS\MAJC89\DROPBOX\WORKING CODE\HEROES3.5\_PLUGINS_\EMERALD3\EMERALD\DEBUG\RANDOM.OBJ
C:\USERS\MAJC89\DROPBOX\WORKING CODE\HEROES3.5\_PLUGINS_\EMERALD3\EMERALD\DEBUG\RESISTANCE.OBJ
^C:\USERS\MAJC89\DROPBOX\WORKING CODE\HEROES3.5\_PLUGINS_\EMERALD3\__INCLUDE\HEROES.CPP
C:\USERS\MAJC89\DROPBOX\WORKING CODE\HEROES3.5\_PLUGINS_\EMERALD3\EMERALD\DEBUG\VC140.PDB
^C:\USERS\MAJC89\DROPBOX\WORKING CODE\HEROES3.5\_PLUGINS_\EMERALD3\EMERALD\CONFIG.CPP
C:\USERS\MAJC89\DROPBOX\WORKING CODE\HEROES3.5\_PLUGINS_\EMERALD3\EMERALD\DEBUG\VC140.PDB
^C:\USERS\MAJC89\DROPBOX\WORKING CODE\HEROES3.5\_PLUGINS_\EMERALD3\EMERALD\DUPLICATE.CPP
C:\USERS\MAJC89\DROPBOX\WORKING CODE\HEROES3.5\_PLUGINS_\EMERALD3\EMERALD\DEBUG\VC140.PDB
^C:\USERS\MAJC89\DROPBOX\WORKING CODE\HEROES3.5\_PLUGINS_\EMERALD3\EMERALD\EMERALD.CPP
C:\USERS\MAJC89\DROPBOX\WORKING CODE\HEROES3.5\_PLUGINS_\EMERALD3\EMERALD\DEBUG\VC140.PDB
^C:\USERS\MAJC89\DROPBOX\WORKING CODE\HEROES3.5\_PLUGINS_\EMERALD3\EMERALD\EVENTS.CPP
C:\USERS\MAJC89\DROPBOX\WORKING CODE\HEROES3.5\_PLUGINS_\EMERALD3\EMERALD\DEBUG\VC140.PDB
^C:\USERS\MAJC89\DROPBOX\WORKING CODE\HEROES3.5\_PLUGINS_\EMERALD3\EMERALD\LUCKMORALE.CPP
C:\USERS\MAJC89\DROPBOX\WORKING CODE\HEROES3.5\_PLUGINS_\EMERALD3\EMERALD\DEBUG\VC140.PDB
^C:\USERS\MAJC89\DROPBOX\WORKING CODE\HEROES3.5\_PLUGINS_\EMERALD3\EMERALD\PROPERTIES.CPP
C:\USERS\MAJC89\DROPBOX\WORKING CODE\HEROES3.5\_PLUGINS_\EMERALD3\EMERALD\DEBUG\VC140.PDB
^C:\USERS\MAJC89\DROPBOX\WORKING CODE\HEROES3.5\_PLUGINS_\EMERALD3\EMERALD\RANDOM.CPP
C:\USERS\MAJC89\DROPBOX\WORKING CODE\HEROES3.5\_PLUGINS_\EMERALD3\EMERALD\DEBUG\VC140.PDB
^C:\USERS\MAJC89\DROPBOX\WORKING CODE\HEROES3.5\_PLUGINS_\EMERALD3\EMERALD\RESISTANCE.CPP
C:\USERS\MAJC89\DROPBOX\WORKING CODE\HEROES3.5\_PLUGINS_\EMERALD3\EMERALD\DEBUG\VC140.PDB
^C:\USERS\MAJC89\DROPBOX\WORKING CODE\HEROES3.5\_PLUGINS_\EMERALD3\EMERALD\DLLMAIN.CPP
C:\USERS\MAJC89\DROPBOX\WORKING CODE\HEROES3.5\_PLUGINS_\EMERALD3\EMERALD\DEBUG\VC140.PDB
C:\USERS\MAJC89\DROPBOX\WORKING CODE\HEROES3.5\_PLUGINS_\EMERALD3\EMERALD\DEBUG\VC140.IDB
C:\USERS\MAJC89\DROPBOX\WORKING CODE\HEROES3.5\_PLUGINS_\EMERALD3\EMERALD\DEBUG\DLLMAIN.OBJ
