^E:\DEV\__REPOSITORY__\_H3ERA_PLUGINS_\SPEED4DIOZIA\SPEED4DIOZIA\PCH.CPP
/c /ZI /JMC /nologo /W3 /WX- /diagnostics:column /sdl /Od /Oy- /D WIN32 /D _DEBUG /D SPEED4DIOZIA_EXPORTS /D _WINDOWS /D _USRDLL /D _WINDLL /D _UNICODE /D UNICODE /Gm- /EHsc /RTC1 /MDd /GS /fp:precise /permissive- /Zc:wchar_t /Zc:forScope /Zc:inline /Yc"pch.h" /Fp"DEBUG\SPEED4DIOZIA.PCH" /Fo"DEBUG\\" /Fd"DEBUG\VC142.PDB" /external:W3 /Gd /TP /analyze- /FC E:\DEV\__REPOSITORY__\_H3ERA_PLUGINS_\SPEED4DIOZIA\SPEED4DIOZIA\PCH.CPP
^E:\DEV\__REPOSITORY__\_H3ERA_PLUGINS_\SPEED4DIOZIA\SPEED4DIOZIA\DLLMAIN.CPP
/c /ZI /JMC /nologo /W3 /WX- /diagnostics:column /sdl /Od /Oy- /D WIN32 /D _DEBUG /D SPEED4DIOZIA_EXPORTS /D _WINDOWS /D _USRDLL /D _WINDLL /D _UNICODE /D UNICODE /Gm- /EHsc /RTC1 /MDd /GS /fp:precise /permissive- /Zc:wchar_t /Zc:forScope /Zc:inline /Yu"pch.h" /Fp"DEBUG\SPEED4DIOZIA.PCH" /Fo"DEBUG\\" /Fd"DEBUG\VC142.PDB" /external:W3 /Gd /TP /analyze- /FC E:\DEV\__REPOSITORY__\_H3ERA_PLUGINS_\SPEED4DIOZIA\SPEED4DIOZIA\DLLMAIN.CPP
