^E:\DEV\__REPOSITORY__\_H3ERA_PLUGINS_\_HD_MOD_\CHRONICLES_CALLER\CHRONICLES_CALLER\PCH.CPP
E:\DEV\__REPOSITORY__\_H3ERA_PLUGINS_\_HD_MOD_\CHRONICLES_CALLER\CHRONICLES_CALLER\DEBUG\CHRONICLES_CALLER.PCH
E:\DEV\__REPOSITORY__\_H3ERA_PLUGINS_\_HD_MOD_\CHRONICLES_CALLER\CHRONICLES_CALLER\DEBUG\VC142.PDB
E:\DEV\__REPOSITORY__\_H3ERA_PLUGINS_\_HD_MOD_\CHRONICLES_CALLER\CHRONICLES_CALLER\DEBUG\VC142.IDB
E:\DEV\__REPOSITORY__\_H3ERA_PLUGINS_\_HD_MOD_\CHRONICLES_CALLER\CHRONICLES_CALLER\DEBUG\PCH.OBJ
^E:\DEV\__REPOSITORY__\_H3ERA_PLUGINS_\_HD_MOD_\CHRONICLES_CALLER\CHRONICLES_CALLER\DLLMAIN.CPP
E:\DEV\__REPOSITORY__\_H3ERA_PLUGINS_\_HD_MOD_\CHRONICLES_CALLER\CHRONICLES_CALLER\DEBUG\VC142.PDB
E:\DEV\__REPOSITORY__\_H3ERA_PLUGINS_\_HD_MOD_\CHRONICLES_CALLER\CHRONICLES_CALLER\DEBUG\VC142.IDB
E:\DEV\__REPOSITORY__\_H3ERA_PLUGINS_\_HD_MOD_\CHRONICLES_CALLER\CHRONICLES_CALLER\DEBUG\DLLMAIN.OBJ
