#Command: "C:\Program Files (x86)\Microsoft Visual Studio\2019\Community\VC\Tools\MSVC\14.29.30133\bin\HostX86\x86\link.exe" /ERRORREPORT:PROMPT "@C:\Users\Yuji Sakai\AppData\Local\Temp\tmp4c466a9d5d4c4704a1cfd0a128a8ad71.rsp" /nologo /incremental /fullbuild
^E:\DEV\__REPOSITORY__\_H3ERA_PLUGINS_\SS_BONUS_AGENTS\PROJECT1\DEBUG\HEROES.OBJ|E:\DEV\__REPOSITORY__\_H3ERA_PLUGINS_\SS_BONUS_AGENTS\PROJECT1\DEBUG\SS_BONUS_AGENTS.OBJ
C:\USERS\YUJISA~1\APPDATA\LOCAL\TEMP\LNK{47038592-C460-4289-BB7B-110E6EAFAF5A}.TMP
