#Command: "C:\Program Files (x86)\Microsoft Visual Studio\2019\Community\VC\Tools\MSVC\14.29.30133\bin\HostX86\x86\link.exe" /ERRORREPORT:PROMPT "@C:\Users\Yuji Sakai\AppData\Local\Temp\tmp05a20defec6c415b932c713486c6b5d6.rsp"
^E:\DEV\__REPOSITORY__\_H3ERA_PLUGINS_\SS_BONUS_AGENTS\PROJECT1\DEBUG\SS_BONUS_AGENTS.OBJ
C:\USERS\YUJISA~1\APPDATA\LOCAL\TEMP\LNK{48380C36-B519-49CA-9B6A-44152DA4D64A}.TMP
