#Command: "C:\Program Files (x86)\Microsoft Visual Studio\2019\Community\VC\Tools\MSVC\14.29.30133\bin\HostX86\x86\link.exe" /ERRORREPORT:PROMPT "@C:\Users\Yuji Sakai\AppData\Local\Temp\tmp287d14237b674c0e9f617f7ab62410ce.rsp" /nologo /incremental /fullbuild
^E:\DEV\__REPOSITORY__\_H3ERA_PLUGINS_\SS_BONUS_AGENTS\PROJECT1\DEBUG\HEROES.OBJ|E:\DEV\__REPOSITORY__\_H3ERA_PLUGINS_\SS_BONUS_AGENTS\PROJECT1\DEBUG\SS_BONUS_AGENTS.OBJ
C:\USERS\YUJISA~1\APPDATA\LOCAL\TEMP\LNK{7FB7AF86-554F-4AAE-ADDE-A1F72F2AF4D2}.TMP
