^E:\DEV\__REPOSITORY__\_H3ERA_PLUGINS_\SS_BONUS_AGENTS\PROJECT1\DEBUG\HEROES.OBJ|E:\DEV\__REPOSITORY__\_H3ERA_PLUGINS_\SS_BONUS_AGENTS\PROJECT1\DEBUG\SS_BONUS_AGENTS.OBJ
E:\DEV\__REPOSITORY__\_H3ERA_PLUGINS_\SS_BONUS_AGENTS\PROJECT1\DEBUG\1EVENTTEST.ERA
E:\DEV\__REPOSITORY__\_H3ERA_PLUGINS_\SS_BONUS_AGENTS\PROJECT1\DEBUG\1EVENTTEST.ILK
E:\DEV\__REPOSITORY__\_H3ERA_PLUGINS_\SS_BONUS_AGENTS\PROJECT1\DEBUG\1EVENTTEST.PDB
