^F:\_MAJC89\Dropbox\Working Code\Heroes3.5\_Plugins_\test events\Project1\Project1.vcxproj
F:\_MAJC89\Dropbox\Working Code\Heroes3.5\_Plugins_\test events\Project1\Debug\Project1.lib
F:\_MAJC89\Dropbox\Working Code\Heroes3.5\_Plugins_\test events\Project1\Debug\Project1.exp
^F:\_MAJC89\Dropbox\Working Code\Heroes3.5\_Plugins_\test events\Project1\Project1.vcxproj
F:\_MAJC89\Dropbox\Working Code\Heroes3.5\_Plugins_\test events\Project1\Debug\Project1.lib
F:\_MAJC89\Dropbox\Working Code\Heroes3.5\_Plugins_\test events\Project1\Debug\Project1.exp
^F:\_MAJC89\Dropbox\Working Code\Heroes3.5\_Plugins_\test events\Project1\Project1.vcxproj
F:\_MAJC89\Dropbox\Working Code\Heroes3.5\_Plugins_\test events\Project1\Debug\Project1.lib
F:\_MAJC89\Dropbox\Working Code\Heroes3.5\_Plugins_\test events\Project1\Debug\Project1.exp
^F:\_MAJC89\Dropbox\Working Code\Heroes3.5\_Plugins_\test events\Project1\Project1.vcxproj
F:\_MAJC89\Dropbox\Working Code\Heroes3.5\_Plugins_\test events\Project1\Debug\Project1.lib
F:\_MAJC89\Dropbox\Working Code\Heroes3.5\_Plugins_\test events\Project1\Debug\Project1.exp
^F:\_MAJC89\Dropbox\Working Code\Heroes3.5\_Plugins_\test events\Project1\Project1.vcxproj
F:\_MAJC89\Dropbox\Working Code\Heroes3.5\_Plugins_\test events\Project1\Debug\Project1.lib
F:\_MAJC89\Dropbox\Working Code\Heroes3.5\_Plugins_\test events\Project1\Debug\Project1.exp
^F:\_MAJC89\Dropbox\Working Code\Heroes3.5\_Plugins_\test events\Project1\Project1.vcxproj
F:\_MAJC89\Dropbox\Working Code\Heroes3.5\_Plugins_\test events\Project1\Debug\1eventtest.lib
F:\_MAJC89\Dropbox\Working Code\Heroes3.5\_Plugins_\test events\Project1\Debug\1eventtest.exp
^F:\_MAJC89\Dropbox\Working Code\Heroes3.5\_Plugins_\test events\Project1\Project1.vcxproj
F:\_MAJC89\Dropbox\Working Code\Heroes3.5\_Plugins_\test events\Project1\Debug\1eventtest.lib
F:\_MAJC89\Dropbox\Working Code\Heroes3.5\_Plugins_\test events\Project1\Debug\1eventtest.exp
^E:\DEV\__REPOSITORY__\_h3era_Plugins_\SS_bonus_Agents\Project1\Project1.vcxproj
E:\DEV\__REPOSITORY__\_h3era_Plugins_\SS_bonus_Agents\Project1\Debug\1eventtest.lib
E:\DEV\__REPOSITORY__\_h3era_Plugins_\SS_bonus_Agents\Project1\Debug\1eventtest.exp
^E:\DEV\__REPOSITORY__\_h3era_Plugins_\SS_bonus_Agents\Project1\Project1.vcxproj
E:\DEV\__REPOSITORY__\_h3era_Plugins_\SS_bonus_Agents\Project1\Debug\1eventtest.lib
E:\DEV\__REPOSITORY__\_h3era_Plugins_\SS_bonus_Agents\Project1\Debug\1eventtest.exp
^E:\DEV\__REPOSITORY__\_h3era_Plugins_\SS_bonus_Agents\Project1\Project1.vcxproj
E:\DEV\__REPOSITORY__\_h3era_Plugins_\SS_bonus_Agents\Project1\Debug\1eventtest.lib
E:\DEV\__REPOSITORY__\_h3era_Plugins_\SS_bonus_Agents\Project1\Debug\1eventtest.exp
^E:\DEV\__REPOSITORY__\_h3era_Plugins_\SS_bonus_Agents\Project1\Project1.vcxproj
E:\DEV\__REPOSITORY__\_h3era_Plugins_\SS_bonus_Agents\Project1\Debug\1eventtest.lib
E:\DEV\__REPOSITORY__\_h3era_Plugins_\SS_bonus_Agents\Project1\Debug\1eventtest.exp
