castle
0000000000000000000011111111111111000100011011111111101111101111
rampart
0000000000000000000011111111111111000111011011111111101110111111
tower
0000000000000000000011111111111111000100111011111111101110111111
inferno
0000000000000000000011111111111111000111111011011111101110111111
necropolis
0000000000000000000011111111111111000100011011111111101111111111
dungeon
0000000000000000000011111111111111000100111011111111101110111111
stronghold
0000000000000000000011111111111111000100111011111111101110100111
fortress
0000000000000000000011111111111111000100011011111111101111100111
conflux
0000000000000000000011111111111111000100001011111111101111111111
