^E:\DEV\__REPOSITORY__\_H3ERA_PLUGINS_\DAEMON_CREATURE_DLG\RELEASE\BATTLE_CREATUREDLG_SPELLSPREVIEW.OBJ|E:\DEV\__REPOSITORY__\_H3ERA_PLUGINS_\DAEMON_CREATURE_DLG\RELEASE\BATTLE_DLG_MONPREVIEW.OBJ|E:\DEV\__REPOSITORY__\_H3ERA_PLUGINS_\DAEMON_CREATURE_DLG\RELEASE\CREATUREDLGHANDLER.OBJ|E:\DEV\__REPOSITORY__\_H3ERA_PLUGINS_\DAEMON_CREATURE_DLG\RELEASE\DLLMAIN.OBJ
E:\DEV\__REPOSITORY__\_H3ERA_PLUGINS_\DAEMON_CREATURE_DLG\RELEASE\BATTLE_CREATUREDLG_SPELLSPREVIEW.OBJ
E:\DEV\__REPOSITORY__\_H3ERA_PLUGINS_\DAEMON_CREATURE_DLG\RELEASE\BATTLE_DLG_MONPREVIEW.OBJ
E:\DEV\__REPOSITORY__\_H3ERA_PLUGINS_\DAEMON_CREATURE_DLG\RELEASE\CREATUREDLGHANDLER.OBJ
E:\DEV\__REPOSITORY__\_H3ERA_PLUGINS_\DAEMON_CREATURE_DLG\RELEASE\DLLMAIN.OBJ
C:\WINDOWS\GLOBALIZATION\SORTING\SORTDEFAULT.NLS
C:\PROGRAM FILES\MICROSOFT VISUAL STUDIO\2022\COMMUNITY\VC\TOOLS\MSVC\14.16.27023\BIN\HOSTX86\X86\C2.DLL
C:\PROGRAM FILES\MICROSOFT VISUAL STUDIO\2022\COMMUNITY\VC\TOOLS\MSVC\14.16.27023\LIB\X86\LIBCPMT.LIB
C:\PROGRAM FILES\MICROSOFT VISUAL STUDIO\2022\COMMUNITY\VC\TOOLS\MSVC\14.16.27023\LIB\X86\LIBCMT.LIB
C:\PROGRAM FILES\MICROSOFT VISUAL STUDIO\2022\COMMUNITY\VC\TOOLS\MSVC\14.16.27023\LIB\X86\OLDNAMES.LIB
C:\PROGRAM FILES (X86)\MICROSOFT SDKS\WINDOWS\V7.1A\LIB\KERNEL32.LIB
C:\PROGRAM FILES\MICROSOFT VISUAL STUDIO\2022\COMMUNITY\VC\TOOLS\MSVC\14.16.27023\LIB\X86\LIBVCRUNTIME.LIB
D:\WINDOWS KITS\10\LIB\10.0.10240.0\UCRT\X86\LIBUCRT.LIB
C:\PROGRAM FILES (X86)\MICROSOFT SDKS\WINDOWS\V7.1A\LIB\UUID.LIB
C:\PROGRAM FILES\MICROSOFT VISUAL STUDIO\2022\COMMUNITY\VC\TOOLS\MSVC\14.16.27023\BIN\HOSTX86\X86\1033\LINKUI.DLL
C:\PROGRAM FILES (X86)\MICROSOFT SDKS\WINDOWS\V7.1A\BIN\MT.EXE
C:\PROGRAM FILES (X86)\MICROSOFT SDKS\WINDOWS\V7.1A\BIN\RC.EXE
C:\PROGRAM FILES\MICROSOFT VISUAL STUDIO\2022\COMMUNITY\VC\TOOLS\MSVC\14.16.27023\BIN\HOSTX86\X86\CVTRES.EXE
C:\WINDOWS\SYSTEM32\TZRES.DLL
C:\PROGRAM FILES\MICROSOFT VISUAL STUDIO\2022\COMMUNITY\VC\TOOLS\MSVC\14.16.27023\INCLUDE\MANIFEST\DPIAWARE.MANIFEST
