^E:\DEV\__REPOSITORY__\_H3ERA_PLUGINS_\RESERVE_SLOTS\PCH.CPP
E:\DEV\__REPOSITORY__\_H3ERA_PLUGINS_\RESERVE_SLOTS\RELEASE\RESERVE_SLOTS.PCH
E:\DEV\__REPOSITORY__\_H3ERA_PLUGINS_\RESERVE_SLOTS\RELEASE\VC141.PDB
E:\DEV\__REPOSITORY__\_H3ERA_PLUGINS_\RESERVE_SLOTS\RELEASE\PCH.OBJ
^E:\DEV\__REPOSITORY__\_H3ERA_PLUGINS_\RESERVE_SLOTS\DLLMAIN.CPP
E:\DEV\__REPOSITORY__\_H3ERA_PLUGINS_\RESERVE_SLOTS\RELEASE\VC141.PDB
E:\DEV\__REPOSITORY__\_H3ERA_PLUGINS_\RESERVE_SLOTS\RELEASE\DLLMAIN.OBJ
