^E:\DEV\__REPOSITORY__\_H3ERA_PLUGINS_\BETTER_SPELLS_SUPPORT\BETTER_SPELLS_SUPPORT\PCH.CPP
/c /ZI /JMC /nologo /W3 /WX- /diagnostics:column /sdl /Od /Oy- /D WIN32 /D _DEBUG /D BETTERSPELLSSUPPORT_EXPORTS /D _WINDOWS /D _USRDLL /D _WINDLL /D _UNICODE /D UNICODE /Gm- /EHsc /RTC1 /MDd /GS /fp:precise /permissive- /Zc:wchar_t /Zc:forScope /Zc:inline /Yc"pch.h" /Fp"DEBUG\BETTER_SPELLS_SUPPORT.PCH" /Fo"DEBUG\\" /Fd"DEBUG\VC142.PDB" /Gd /TP /analyze- /FC E:\DEV\__REPOSITORY__\_H3ERA_PLUGINS_\BETTER_SPELLS_SUPPORT\BETTER_SPELLS_SUPPORT\PCH.CPP
^E:\DEV\__REPOSITORY__\_H3ERA_PLUGINS_\BETTER_SPELLS_SUPPORT\BETTER_SPELLS_SUPPORT\DLLMAIN.CPP
/c /ZI /JMC /nologo /W3 /WX- /diagnostics:column /sdl /Od /Oy- /D WIN32 /D _DEBUG /D BETTERSPELLSSUPPORT_EXPORTS /D _WINDOWS /D _USRDLL /D _WINDLL /D _UNICODE /D UNICODE /Gm- /EHsc /RTC1 /MDd /GS /fp:precise /permissive- /Zc:wchar_t /Zc:forScope /Zc:inline /Yu"pch.h" /Fp"DEBUG\BETTER_SPELLS_SUPPORT.PCH" /Fo"DEBUG\\" /Fd"DEBUG\VC142.PDB" /Gd /TP /analyze- /FC E:\DEV\__REPOSITORY__\_H3ERA_PLUGINS_\BETTER_SPELLS_SUPPORT\BETTER_SPELLS_SUPPORT\DLLMAIN.CPP
