^E:\DEV\__REPOSITORY__\_H3ERA_PLUGINS_\BETTER_SPELLS_SUPPORT\BETTER_SPELLS_SUPPORT\PCH.CPP
C:\WINDOWS\GLOBALIZATION\SORTING\SORTDEFAULT.NLS
C:\PROGRAM FILES (X86)\MICROSOFT VISUAL STUDIO\2019\COMMUNITY\VC\TOOLS\MSVC\14.27.29110\BIN\HOSTX86\X86\1033\CLUI.DLL
C:\WINDOWS\SYSTEM32\TZRES.DLL
E:\DEV\__REPOSITORY__\_H3ERA_PLUGINS_\BETTER_SPELLS_SUPPORT\BETTER_SPELLS_SUPPORT\PCH.H
E:\DEV\__REPOSITORY__\_H3ERA_PLUGINS_\BETTER_SPELLS_SUPPORT\BETTER_SPELLS_SUPPORT\FRAMEWORK.H
D:\WINDOWS KITS\10\INCLUDE\10.0.18362.0\UM\WINDOWS.H
D:\WINDOWS KITS\10\INCLUDE\10.0.18362.0\SHARED\WINAPIFAMILY.H
D:\WINDOWS KITS\10\INCLUDE\10.0.18362.0\SHARED\WINPACKAGEFAMILY.H
D:\WINDOWS KITS\10\INCLUDE\10.0.18362.0\SHARED\SDKDDKVER.H
C:\PROGRAM FILES (X86)\MICROSOFT VISUAL STUDIO\2019\COMMUNITY\VC\TOOLS\MSVC\14.27.29110\INCLUDE\EXCPT.H
C:\PROGRAM FILES (X86)\MICROSOFT VISUAL STUDIO\2019\COMMUNITY\VC\TOOLS\MSVC\14.27.29110\INCLUDE\VCRUNTIME.H
C:\PROGRAM FILES (X86)\MICROSOFT VISUAL STUDIO\2019\COMMUNITY\VC\TOOLS\MSVC\14.27.29110\INCLUDE\SAL.H
C:\PROGRAM FILES (X86)\MICROSOFT VISUAL STUDIO\2019\COMMUNITY\VC\TOOLS\MSVC\14.27.29110\INCLUDE\CONCURRENCYSAL.H
C:\PROGRAM FILES (X86)\MICROSOFT VISUAL STUDIO\2019\COMMUNITY\VC\TOOLS\MSVC\14.27.29110\INCLUDE\VADEFS.H
C:\PROGRAM FILES (X86)\MICROSOFT VISUAL STUDIO\2019\COMMUNITY\VC\TOOLS\MSVC\14.27.29110\INCLUDE\STDARG.H
D:\WINDOWS KITS\10\INCLUDE\10.0.18362.0\SHARED\WINDEF.H
D:\WINDOWS KITS\10\INCLUDE\10.0.18362.0\SHARED\MINWINDEF.H
D:\WINDOWS KITS\10\INCLUDE\10.0.18362.0\SHARED\SPECSTRINGS.H
D:\WINDOWS KITS\10\INCLUDE\10.0.18362.0\SHARED\SPECSTRINGS_STRICT.H
D:\WINDOWS KITS\10\INCLUDE\10.0.18362.0\SHARED\SPECSTRINGS_UNDEF.H
D:\WINDOWS KITS\10\INCLUDE\10.0.18362.0\SHARED\DRIVERSPECS.H
D:\WINDOWS KITS\10\INCLUDE\10.0.18362.0\SHARED\SDV_DRIVERSPECS.H
D:\WINDOWS KITS\10\INCLUDE\10.0.18362.0\UM\WINNT.H
D:\WINDOWS KITS\10\INCLUDE\10.0.18362.0\UCRT\CTYPE.H
D:\WINDOWS KITS\10\INCLUDE\10.0.18362.0\UCRT\CORECRT.H
D:\WINDOWS KITS\10\INCLUDE\10.0.18362.0\UCRT\CORECRT_WCTYPE.H
D:\WINDOWS KITS\10\INCLUDE\10.0.18362.0\SHARED\KERNELSPECS.H
D:\WINDOWS KITS\10\INCLUDE\10.0.18362.0\SHARED\BASETSD.H
D:\WINDOWS KITS\10\INCLUDE\10.0.18362.0\SHARED\GUIDDEF.H
D:\WINDOWS KITS\10\INCLUDE\10.0.18362.0\UCRT\STRING.H
D:\WINDOWS KITS\10\INCLUDE\10.0.18362.0\UCRT\CORECRT_MEMORY.H
D:\WINDOWS KITS\10\INCLUDE\10.0.18362.0\UCRT\CORECRT_MEMCPY_S.H
D:\WINDOWS KITS\10\INCLUDE\10.0.18362.0\UCRT\ERRNO.H
C:\PROGRAM FILES (X86)\MICROSOFT VISUAL STUDIO\2019\COMMUNITY\VC\TOOLS\MSVC\14.27.29110\INCLUDE\VCRUNTIME_STRING.H
D:\WINDOWS KITS\10\INCLUDE\10.0.18362.0\UCRT\CORECRT_WSTRING.H
D:\WINDOWS KITS\10\INCLUDE\10.0.18362.0\SHARED\PSHPACK4.H
D:\WINDOWS KITS\10\INCLUDE\10.0.18362.0\SHARED\POPPACK.H
D:\WINDOWS KITS\10\INCLUDE\10.0.18362.0\SHARED\PSHPACK2.H
D:\WINDOWS KITS\10\INCLUDE\10.0.18362.0\SHARED\PSHPACK8.H
D:\WINDOWS KITS\10\INCLUDE\10.0.18362.0\SHARED\PSHPACK1.H
D:\WINDOWS KITS\10\INCLUDE\10.0.18362.0\SHARED\APISET.H
D:\WINDOWS KITS\10\INCLUDE\10.0.18362.0\SHARED\KTMTYPES.H
D:\WINDOWS KITS\10\INCLUDE\10.0.18362.0\UM\WINBASE.H
D:\WINDOWS KITS\10\INCLUDE\10.0.18362.0\SHARED\APISETCCONV.H
D:\WINDOWS KITS\10\INCLUDE\10.0.18362.0\UM\MINWINBASE.H
D:\WINDOWS KITS\10\INCLUDE\10.0.18362.0\UM\APIQUERY2.H
D:\WINDOWS KITS\10\INCLUDE\10.0.18362.0\UM\PROCESSENV.H
D:\WINDOWS KITS\10\INCLUDE\10.0.18362.0\UM\FILEAPIFROMAPP.H
D:\WINDOWS KITS\10\INCLUDE\10.0.18362.0\UM\FILEAPI.H
D:\WINDOWS KITS\10\INCLUDE\10.0.18362.0\UM\DEBUGAPI.H
D:\WINDOWS KITS\10\INCLUDE\10.0.18362.0\UM\UTILAPISET.H
D:\WINDOWS KITS\10\INCLUDE\10.0.18362.0\UM\HANDLEAPI.H
D:\WINDOWS KITS\10\INCLUDE\10.0.18362.0\UM\ERRHANDLINGAPI.H
D:\WINDOWS KITS\10\INCLUDE\10.0.18362.0\UM\FIBERSAPI.H
D:\WINDOWS KITS\10\INCLUDE\10.0.18362.0\UM\NAMEDPIPEAPI.H
D:\WINDOWS KITS\10\INCLUDE\10.0.18362.0\UM\PROFILEAPI.H
D:\WINDOWS KITS\10\INCLUDE\10.0.18362.0\UM\HEAPAPI.H
D:\WINDOWS KITS\10\INCLUDE\10.0.18362.0\UM\IOAPISET.H
D:\WINDOWS KITS\10\INCLUDE\10.0.18362.0\UM\SYNCHAPI.H
D:\WINDOWS KITS\10\INCLUDE\10.0.18362.0\UM\INTERLOCKEDAPI.H
D:\WINDOWS KITS\10\INCLUDE\10.0.18362.0\UM\PROCESSTHREADSAPI.H
D:\WINDOWS KITS\10\INCLUDE\10.0.18362.0\UM\SYSINFOAPI.H
D:\WINDOWS KITS\10\INCLUDE\10.0.18362.0\UM\MEMORYAPI.H
D:\WINDOWS KITS\10\INCLUDE\10.0.18362.0\UM\ENCLAVEAPI.H
D:\WINDOWS KITS\10\INCLUDE\10.0.18362.0\UM\THREADPOOLLEGACYAPISET.H
D:\WINDOWS KITS\10\INCLUDE\10.0.18362.0\UM\THREADPOOLAPISET.H
D:\WINDOWS KITS\10\INCLUDE\10.0.18362.0\UM\JOBAPI.H
D:\WINDOWS KITS\10\INCLUDE\10.0.18362.0\UM\JOBAPI2.H
D:\WINDOWS KITS\10\INCLUDE\10.0.18362.0\UM\WOW64APISET.H
D:\WINDOWS KITS\10\INCLUDE\10.0.18362.0\UM\LIBLOADERAPI.H
D:\WINDOWS KITS\10\INCLUDE\10.0.18362.0\UM\SECURITYBASEAPI.H
D:\WINDOWS KITS\10\INCLUDE\10.0.18362.0\UM\NAMESPACEAPI.H
D:\WINDOWS KITS\10\INCLUDE\10.0.18362.0\UM\SYSTEMTOPOLOGYAPI.H
D:\WINDOWS KITS\10\INCLUDE\10.0.18362.0\UM\PROCESSTOPOLOGYAPI.H
D:\WINDOWS KITS\10\INCLUDE\10.0.18362.0\UM\SECURITYAPPCONTAINER.H
D:\WINDOWS KITS\10\INCLUDE\10.0.18362.0\UM\REALTIMEAPISET.H
D:\WINDOWS KITS\10\INCLUDE\10.0.18362.0\SHARED\WINERROR.H
D:\WINDOWS KITS\10\INCLUDE\10.0.18362.0\UM\TIMEZONEAPI.H
D:\WINDOWS KITS\10\INCLUDE\10.0.18362.0\UM\WINGDI.H
D:\WINDOWS KITS\10\INCLUDE\10.0.18362.0\UM\WINUSER.H
D:\WINDOWS KITS\10\INCLUDE\10.0.18362.0\SHARED\TVOUT.H
D:\WINDOWS KITS\10\INCLUDE\10.0.18362.0\UM\WINNLS.H
D:\WINDOWS KITS\10\INCLUDE\10.0.18362.0\UM\DATETIMEAPI.H
D:\WINDOWS KITS\10\INCLUDE\10.0.18362.0\UM\STRINGAPISET.H
D:\WINDOWS KITS\10\INCLUDE\10.0.18362.0\UM\WINCON.H
D:\WINDOWS KITS\10\INCLUDE\10.0.18362.0\UM\WINCONTYPES.H
D:\WINDOWS KITS\10\INCLUDE\10.0.18362.0\UM\CONSOLEAPI.H
D:\WINDOWS KITS\10\INCLUDE\10.0.18362.0\UM\CONSOLEAPI2.H
D:\WINDOWS KITS\10\INCLUDE\10.0.18362.0\UM\CONSOLEAPI3.H
D:\WINDOWS KITS\10\INCLUDE\10.0.18362.0\UM\WINVER.H
D:\WINDOWS KITS\10\INCLUDE\10.0.18362.0\UM\VERRSRC.H
D:\WINDOWS KITS\10\INCLUDE\10.0.18362.0\UM\WINREG.H
D:\WINDOWS KITS\10\INCLUDE\10.0.18362.0\UM\REASON.H
D:\WINDOWS KITS\10\INCLUDE\10.0.18362.0\UM\WINNETWK.H
D:\WINDOWS KITS\10\INCLUDE\10.0.18362.0\SHARED\WNNC.H
D:\WINDOWS KITS\10\INCLUDE\10.0.18362.0\SHARED\STRALIGN.H
D:\WINDOWS KITS\10\INCLUDE\10.0.18362.0\UM\WINSVC.H
D:\WINDOWS KITS\10\INCLUDE\10.0.18362.0\UM\MCX.H
D:\WINDOWS KITS\10\INCLUDE\10.0.18362.0\UM\IMM.H
D:\WINDOWS KITS\10\INCLUDE\10.0.18362.0\UM\IME_CMODES.H
^E:\DEV\__REPOSITORY__\_H3ERA_PLUGINS_\BETTER_SPELLS_SUPPORT\BETTER_SPELLS_SUPPORT\DLLMAIN.CPP
C:\WINDOWS\GLOBALIZATION\SORTING\SORTDEFAULT.NLS
E:\DEV\__REPOSITORY__\_H3ERA_PLUGINS_\BETTER_SPELLS_SUPPORT\BETTER_SPELLS_SUPPORT\DEBUG\BETTER_SPELLS_SUPPORT.PCH
C:\PROGRAM FILES (X86)\MICROSOFT VISUAL STUDIO\2019\COMMUNITY\VC\TOOLS\MSVC\14.27.29110\BIN\HOSTX86\X86\1033\CLUI.DLL
C:\WINDOWS\SYSTEM32\TZRES.DLL
E:\DEV\__REPOSITORY__\_H3ERA_PLUGINS_\BETTER_SPELLS_SUPPORT\BETTER_SPELLS_SUPPORT\STRUCTS.H
E:\DEV\__REPOSITORY__\_H3ERA_PLUGINS_\BETTER_SPELLS_SUPPORT\BETTER_SPELLS_SUPPORT\ERA.H
C:\PROGRAM FILES (X86)\MICROSOFT VISUAL STUDIO\2019\COMMUNITY\VC\TOOLS\MSVC\14.27.29110\INCLUDE\CSTDIO
C:\PROGRAM FILES (X86)\MICROSOFT VISUAL STUDIO\2019\COMMUNITY\VC\TOOLS\MSVC\14.27.29110\INCLUDE\YVALS_CORE.H
C:\PROGRAM FILES (X86)\MICROSOFT VISUAL STUDIO\2019\COMMUNITY\VC\TOOLS\MSVC\14.27.29110\INCLUDE\XKEYCHECK.H
D:\WINDOWS KITS\10\INCLUDE\10.0.18362.0\UCRT\STDIO.H
D:\WINDOWS KITS\10\INCLUDE\10.0.18362.0\UCRT\CORECRT_WSTDIO.H
D:\WINDOWS KITS\10\INCLUDE\10.0.18362.0\UCRT\CORECRT_STDIO_CONFIG.H
C:\PROGRAM FILES (X86)\MICROSOFT VISUAL STUDIO\2019\COMMUNITY\VC\TOOLS\MSVC\14.27.29110\INCLUDE\VECTOR
C:\PROGRAM FILES (X86)\MICROSOFT VISUAL STUDIO\2019\COMMUNITY\VC\TOOLS\MSVC\14.27.29110\INCLUDE\XMEMORY
C:\PROGRAM FILES (X86)\MICROSOFT VISUAL STUDIO\2019\COMMUNITY\VC\TOOLS\MSVC\14.27.29110\INCLUDE\CSTDINT
C:\PROGRAM FILES (X86)\MICROSOFT VISUAL STUDIO\2019\COMMUNITY\VC\TOOLS\MSVC\14.27.29110\INCLUDE\YVALS.H
D:\WINDOWS KITS\10\INCLUDE\10.0.18362.0\UCRT\CRTDBG.H
C:\PROGRAM FILES (X86)\MICROSOFT VISUAL STUDIO\2019\COMMUNITY\VC\TOOLS\MSVC\14.27.29110\INCLUDE\VCRUNTIME_NEW_DEBUG.H
C:\PROGRAM FILES (X86)\MICROSOFT VISUAL STUDIO\2019\COMMUNITY\VC\TOOLS\MSVC\14.27.29110\INCLUDE\VCRUNTIME_NEW.H
C:\PROGRAM FILES (X86)\MICROSOFT VISUAL STUDIO\2019\COMMUNITY\VC\TOOLS\MSVC\14.27.29110\INCLUDE\CRTDEFS.H
C:\PROGRAM FILES (X86)\MICROSOFT VISUAL STUDIO\2019\COMMUNITY\VC\TOOLS\MSVC\14.27.29110\INCLUDE\USE_ANSI.H
C:\PROGRAM FILES (X86)\MICROSOFT VISUAL STUDIO\2019\COMMUNITY\VC\TOOLS\MSVC\14.27.29110\INCLUDE\STDINT.H
C:\PROGRAM FILES (X86)\MICROSOFT VISUAL STUDIO\2019\COMMUNITY\VC\TOOLS\MSVC\14.27.29110\INCLUDE\CSTDLIB
D:\WINDOWS KITS\10\INCLUDE\10.0.18362.0\UCRT\MATH.H
D:\WINDOWS KITS\10\INCLUDE\10.0.18362.0\UCRT\CORECRT_MATH.H
D:\WINDOWS KITS\10\INCLUDE\10.0.18362.0\UCRT\STDLIB.H
D:\WINDOWS KITS\10\INCLUDE\10.0.18362.0\UCRT\CORECRT_MALLOC.H
D:\WINDOWS KITS\10\INCLUDE\10.0.18362.0\UCRT\CORECRT_SEARCH.H
D:\WINDOWS KITS\10\INCLUDE\10.0.18362.0\UCRT\STDDEF.H
D:\WINDOWS KITS\10\INCLUDE\10.0.18362.0\UCRT\CORECRT_WSTDLIB.H
C:\PROGRAM FILES (X86)\MICROSOFT VISUAL STUDIO\2019\COMMUNITY\VC\TOOLS\MSVC\14.27.29110\INCLUDE\LIMITS.H
C:\PROGRAM FILES (X86)\MICROSOFT VISUAL STUDIO\2019\COMMUNITY\VC\TOOLS\MSVC\14.27.29110\INCLUDE\LIMITS
C:\PROGRAM FILES (X86)\MICROSOFT VISUAL STUDIO\2019\COMMUNITY\VC\TOOLS\MSVC\14.27.29110\INCLUDE\CFLOAT
D:\WINDOWS KITS\10\INCLUDE\10.0.18362.0\UCRT\FLOAT.H
C:\PROGRAM FILES (X86)\MICROSOFT VISUAL STUDIO\2019\COMMUNITY\VC\TOOLS\MSVC\14.27.29110\INCLUDE\CLIMITS
C:\PROGRAM FILES (X86)\MICROSOFT VISUAL STUDIO\2019\COMMUNITY\VC\TOOLS\MSVC\14.27.29110\INCLUDE\CWCHAR
D:\WINDOWS KITS\10\INCLUDE\10.0.18362.0\UCRT\WCHAR.H
D:\WINDOWS KITS\10\INCLUDE\10.0.18362.0\UCRT\CORECRT_WCONIO.H
D:\WINDOWS KITS\10\INCLUDE\10.0.18362.0\UCRT\CORECRT_WDIRECT.H
D:\WINDOWS KITS\10\INCLUDE\10.0.18362.0\UCRT\CORECRT_WIO.H
D:\WINDOWS KITS\10\INCLUDE\10.0.18362.0\UCRT\CORECRT_SHARE.H
D:\WINDOWS KITS\10\INCLUDE\10.0.18362.0\UCRT\CORECRT_WPROCESS.H
D:\WINDOWS KITS\10\INCLUDE\10.0.18362.0\UCRT\CORECRT_WTIME.H
D:\WINDOWS KITS\10\INCLUDE\10.0.18362.0\UCRT\SYS\STAT.H
D:\WINDOWS KITS\10\INCLUDE\10.0.18362.0\UCRT\SYS\TYPES.H
C:\PROGRAM FILES (X86)\MICROSOFT VISUAL STUDIO\2019\COMMUNITY\VC\TOOLS\MSVC\14.27.29110\INCLUDE\XSTDDEF
C:\PROGRAM FILES (X86)\MICROSOFT VISUAL STUDIO\2019\COMMUNITY\VC\TOOLS\MSVC\14.27.29110\INCLUDE\CSTDDEF
C:\PROGRAM FILES (X86)\MICROSOFT VISUAL STUDIO\2019\COMMUNITY\VC\TOOLS\MSVC\14.27.29110\INCLUDE\XTR1COMMON
C:\PROGRAM FILES (X86)\MICROSOFT VISUAL STUDIO\2019\COMMUNITY\VC\TOOLS\MSVC\14.27.29110\INCLUDE\INITIALIZER_LIST
C:\PROGRAM FILES (X86)\MICROSOFT VISUAL STUDIO\2019\COMMUNITY\VC\TOOLS\MSVC\14.27.29110\INCLUDE\NEW
C:\PROGRAM FILES (X86)\MICROSOFT VISUAL STUDIO\2019\COMMUNITY\VC\TOOLS\MSVC\14.27.29110\INCLUDE\EXCEPTION
C:\PROGRAM FILES (X86)\MICROSOFT VISUAL STUDIO\2019\COMMUNITY\VC\TOOLS\MSVC\14.27.29110\INCLUDE\TYPE_TRAITS
D:\WINDOWS KITS\10\INCLUDE\10.0.18362.0\UCRT\MALLOC.H
C:\PROGRAM FILES (X86)\MICROSOFT VISUAL STUDIO\2019\COMMUNITY\VC\TOOLS\MSVC\14.27.29110\INCLUDE\VCRUNTIME_EXCEPTION.H
C:\PROGRAM FILES (X86)\MICROSOFT VISUAL STUDIO\2019\COMMUNITY\VC\TOOLS\MSVC\14.27.29110\INCLUDE\EH.H
D:\WINDOWS KITS\10\INCLUDE\10.0.18362.0\UCRT\CORECRT_TERMINATE.H
C:\PROGRAM FILES (X86)\MICROSOFT VISUAL STUDIO\2019\COMMUNITY\VC\TOOLS\MSVC\14.27.29110\INCLUDE\XATOMIC.H
C:\PROGRAM FILES (X86)\MICROSOFT VISUAL STUDIO\2019\COMMUNITY\VC\TOOLS\MSVC\14.27.29110\INCLUDE\INTRIN0.H
C:\PROGRAM FILES (X86)\MICROSOFT VISUAL STUDIO\2019\COMMUNITY\VC\TOOLS\MSVC\14.27.29110\INCLUDE\XUTILITY
C:\PROGRAM FILES (X86)\MICROSOFT VISUAL STUDIO\2019\COMMUNITY\VC\TOOLS\MSVC\14.27.29110\INCLUDE\CSTRING
C:\PROGRAM FILES (X86)\MICROSOFT VISUAL STUDIO\2019\COMMUNITY\VC\TOOLS\MSVC\14.27.29110\INCLUDE\UTILITY
C:\PROGRAM FILES (X86)\MICROSOFT VISUAL STUDIO\2019\COMMUNITY\VC\TOOLS\MSVC\14.27.29110\INCLUDE\STRING
C:\PROGRAM FILES (X86)\MICROSOFT VISUAL STUDIO\2019\COMMUNITY\VC\TOOLS\MSVC\14.27.29110\INCLUDE\XSTRING
C:\PROGRAM FILES (X86)\MICROSOFT VISUAL STUDIO\2019\COMMUNITY\VC\TOOLS\MSVC\14.27.29110\INCLUDE\IOSFWD
C:\PROGRAM FILES (X86)\MICROSOFT VISUAL STUDIO\2019\COMMUNITY\VC\TOOLS\MSVC\14.27.29110\INCLUDE\CCTYPE
E:\DEV\__REPOSITORY__\_H3ERA_PLUGINS_\BETTER_SPELLS_SUPPORT\BETTER_SPELLS_SUPPORT\H3API\LIB\H3API.HPP
E:\DEV\__REPOSITORY__\_H3ERA_PLUGINS_\BETTER_SPELLS_SUPPORT\BETTER_SPELLS_SUPPORT\H3API\LIB\H3API\H3_ALLOCATOR.HPP
E:\DEV\__REPOSITORY__\_H3ERA_PLUGINS_\BETTER_SPELLS_SUPPORT\BETTER_SPELLS_SUPPORT\H3API\LIB\H3API\H3_CORE.HPP
E:\DEV\__REPOSITORY__\_H3ERA_PLUGINS_\BETTER_SPELLS_SUPPORT\BETTER_SPELLS_SUPPORT\H3API\LIB\H3API\H3ALLOCATOR\H3ALLOCATOR.HPP
E:\DEV\__REPOSITORY__\_H3ERA_PLUGINS_\BETTER_SPELLS_SUPPORT\BETTER_SPELLS_SUPPORT\H3API\LIB\H3API\H3_CONFIG.HPP
C:\PROGRAM FILES (X86)\MICROSOFT VISUAL STUDIO\2019\COMMUNITY\VC\TOOLS\MSVC\14.27.29110\INCLUDE\ALGORITHM
E:\DEV\__REPOSITORY__\_H3ERA_PLUGINS_\BETTER_SPELLS_SUPPORT\BETTER_SPELLS_SUPPORT\H3API\LIB\H3API\H3ALLOCATOR\H3ALLOCATOR.INL
E:\DEV\__REPOSITORY__\_H3ERA_PLUGINS_\BETTER_SPELLS_SUPPORT\BETTER_SPELLS_SUPPORT\H3API\LIB\H3API\H3ALLOCATOR\H3ALLOCATOR.CPP
E:\DEV\__REPOSITORY__\_H3ERA_PLUGINS_\BETTER_SPELLS_SUPPORT\BETTER_SPELLS_SUPPORT\H3API\LIB\H3API\H3_BASE.HPP
E:\DEV\__REPOSITORY__\_H3ERA_PLUGINS_\BETTER_SPELLS_SUPPORT\BETTER_SPELLS_SUPPORT\H3API\LIB\H3API\H3BASE\H3BASE.HPP
E:\DEV\__REPOSITORY__\_H3ERA_PLUGINS_\BETTER_SPELLS_SUPPORT\BETTER_SPELLS_SUPPORT\H3API\LIB\H3API\H3BASE\H3BASE.INL
E:\DEV\__REPOSITORY__\_H3ERA_PLUGINS_\BETTER_SPELLS_SUPPORT\BETTER_SPELLS_SUPPORT\H3API\LIB\H3API\H3BASE\H3BASE.CPP
E:\DEV\__REPOSITORY__\_H3ERA_PLUGINS_\BETTER_SPELLS_SUPPORT\BETTER_SPELLS_SUPPORT\H3API\LIB\H3API\H3_BINARYITEMS.HPP
E:\DEV\__REPOSITORY__\_H3ERA_PLUGINS_\BETTER_SPELLS_SUPPORT\BETTER_SPELLS_SUPPORT\H3API\LIB\H3API\H3BINARYITEMS\H3BINARYITEMS.HPP
E:\DEV\__REPOSITORY__\_H3ERA_PLUGINS_\BETTER_SPELLS_SUPPORT\BETTER_SPELLS_SUPPORT\H3API\LIB\H3API\H3_VECTOR.HPP
E:\DEV\__REPOSITORY__\_H3ERA_PLUGINS_\BETTER_SPELLS_SUPPORT\BETTER_SPELLS_SUPPORT\H3API\LIB\H3API\H3VECTOR\H3VECTOR.HPP
E:\DEV\__REPOSITORY__\_H3ERA_PLUGINS_\BETTER_SPELLS_SUPPORT\BETTER_SPELLS_SUPPORT\H3API\LIB\H3API\H3VECTOR\H3VECTOR.INL
E:\DEV\__REPOSITORY__\_H3ERA_PLUGINS_\BETTER_SPELLS_SUPPORT\BETTER_SPELLS_SUPPORT\H3API\LIB\H3API\H3VECTOR\H3VECTOR.CPP
E:\DEV\__REPOSITORY__\_H3ERA_PLUGINS_\BETTER_SPELLS_SUPPORT\BETTER_SPELLS_SUPPORT\H3API\LIB\H3API\H3_STRING.HPP
E:\DEV\__REPOSITORY__\_H3ERA_PLUGINS_\BETTER_SPELLS_SUPPORT\BETTER_SPELLS_SUPPORT\H3API\LIB\H3API\H3STRING\H3STRING.HPP
E:\DEV\__REPOSITORY__\_H3ERA_PLUGINS_\BETTER_SPELLS_SUPPORT\BETTER_SPELLS_SUPPORT\H3API\LIB\H3API\H3STRING\H3STRING.INL
E:\DEV\__REPOSITORY__\_H3ERA_PLUGINS_\BETTER_SPELLS_SUPPORT\BETTER_SPELLS_SUPPORT\H3API\LIB\H3API\H3STRING\H3STRING.CPP
E:\DEV\__REPOSITORY__\_H3ERA_PLUGINS_\BETTER_SPELLS_SUPPORT\BETTER_SPELLS_SUPPORT\H3API\LIB\H3API\H3_CONSTANTS.HPP
E:\DEV\__REPOSITORY__\_H3ERA_PLUGINS_\BETTER_SPELLS_SUPPORT\BETTER_SPELLS_SUPPORT\H3API\LIB\H3API\H3BINARYITEMS\H3BINARYITEMS.INL
E:\DEV\__REPOSITORY__\_H3ERA_PLUGINS_\BETTER_SPELLS_SUPPORT\BETTER_SPELLS_SUPPORT\H3API\LIB\H3API\H3BINARYITEMS\H3BINARYITEMS.CPP
E:\DEV\__REPOSITORY__\_H3ERA_PLUGINS_\BETTER_SPELLS_SUPPORT\BETTER_SPELLS_SUPPORT\H3API\LIB\H3API\H3_LOD.HPP
E:\DEV\__REPOSITORY__\_H3ERA_PLUGINS_\BETTER_SPELLS_SUPPORT\BETTER_SPELLS_SUPPORT\H3API\LIB\H3API\H3LOD\H3LOD.HPP
E:\DEV\__REPOSITORY__\_H3ERA_PLUGINS_\BETTER_SPELLS_SUPPORT\BETTER_SPELLS_SUPPORT\H3API\LIB\H3API\H3LOD\H3LOD.INL
E:\DEV\__REPOSITORY__\_H3ERA_PLUGINS_\BETTER_SPELLS_SUPPORT\BETTER_SPELLS_SUPPORT\H3API\LIB\H3API\H3LOD\H3LOD.CPP
E:\DEV\__REPOSITORY__\_H3ERA_PLUGINS_\BETTER_SPELLS_SUPPORT\BETTER_SPELLS_SUPPORT\H3API\LIB\H3API\H3_BITSET.HPP
E:\DEV\__REPOSITORY__\_H3ERA_PLUGINS_\BETTER_SPELLS_SUPPORT\BETTER_SPELLS_SUPPORT\H3API\LIB\H3API\H3BITSET\H3BITSET.HPP
E:\DEV\__REPOSITORY__\_H3ERA_PLUGINS_\BETTER_SPELLS_SUPPORT\BETTER_SPELLS_SUPPORT\H3API\LIB\H3API\H3BITSET\H3BITSET.INL
E:\DEV\__REPOSITORY__\_H3ERA_PLUGINS_\BETTER_SPELLS_SUPPORT\BETTER_SPELLS_SUPPORT\H3API\LIB\H3API\H3BITSET\H3BITSET.CPP
E:\DEV\__REPOSITORY__\_H3ERA_PLUGINS_\BETTER_SPELLS_SUPPORT\BETTER_SPELLS_SUPPORT\H3API\LIB\H3API\H3_DEFINES.HPP
E:\DEV\__REPOSITORY__\_H3ERA_PLUGINS_\BETTER_SPELLS_SUPPORT\BETTER_SPELLS_SUPPORT\H3API\LIB\H3API\H3DEFINES\H3DEFINES.HPP
E:\DEV\__REPOSITORY__\_H3ERA_PLUGINS_\BETTER_SPELLS_SUPPORT\BETTER_SPELLS_SUPPORT\H3API\LIB\H3API\H3_DIALOGS.HPP
E:\DEV\__REPOSITORY__\_H3ERA_PLUGINS_\BETTER_SPELLS_SUPPORT\BETTER_SPELLS_SUPPORT\H3API\LIB\H3API\H3DIALOGS\H3DIALOGS.HPP
E:\DEV\__REPOSITORY__\_H3ERA_PLUGINS_\BETTER_SPELLS_SUPPORT\BETTER_SPELLS_SUPPORT\H3API\LIB\H3API\H3DIALOGS\H3DIALOGS.INL
E:\DEV\__REPOSITORY__\_H3ERA_PLUGINS_\BETTER_SPELLS_SUPPORT\BETTER_SPELLS_SUPPORT\H3API\LIB\H3API\H3DIALOGS\H3DIALOGS.CPP
E:\DEV\__REPOSITORY__\_H3ERA_PLUGINS_\BETTER_SPELLS_SUPPORT\BETTER_SPELLS_SUPPORT\H3API\LIB\H3API\H3_FUNCTIONS.HPP
E:\DEV\__REPOSITORY__\_H3ERA_PLUGINS_\BETTER_SPELLS_SUPPORT\BETTER_SPELLS_SUPPORT\H3API\LIB\H3API\H3FUNCTIONS\H3FUNCTIONS.HPP
E:\DEV\__REPOSITORY__\_H3ERA_PLUGINS_\BETTER_SPELLS_SUPPORT\BETTER_SPELLS_SUPPORT\H3API\LIB\H3API\H3FUNCTIONS\H3FUNCTIONS.INL
E:\DEV\__REPOSITORY__\_H3ERA_PLUGINS_\BETTER_SPELLS_SUPPORT\BETTER_SPELLS_SUPPORT\H3API\LIB\H3API\H3FUNCTIONS\H3FUNCTIONS.CPP
E:\DEV\__REPOSITORY__\_H3ERA_PLUGINS_\BETTER_SPELLS_SUPPORT\BETTER_SPELLS_SUPPORT\H3API\LIB\H3API\H3_STRUCTURES.HPP
E:\DEV\__REPOSITORY__\_H3ERA_PLUGINS_\BETTER_SPELLS_SUPPORT\BETTER_SPELLS_SUPPORT\H3API\LIB\H3API\H3STRUCTURES\H3STRUCTURES.HPP
E:\DEV\__REPOSITORY__\_H3ERA_PLUGINS_\BETTER_SPELLS_SUPPORT\BETTER_SPELLS_SUPPORT\H3API\LIB\H3API\H3_MAPITEMS.HPP
E:\DEV\__REPOSITORY__\_H3ERA_PLUGINS_\BETTER_SPELLS_SUPPORT\BETTER_SPELLS_SUPPORT\H3API\LIB\H3API\H3MAPITEMS\H3MAPITEMS.HPP
E:\DEV\__REPOSITORY__\_H3ERA_PLUGINS_\BETTER_SPELLS_SUPPORT\BETTER_SPELLS_SUPPORT\H3API\LIB\H3API\H3MAPITEMS\H3MAPITEMS.INL
E:\DEV\__REPOSITORY__\_H3ERA_PLUGINS_\BETTER_SPELLS_SUPPORT\BETTER_SPELLS_SUPPORT\H3API\LIB\H3API\H3MAPITEMS\H3MAPITEMS.CPP
E:\DEV\__REPOSITORY__\_H3ERA_PLUGINS_\BETTER_SPELLS_SUPPORT\BETTER_SPELLS_SUPPORT\H3API\LIB\H3API\H3STRUCTURES\H3STRUCTURES.INL
E:\DEV\__REPOSITORY__\_H3ERA_PLUGINS_\BETTER_SPELLS_SUPPORT\BETTER_SPELLS_SUPPORT\H3API\LIB\H3API\H3STRUCTURES\H3STRUCTURES.CPP
E:\DEV\__REPOSITORY__\_H3ERA_PLUGINS_\BETTER_SPELLS_SUPPORT\BETTER_SPELLS_SUPPORT\H3API\LIB\H3API\H3DEFINES\H3DEFINES.INL
E:\DEV\__REPOSITORY__\_H3ERA_PLUGINS_\BETTER_SPELLS_SUPPORT\BETTER_SPELLS_SUPPORT\H3API\LIB\H3API\H3DEFINES\H3DEFINES.CPP
E:\DEV\__REPOSITORY__\_H3ERA_PLUGINS_\BETTER_SPELLS_SUPPORT\BETTER_SPELLS_SUPPORT\H3API\LIB\H3API\H3_INI.HPP
E:\DEV\__REPOSITORY__\_H3ERA_PLUGINS_\BETTER_SPELLS_SUPPORT\BETTER_SPELLS_SUPPORT\H3API\LIB\H3API\H3INI\H3INI.HPP
E:\DEV\__REPOSITORY__\_H3ERA_PLUGINS_\BETTER_SPELLS_SUPPORT\BETTER_SPELLS_SUPPORT\H3API\LIB\H3API\H3_TREE.HPP
E:\DEV\__REPOSITORY__\_H3ERA_PLUGINS_\BETTER_SPELLS_SUPPORT\BETTER_SPELLS_SUPPORT\H3API\LIB\H3API\H3TREE\H3TREE.HPP
E:\DEV\__REPOSITORY__\_H3ERA_PLUGINS_\BETTER_SPELLS_SUPPORT\BETTER_SPELLS_SUPPORT\H3API\LIB\H3API\H3TREE\H3TREE.INL
E:\DEV\__REPOSITORY__\_H3ERA_PLUGINS_\BETTER_SPELLS_SUPPORT\BETTER_SPELLS_SUPPORT\H3API\LIB\H3API\H3TREE\H3TREE.CPP
E:\DEV\__REPOSITORY__\_H3ERA_PLUGINS_\BETTER_SPELLS_SUPPORT\BETTER_SPELLS_SUPPORT\H3API\LIB\H3API\H3INI\H3INI.INL
E:\DEV\__REPOSITORY__\_H3ERA_PLUGINS_\BETTER_SPELLS_SUPPORT\BETTER_SPELLS_SUPPORT\H3API\LIB\H3API\H3INI\H3INI.CPP
E:\DEV\__REPOSITORY__\_H3ERA_PLUGINS_\BETTER_SPELLS_SUPPORT\BETTER_SPELLS_SUPPORT\H3API\LIB\H3API\H3_STREAM.HPP
E:\DEV\__REPOSITORY__\_H3ERA_PLUGINS_\BETTER_SPELLS_SUPPORT\BETTER_SPELLS_SUPPORT\H3API\LIB\H3API\H3STREAM\H3STREAM.HPP
E:\DEV\__REPOSITORY__\_H3ERA_PLUGINS_\BETTER_SPELLS_SUPPORT\BETTER_SPELLS_SUPPORT\H3API\LIB\H3API\H3STREAM\H3STREAM.INL
E:\DEV\__REPOSITORY__\_H3ERA_PLUGINS_\BETTER_SPELLS_SUPPORT\BETTER_SPELLS_SUPPORT\H3API\LIB\H3API\H3STREAM\H3STREAM.CPP
E:\DEV\__REPOSITORY__\_H3ERA_PLUGINS_\BETTER_SPELLS_SUPPORT\BETTER_SPELLS_SUPPORT\H3API\LIB\H3API\H3_EXCEPTION.HPP
E:\DEV\__REPOSITORY__\_H3ERA_PLUGINS_\BETTER_SPELLS_SUPPORT\BETTER_SPELLS_SUPPORT\H3API\LIB\H3API\H3EXCEPTION\H3EXCEPTION.HPP
D:\WINDOWS KITS\10\INCLUDE\10.0.18362.0\UM\PSAPI.H
E:\DEV\__REPOSITORY__\_H3ERA_PLUGINS_\BETTER_SPELLS_SUPPORT\BETTER_SPELLS_SUPPORT\H3API\LIB\H3API\H3EXCEPTION\H3EXCEPTION.INL
E:\DEV\__REPOSITORY__\_H3ERA_PLUGINS_\BETTER_SPELLS_SUPPORT\BETTER_SPELLS_SUPPORT\H3API\LIB\H3API\H3EXCEPTION\H3EXCEPTION.CPP
E:\DEV\__REPOSITORY__\_H3ERA_PLUGINS_\BETTER_SPELLS_SUPPORT\BETTER_SPELLS_SUPPORT\H3API\LIB\H3API\H3_MEMORY.HPP
E:\DEV\__REPOSITORY__\_H3ERA_PLUGINS_\BETTER_SPELLS_SUPPORT\BETTER_SPELLS_SUPPORT\H3API\LIB\H3API\H3MEMORY\H3MEMORY.HPP
E:\DEV\__REPOSITORY__\_H3ERA_PLUGINS_\BETTER_SPELLS_SUPPORT\BETTER_SPELLS_SUPPORT\H3API\LIB\H3API\H3MEMORY\H3MEMORY.INL
E:\DEV\__REPOSITORY__\_H3ERA_PLUGINS_\BETTER_SPELLS_SUPPORT\BETTER_SPELLS_SUPPORT\H3API\LIB\H3API\H3MEMORY\H3MEMORY.CPP
E:\DEV\__REPOSITORY__\_H3ERA_PLUGINS_\BETTER_SPELLS_SUPPORT\BETTER_SPELLS_SUPPORT\H3API\LIB\H3API\H3_PATH.HPP
E:\DEV\__REPOSITORY__\_H3ERA_PLUGINS_\BETTER_SPELLS_SUPPORT\BETTER_SPELLS_SUPPORT\H3API\LIB\H3API\H3PATH\H3PATH.HPP
E:\DEV\__REPOSITORY__\_H3ERA_PLUGINS_\BETTER_SPELLS_SUPPORT\BETTER_SPELLS_SUPPORT\H3API\LIB\H3API\H3PATH\H3PATH.INL
E:\DEV\__REPOSITORY__\_H3ERA_PLUGINS_\BETTER_SPELLS_SUPPORT\BETTER_SPELLS_SUPPORT\H3API\LIB\H3API\H3PATH\H3PATH.CPP
E:\DEV\__REPOSITORY__\_H3ERA_PLUGINS_\BETTER_SPELLS_SUPPORT\BETTER_SPELLS_SUPPORT\H3API\LIB\H3API\H3_RMG.HPP
E:\DEV\__REPOSITORY__\_H3ERA_PLUGINS_\BETTER_SPELLS_SUPPORT\BETTER_SPELLS_SUPPORT\H3API\LIB\H3API\H3RMG\H3RMG.HPP
E:\DEV\__REPOSITORY__\_H3ERA_PLUGINS_\BETTER_SPELLS_SUPPORT\BETTER_SPELLS_SUPPORT\H3API\LIB\H3API\H3RMG\H3RMG.INL
E:\DEV\__REPOSITORY__\_H3ERA_PLUGINS_\BETTER_SPELLS_SUPPORT\BETTER_SPELLS_SUPPORT\H3API\LIB\H3API\H3RMG\H3RMG.CPP
E:\DEV\__REPOSITORY__\_H3ERA_PLUGINS_\BETTER_SPELLS_SUPPORT\BETTER_SPELLS_SUPPORT\H3API\LIB\H3API\H3_VERSION.HPP
E:\DEV\__REPOSITORY__\_H3ERA_PLUGINS_\BETTER_SPELLS_SUPPORT\BETTER_SPELLS_SUPPORT\H3API\LIB\PATCHER_X86.HPP
