^E:\DEV\__REPOSITORY__\_H3ERA_PLUGINS_\NEW_ADVMAP_OBJECTS\NEW_ADVMAP_OBJECTS\PCH.CPP
E:\DEV\__REPOSITORY__\_H3ERA_PLUGINS_\NEW_ADVMAP_OBJECTS\NEW_ADVMAP_OBJECTS\RELEASE\NEW_ADVMAP_OBJECTS.PCH
E:\DEV\__REPOSITORY__\_H3ERA_PLUGINS_\NEW_ADVMAP_OBJECTS\NEW_ADVMAP_OBJECTS\RELEASE\VC141.PDB
E:\DEV\__REPOSITORY__\_H3ERA_PLUGINS_\NEW_ADVMAP_OBJECTS\NEW_ADVMAP_OBJECTS\RELEASE\PCH.OBJ
^E:\DEV\__REPOSITORY__\_H3ERA_PLUGINS_\NEW_ADVMAP_OBJECTS\NEW_ADVMAP_OBJECTS\DLLMAIN.CPP
E:\DEV\__REPOSITORY__\_H3ERA_PLUGINS_\NEW_ADVMAP_OBJECTS\NEW_ADVMAP_OBJECTS\RELEASE\VC141.PDB
E:\DEV\__REPOSITORY__\_H3ERA_PLUGINS_\NEW_ADVMAP_OBJECTS\NEW_ADVMAP_OBJECTS\RELEASE\DLLMAIN.OBJ
