^E:\DEV\__REPOSITORY__\_H3ERA_PLUGINS_\NEW_ADVMAP_OBJECTS\NEW_ADVMAP_OBJECTS\RELEASE\DLLMAIN.OBJ|E:\DEV\__REPOSITORY__\_H3ERA_PLUGINS_\NEW_ADVMAP_OBJECTS\NEW_ADVMAP_OBJECTS\RELEASE\PCH.OBJ
E:\DEV\__REPOSITORY__\_H3ERA_PLUGINS_\NEW_ADVMAP_OBJECTS\NEW_ADVMAP_OBJECTS\RELEASE\NEW_ADVMAP_OBJECTS.ERA
E:\DEV\__REPOSITORY__\_H3ERA_PLUGINS_\NEW_ADVMAP_OBJECTS\NEW_ADVMAP_OBJECTS\RELEASE\NEW_ADVMAP_OBJECTS.PDB
