^E:\DEV\__REPOSITORY__\_H3ERA_PLUGINS_\_HD_MOD_\SAMPLE_DLL\SAMPLE_DLL\RELEASE\DLLMAIN.OBJ|E:\DEV\__REPOSITORY__\_H3ERA_PLUGINS_\_HD_MOD_\SAMPLE_DLL\SAMPLE_DLL\RELEASE\PCH.OBJ
E:\DEV\__REPOSITORY__\_H3ERA_PLUGINS_\_HD_MOD_\SAMPLE_DLL\SAMPLE_DLL\RELEASE\SAMPLE_DLL.DLL
E:\DEV\__REPOSITORY__\_H3ERA_PLUGINS_\_HD_MOD_\SAMPLE_DLL\SAMPLE_DLL\RELEASE\SAMPLE_DLL.PDB
