^E:\DEV\__REPOSITORY__\_H3ERA_PLUGINS_\_HD_MOD_\SAMPLE_DLL\SAMPLE_DLL\X64\DEBUG\DLLMAIN.OBJ|E:\DEV\__REPOSITORY__\_H3ERA_PLUGINS_\_HD_MOD_\SAMPLE_DLL\SAMPLE_DLL\X64\DEBUG\PCH.OBJ
D:\WINDOWS KITS\10\LIB\10.0.22621.0\UM\X64\KERNEL32.LIB
D:\WINDOWS KITS\10\LIB\10.0.22621.0\UM\X64\USER32.LIB
D:\WINDOWS KITS\10\LIB\10.0.22621.0\UM\X64\GDI32.LIB
D:\WINDOWS KITS\10\LIB\10.0.22621.0\UM\X64\WINSPOOL.LIB
D:\WINDOWS KITS\10\LIB\10.0.22621.0\UM\X64\COMDLG32.LIB
D:\WINDOWS KITS\10\LIB\10.0.22621.0\UM\X64\ADVAPI32.LIB
D:\WINDOWS KITS\10\LIB\10.0.22621.0\UM\X64\SHELL32.LIB
D:\WINDOWS KITS\10\LIB\10.0.22621.0\UM\X64\OLE32.LIB
D:\WINDOWS KITS\10\LIB\10.0.22621.0\UM\X64\OLEAUT32.LIB
D:\WINDOWS KITS\10\LIB\10.0.22621.0\UM\X64\UUID.LIB
D:\WINDOWS KITS\10\LIB\10.0.22621.0\UM\X64\ODBC32.LIB
D:\WINDOWS KITS\10\LIB\10.0.22621.0\UM\X64\ODBCCP32.LIB
E:\DEV\__REPOSITORY__\_H3ERA_PLUGINS_\_HD_MOD_\SAMPLE_DLL\SAMPLE_DLL\X64\DEBUG\DLLMAIN.OBJ
E:\DEV\__REPOSITORY__\_H3ERA_PLUGINS_\_HD_MOD_\SAMPLE_DLL\SAMPLE_DLL\X64\DEBUG\PCH.OBJ
C:\WINDOWS\SYSTEM32\TZRES.DLL
C:\WINDOWS\GLOBALIZATION\SORTING\SORTDEFAULT.NLS
C:\PROGRAM FILES\MICROSOFT VISUAL STUDIO\2022\COMMUNITY\VC\TOOLS\MSVC\14.38.33130\LIB\X64\MSVCRTD.LIB
C:\PROGRAM FILES\MICROSOFT VISUAL STUDIO\2022\COMMUNITY\VC\TOOLS\MSVC\14.38.33130\LIB\X64\OLDNAMES.LIB
C:\PROGRAM FILES\MICROSOFT VISUAL STUDIO\2022\COMMUNITY\VC\TOOLS\MSVC\14.38.33130\LIB\X64\VCRUNTIMED.LIB
D:\WINDOWS KITS\10\LIB\10.0.22621.0\UCRT\X64\UCRTD.LIB
C:\PROGRAM FILES\MICROSOFT VISUAL STUDIO\2022\COMMUNITY\VC\TOOLS\MSVC\14.38.33130\BIN\HOSTX64\X64\CVTRES.EXE
E:\DEV\__REPOSITORY__\_H3ERA_PLUGINS_\_HD_MOD_\SAMPLE_DLL\SAMPLE_DLL\X64\DEBUG\VC143.PDB
