^E:\DEV\__REPOSITORY__\_H3ERA_PLUGINS_\_HD_MOD_\SOD_MORE_VIDEOS\SOD_MORE_VIDEOS\RELEASE\DLLMAIN.OBJ|E:\DEV\__REPOSITORY__\_H3ERA_PLUGINS_\_HD_MOD_\SOD_MORE_VIDEOS\SOD_MORE_VIDEOS\RELEASE\PCH.OBJ
D:\WINDOWS KITS\10\LIB\10.0.19041.0\UM\X86\KERNEL32.LIB
D:\WINDOWS KITS\10\LIB\10.0.19041.0\UM\X86\USER32.LIB
D:\WINDOWS KITS\10\LIB\10.0.19041.0\UM\X86\GDI32.LIB
D:\WINDOWS KITS\10\LIB\10.0.19041.0\UM\X86\WINSPOOL.LIB
D:\WINDOWS KITS\10\LIB\10.0.19041.0\UM\X86\COMDLG32.LIB
D:\WINDOWS KITS\10\LIB\10.0.19041.0\UM\X86\ADVAPI32.LIB
D:\WINDOWS KITS\10\LIB\10.0.19041.0\UM\X86\SHELL32.LIB
D:\WINDOWS KITS\10\LIB\10.0.19041.0\UM\X86\OLE32.LIB
D:\WINDOWS KITS\10\LIB\10.0.19041.0\UM\X86\OLEAUT32.LIB
D:\WINDOWS KITS\10\LIB\10.0.19041.0\UM\X86\UUID.LIB
D:\WINDOWS KITS\10\LIB\10.0.19041.0\UM\X86\ODBC32.LIB
D:\WINDOWS KITS\10\LIB\10.0.19041.0\UM\X86\ODBCCP32.LIB
E:\DEV\__REPOSITORY__\_H3ERA_PLUGINS_\_HD_MOD_\SOD_MORE_VIDEOS\SOD_MORE_VIDEOS\RELEASE\DLLMAIN.OBJ
E:\DEV\__REPOSITORY__\_H3ERA_PLUGINS_\_HD_MOD_\SOD_MORE_VIDEOS\SOD_MORE_VIDEOS\RELEASE\PCH.OBJ
C:\WINDOWS\GLOBALIZATION\SORTING\SORTDEFAULT.NLS
C:\PROGRAM FILES (X86)\MICROSOFT VISUAL STUDIO\2019\COMMUNITY\VC\TOOLS\MSVC\14.28.29910\BIN\HOSTX86\X86\C2.DLL
C:\PROGRAM FILES (X86)\MICROSOFT VISUAL STUDIO\2019\COMMUNITY\VC\TOOLS\MSVC\14.28.29910\LIB\X86\MSVCRT.LIB
C:\PROGRAM FILES (X86)\MICROSOFT VISUAL STUDIO\2019\COMMUNITY\VC\TOOLS\MSVC\14.28.29910\LIB\X86\OLDNAMES.LIB
C:\PROGRAM FILES (X86)\MICROSOFT VISUAL STUDIO\2019\COMMUNITY\VC\TOOLS\MSVC\14.28.29910\LIB\X86\VCRUNTIME.LIB
D:\WINDOWS KITS\10\LIB\10.0.19041.0\UCRT\X86\UCRT.LIB
C:\PROGRAM FILES (X86)\MICROSOFT VISUAL STUDIO\2019\COMMUNITY\VC\TOOLS\MSVC\14.28.29910\BIN\HOSTX86\X86\1033\LINKUI.DLL
C:\PROGRAM FILES (X86)\MICROSOFT VISUAL STUDIO\2019\COMMUNITY\VC\TOOLS\MSVC\14.28.29910\BIN\HOSTX86\X86\CVTRES.EXE
C:\WINDOWS\SYSTEM32\TZRES.DLL
