^E:\DEV\__REPOSITORY__\_h3era_Plugins_\_HD_MOD_\SOD_more_Videos\SOD_more_Videos\SOD_more_Videos.vcxproj
E:\DEV\__REPOSITORY__\_h3era_Plugins_\_HD_MOD_\SOD_more_Videos\SOD_more_Videos\Release\SOD_more_Videos.ipdb
E:\DEV\__REPOSITORY__\_h3era_Plugins_\_HD_MOD_\SOD_more_Videos\SOD_more_Videos\Release\SOD_more_Videos.iobj
^E:\DEV\__REPOSITORY__\_h3era_Plugins_\_HD_MOD_\SOD_more_Videos\SOD_more_Videos\SOD_more_Videos.vcxproj
E:\DEV\__REPOSITORY__\_h3era_Plugins_\_HD_MOD_\SOD_more_Videos\SOD_more_Videos\Release\SOD_more_Videos.ipdb
E:\DEV\__REPOSITORY__\_h3era_Plugins_\_HD_MOD_\SOD_more_Videos\SOD_more_Videos\Release\SOD_more_Videos.iobj
^E:\DEV\__REPOSITORY__\_h3era_Plugins_\_HD_MOD_\SOD_more_Videos\SOD_more_Videos\SOD_more_Videos.vcxproj
E:\DEV\__REPOSITORY__\_h3era_Plugins_\_HD_MOD_\SOD_more_Videos\SOD_more_Videos\Release\SOD_more_Videos.ipdb
E:\DEV\__REPOSITORY__\_h3era_Plugins_\_HD_MOD_\SOD_more_Videos\SOD_more_Videos\Release\SOD_more_Videos.iobj
^E:\DEV\__REPOSITORY__\_h3era_Plugins_\_HD_MOD_\SOD_more_Videos\SOD_more_Videos\SOD_more_Videos.vcxproj
E:\DEV\__REPOSITORY__\_h3era_Plugins_\_HD_MOD_\SOD_more_Videos\SOD_more_Videos\Release\SOD_more_Videos.ipdb
E:\DEV\__REPOSITORY__\_h3era_Plugins_\_HD_MOD_\SOD_more_Videos\SOD_more_Videos\Release\SOD_more_Videos.iobj
^E:\DEV\__REPOSITORY__\_h3era_Plugins_\_HD_MOD_\SOD_more_Videos\SOD_more_Videos\SOD_more_Videos.vcxproj
E:\DEV\__REPOSITORY__\_h3era_Plugins_\_HD_MOD_\SOD_more_Videos\SOD_more_Videos\Release\SOD_more_Videos.ipdb
E:\DEV\__REPOSITORY__\_h3era_Plugins_\_HD_MOD_\SOD_more_Videos\SOD_more_Videos\Release\SOD_more_Videos.iobj
^E:\DEV\__REPOSITORY__\_h3era_Plugins_\_HD_MOD_\SOD_more_Videos\SOD_more_Videos\SOD_more_Videos.vcxproj
E:\DEV\__REPOSITORY__\_h3era_Plugins_\_HD_MOD_\SOD_more_Videos\SOD_more_Videos\Release\SOD_more_Videos.ipdb
E:\DEV\__REPOSITORY__\_h3era_Plugins_\_HD_MOD_\SOD_more_Videos\SOD_more_Videos\Release\SOD_more_Videos.iobj
^E:\DEV\__REPOSITORY__\_h3era_Plugins_\_HD_MOD_\SOD_more_Videos\SOD_more_Videos\SOD_more_Videos.vcxproj
E:\DEV\__REPOSITORY__\_h3era_Plugins_\_HD_MOD_\SOD_more_Videos\SOD_more_Videos\Release\SOD_more_Videos.ipdb
E:\DEV\__REPOSITORY__\_h3era_Plugins_\_HD_MOD_\SOD_more_Videos\SOD_more_Videos\Release\SOD_more_Videos.iobj
^E:\DEV\__REPOSITORY__\_h3era_Plugins_\_HD_MOD_\SOD_more_Videos\SOD_more_Videos\SOD_more_Videos.vcxproj
E:\DEV\__REPOSITORY__\_h3era_Plugins_\_HD_MOD_\SOD_more_Videos\SOD_more_Videos\Release\SOD_more_Videos.ipdb
E:\DEV\__REPOSITORY__\_h3era_Plugins_\_HD_MOD_\SOD_more_Videos\SOD_more_Videos\Release\SOD_more_Videos.iobj
^E:\DEV\__REPOSITORY__\_h3era_Plugins_\_HD_MOD_\SOD_more_Videos\SOD_more_Videos\SOD_more_Videos.vcxproj
E:\DEV\__REPOSITORY__\_h3era_Plugins_\_HD_MOD_\SOD_more_Videos\SOD_more_Videos\Release\SOD_more_Videos.ipdb
E:\DEV\__REPOSITORY__\_h3era_Plugins_\_HD_MOD_\SOD_more_Videos\SOD_more_Videos\Release\SOD_more_Videos.iobj
^E:\DEV\__REPOSITORY__\_h3era_Plugins_\_HD_MOD_\SOD_more_Videos\SOD_more_Videos\SOD_more_Videos.vcxproj
E:\DEV\__REPOSITORY__\_h3era_Plugins_\_HD_MOD_\SOD_more_Videos\SOD_more_Videos\Release\SOD_more_Videos.ipdb
E:\DEV\__REPOSITORY__\_h3era_Plugins_\_HD_MOD_\SOD_more_Videos\SOD_more_Videos\Release\SOD_more_Videos.iobj
^E:\DEV\__REPOSITORY__\_h3era_Plugins_\_HD_MOD_\SOD_more_Videos\SOD_more_Videos\SOD_more_Videos.vcxproj
E:\DEV\__REPOSITORY__\_h3era_Plugins_\_HD_MOD_\SOD_more_Videos\SOD_more_Videos\Release\SOD_more_Videos.ipdb
E:\DEV\__REPOSITORY__\_h3era_Plugins_\_HD_MOD_\SOD_more_Videos\SOD_more_Videos\Release\SOD_more_Videos.iobj
^E:\DEV\__REPOSITORY__\_h3era_Plugins_\_HD_MOD_\SOD_more_Videos\SOD_more_Videos\SOD_more_Videos.vcxproj
E:\DEV\__REPOSITORY__\_h3era_Plugins_\_HD_MOD_\SOD_more_Videos\SOD_more_Videos\Release\SOD_more_Videos.ipdb
E:\DEV\__REPOSITORY__\_h3era_Plugins_\_HD_MOD_\SOD_more_Videos\SOD_more_Videos\Release\SOD_more_Videos.iobj
^E:\DEV\__REPOSITORY__\_h3era_Plugins_\_HD_MOD_\SOD_more_Videos\SOD_more_Videos\SOD_more_Videos.vcxproj
E:\DEV\__REPOSITORY__\_h3era_Plugins_\_HD_MOD_\SOD_more_Videos\SOD_more_Videos\Release\SOD_more_Videos.ipdb
E:\DEV\__REPOSITORY__\_h3era_Plugins_\_HD_MOD_\SOD_more_Videos\SOD_more_Videos\Release\SOD_more_Videos.iobj
^E:\DEV\__REPOSITORY__\_h3era_Plugins_\_HD_MOD_\SOD_more_Videos\SOD_more_Videos\SOD_more_Videos.vcxproj
E:\DEV\__REPOSITORY__\_h3era_Plugins_\_HD_MOD_\SOD_more_Videos\SOD_more_Videos\Release\SOD_more_Videos.ipdb
E:\DEV\__REPOSITORY__\_h3era_Plugins_\_HD_MOD_\SOD_more_Videos\SOD_more_Videos\Release\SOD_more_Videos.iobj
^E:\DEV\__REPOSITORY__\_h3era_Plugins_\_HD_MOD_\SOD_more_Videos\SOD_more_Videos\SOD_more_Videos.vcxproj
E:\DEV\__REPOSITORY__\_h3era_Plugins_\_HD_MOD_\SOD_more_Videos\SOD_more_Videos\Release\SOD_more_Videos.ipdb
E:\DEV\__REPOSITORY__\_h3era_Plugins_\_HD_MOD_\SOD_more_Videos\SOD_more_Videos\Release\SOD_more_Videos.iobj
^E:\DEV\__REPOSITORY__\_h3era_Plugins_\_HD_MOD_\SOD_more_Videos\SOD_more_Videos\SOD_more_Videos.vcxproj
E:\DEV\__REPOSITORY__\_h3era_Plugins_\_HD_MOD_\SOD_more_Videos\SOD_more_Videos\Release\SOD_more_Videos.ipdb
E:\DEV\__REPOSITORY__\_h3era_Plugins_\_HD_MOD_\SOD_more_Videos\SOD_more_Videos\Release\SOD_more_Videos.iobj
^E:\DEV\__REPOSITORY__\_h3era_Plugins_\_HD_MOD_\SOD_more_Videos\SOD_more_Videos\SOD_more_Videos.vcxproj
E:\DEV\__REPOSITORY__\_h3era_Plugins_\_HD_MOD_\SOD_more_Videos\SOD_more_Videos\Release\SOD_more_Videos.ipdb
E:\DEV\__REPOSITORY__\_h3era_Plugins_\_HD_MOD_\SOD_more_Videos\SOD_more_Videos\Release\SOD_more_Videos.iobj
^E:\DEV\__REPOSITORY__\_h3era_Plugins_\_HD_MOD_\SOD_more_Videos\SOD_more_Videos\SOD_more_Videos.vcxproj
E:\DEV\__REPOSITORY__\_h3era_Plugins_\_HD_MOD_\SOD_more_Videos\SOD_more_Videos\Release\SOD_more_Videos.ipdb
E:\DEV\__REPOSITORY__\_h3era_Plugins_\_HD_MOD_\SOD_more_Videos\SOD_more_Videos\Release\SOD_more_Videos.iobj
^E:\DEV\__REPOSITORY__\_h3era_Plugins_\_HD_MOD_\SOD_more_Videos\SOD_more_Videos\SOD_more_Videos.vcxproj
E:\DEV\__REPOSITORY__\_h3era_Plugins_\_HD_MOD_\SOD_more_Videos\SOD_more_Videos\Release\SOD_more_Videos.ipdb
E:\DEV\__REPOSITORY__\_h3era_Plugins_\_HD_MOD_\SOD_more_Videos\SOD_more_Videos\Release\SOD_more_Videos.iobj
^E:\DEV\__REPOSITORY__\_h3era_Plugins_\_HD_MOD_\SOD_more_Videos\SOD_more_Videos\SOD_more_Videos.vcxproj
E:\DEV\__REPOSITORY__\_h3era_Plugins_\_HD_MOD_\SOD_more_Videos\SOD_more_Videos\Release\SOD_more_Videos.ipdb
E:\DEV\__REPOSITORY__\_h3era_Plugins_\_HD_MOD_\SOD_more_Videos\SOD_more_Videos\Release\SOD_more_Videos.iobj
^E:\DEV\__REPOSITORY__\_h3era_Plugins_\_HD_MOD_\SOD_more_Videos\SOD_more_Videos\SOD_more_Videos.vcxproj
E:\DEV\__REPOSITORY__\_h3era_Plugins_\_HD_MOD_\SOD_more_Videos\SOD_more_Videos\Release\SOD_more_Videos.ipdb
E:\DEV\__REPOSITORY__\_h3era_Plugins_\_HD_MOD_\SOD_more_Videos\SOD_more_Videos\Release\SOD_more_Videos.iobj
^E:\DEV\__REPOSITORY__\_h3era_Plugins_\_HD_MOD_\SOD_more_Videos\SOD_more_Videos\SOD_more_Videos.vcxproj
E:\DEV\__REPOSITORY__\_h3era_Plugins_\_HD_MOD_\SOD_more_Videos\SOD_more_Videos\Release\SOD_more_Videos.ipdb
E:\DEV\__REPOSITORY__\_h3era_Plugins_\_HD_MOD_\SOD_more_Videos\SOD_more_Videos\Release\SOD_more_Videos.iobj
^E:\DEV\__REPOSITORY__\_h3era_Plugins_\_HD_MOD_\SOD_more_Videos\SOD_more_Videos\SOD_more_Videos.vcxproj
E:\DEV\__REPOSITORY__\_h3era_Plugins_\_HD_MOD_\SOD_more_Videos\SOD_more_Videos\Release\SOD_more_Videos.ipdb
E:\DEV\__REPOSITORY__\_h3era_Plugins_\_HD_MOD_\SOD_more_Videos\SOD_more_Videos\Release\SOD_more_Videos.iobj
^E:\DEV\__REPOSITORY__\_h3era_Plugins_\_HD_MOD_\SOD_more_Videos\SOD_more_Videos\SOD_more_Videos.vcxproj
E:\DEV\__REPOSITORY__\_h3era_Plugins_\_HD_MOD_\SOD_more_Videos\SOD_more_Videos\Release\SOD_more_Videos.ipdb
E:\DEV\__REPOSITORY__\_h3era_Plugins_\_HD_MOD_\SOD_more_Videos\SOD_more_Videos\Release\SOD_more_Videos.iobj
^E:\DEV\__REPOSITORY__\_h3era_Plugins_\_HD_MOD_\SOD_more_Videos\SOD_more_Videos\SOD_more_Videos.vcxproj
E:\DEV\__REPOSITORY__\_h3era_Plugins_\_HD_MOD_\SOD_more_Videos\SOD_more_Videos\Release\SOD_more_Videos.ipdb
E:\DEV\__REPOSITORY__\_h3era_Plugins_\_HD_MOD_\SOD_more_Videos\SOD_more_Videos\Release\SOD_more_Videos.iobj
^E:\DEV\__REPOSITORY__\_h3era_Plugins_\_HD_MOD_\SOD_more_Videos\SOD_more_Videos\SOD_more_Videos.vcxproj
E:\DEV\__REPOSITORY__\_h3era_Plugins_\_HD_MOD_\SOD_more_Videos\SOD_more_Videos\Release\SOD_more_Videos.ipdb
E:\DEV\__REPOSITORY__\_h3era_Plugins_\_HD_MOD_\SOD_more_Videos\SOD_more_Videos\Release\SOD_more_Videos.iobj
