^E:\DEV\__REPOSITORY__\_H3ERA_PLUGINS_\SKIRMISH2\SKIRMISH\DEBUG\.NETFRAMEWORK,VERSION=V4.7.2.ASSEMBLYATTRIBUTES.OBJ|E:\DEV\__REPOSITORY__\_H3ERA_PLUGINS_\SKIRMISH2\SKIRMISH\DEBUG\DLLMAIN.OBJ|E:\DEV\__REPOSITORY__\_H3ERA_PLUGINS_\SKIRMISH2\SKIRMISH\DEBUG\HEROES.OBJ|E:\DEV\__REPOSITORY__\_H3ERA_PLUGINS_\SKIRMISH2\SKIRMISH\DEBUG\MYFORM.OBJ
E:\DEV\__REPOSITORY__\_H3ERA_PLUGINS_\SKIRMISH2\SKIRMISH\DEBUG\SKIRMISH.ERA
E:\DEV\__REPOSITORY__\_H3ERA_PLUGINS_\SKIRMISH2\SKIRMISH\DEBUG\SKIRMISH.PDB
