^E:\DEV\__REPOSITORY__\_h3era_Plugins_\KK_Text\KK_Text_Plugin\KK_Text_Plugin.vcxproj
E:\DEV\__REPOSITORY__\_h3era_Plugins_\KK_Text\KK_Text_Plugin\Debug\KK_Text_Plugin.lib
E:\DEV\__REPOSITORY__\_h3era_Plugins_\KK_Text\KK_Text_Plugin\Debug\KK_Text_Plugin.exp
^E:\DEV\__REPOSITORY__\_h3era_Plugins_\KK_Text\KK_Text_Plugin\KK_Text_Plugin.vcxproj
E:\DEV\__REPOSITORY__\_h3era_Plugins_\KK_Text\KK_Text_Plugin\Debug\KK_Text_Plugin.lib
E:\DEV\__REPOSITORY__\_h3era_Plugins_\KK_Text\KK_Text_Plugin\Debug\KK_Text_Plugin.exp
