100 100 100 100
150 125 100 100
100 100 100 100
150 125 100 100
175 150 125 100 
125 100 100 100
100 100 100 100
100 100 100 100
100 100 100 100
0	0	0	0
75	75	75	75
65	65	65	65
50	50	50	50
