﻿C:\Program Files\Microsoft Visual Studio\2022\Community\MSBuild\Microsoft\VC\v170\Microsoft.CppBuild.targets(517,5): warning MSB8004: Output Directory does not end with a trailing slash.  This build instance will add the slash as it is required to allow proper evaluation of the Output Directory.
  DrawPcx16ResizedBicubic.cpp
  era.cpp
  dllmain.cpp
  ChestExtender.cpp
  ColosseumOfTheMagiExtender.cpp
  CreatureBanksExtender.cpp
  GazeboExtender.cpp
  ShrinesExternder.cpp
  UtopiasExtender.cpp
  WarehousesExtender.cpp
  WateringPlaceExtender.cpp
  WoGObjectsExtender.cpp
E:\DEV\__REPOSITORY__\_h3era_plugins_\Daemon_N\RMG_CustomizeObjectProperties\ObjectExtenders\WoGObjectsExtender.cpp(44,26): warning C4018: '<': signed/unsigned mismatch
  ObjectsExtender.cpp
E:\DEV\__REPOSITORY__\_h3era_plugins_\Daemon_N\RMG_CustomizeObjectProperties\ObjectsExtender.cpp(178,48): warning C4018: '<': signed/unsigned mismatch
  RMGObjectsEditor.cpp
E:\DEV\__REPOSITORY__\_h3era_plugins_\Daemon_N\RMG_CustomizeObjectProperties\RMGObjectsEditor.cpp(689,20): warning C4018: '>=': signed/unsigned mismatch
E:\DEV\__REPOSITORY__\_h3era_plugins_\Daemon_N\RMG_CustomizeObjectProperties\RMGObjectsEditor.cpp(750,48): warning C4018: '<': signed/unsigned mismatch
  RMG_SettingsDlg.cpp
E:\DEV\__REPOSITORY__\_h3era_plugins_\Daemon_N\RMG_CustomizeObjectProperties\RMG_SettingsDlg.cpp(1307,28): warning C4244: 'initializing': conversion from 'double' to 'float', possible loss of data
  SoundManager.cpp
E:\DEV\__REPOSITORY__\_h3era_plugins_\Daemon_N\RMG_CustomizeObjectProperties\SoundManager.cpp(137,21): warning C4018: '<': signed/unsigned mismatch
E:\DEV\__REPOSITORY__\_h3era_plugins_\Daemon_N\RMG_CustomizeObjectProperties\SoundManager.cpp(176,22): warning C4018: '<': signed/unsigned mismatch
E:\DEV\__REPOSITORY__\_h3era_plugins_\Daemon_N\RMG_CustomizeObjectProperties\SoundManager.cpp(186,62): warning C4018: '<': signed/unsigned mismatch
     Creating library .\Release\RMG_CustomizeObjectProperties.lib and object .\Release\RMG_CustomizeObjectProperties.exp
  Generating code
  Not all modules are compiled with -Gy (function comdat), build without incremental LTCG.
  Finished generating code
  RMG_CustomizeObjectProperties.vcxproj -> E:\DEV\__REPOSITORY__\_h3era_plugins_\Daemon_N\RMG_CustomizeObjectProperties\Release\RMG_CustomizeObjectProperties.era
