^C:\DEV\__REPOSITORY__\_H3ERA_PLUGINS_\NEW_WAR_MACHINES\HEROES.CPP
/c /Zi /nologo /W3 /WX- /diagnostics:column /sdl /O2 /Oi /Oy- /D _WINDLL /D _MBCS /Gm- /EHsc /MT /GS /Gy /fp:precise /Zc:wchar_t /Zc:forScope /Zc:inline /Fo"RELEASE\\" /Fd"RELEASE\VC142.PDB" /Gd /TP /wd4996 /analyze- /FC C:\DEV\__REPOSITORY__\_H3ERA_PLUGINS_\NEW_WAR_MACHINES\HEROES.CPP
^C:\DEV\__REPOSITORY__\_H3ERA_PLUGINS_\NEW_WAR_MACHINES\PUTSTACK.CPP
/c /Zi /nologo /W3 /WX- /diagnostics:column /sdl /O2 /Oi /Oy- /D _WINDLL /D _MBCS /Gm- /EHsc /MT /GS /Gy /fp:precise /Zc:wchar_t /Zc:forScope /Zc:inline /Fo"RELEASE\\" /Fd"RELEASE\VC142.PDB" /Gd /TP /wd4996 /analyze- /FC C:\DEV\__REPOSITORY__\_H3ERA_PLUGINS_\NEW_WAR_MACHINES\PUTSTACK.CPP
^C:\DEV\__REPOSITORY__\_H3ERA_PLUGINS_\NEW_WAR_MACHINES\MACHINES.CPP
/c /Zi /nologo /W3 /WX- /diagnostics:column /sdl /O2 /Oi /Oy- /D _WINDLL /D _MBCS /Gm- /EHsc /MT /GS /Gy /fp:precise /Zc:wchar_t /Zc:forScope /Zc:inline /Fo"RELEASE\\" /Fd"RELEASE\VC142.PDB" /Gd /TP /wd4996 /analyze- /FC C:\DEV\__REPOSITORY__\_H3ERA_PLUGINS_\NEW_WAR_MACHINES\MACHINES.CPP
^E:\DEV\__REPOSITORY__\_H3ERA_PLUGINS_\NEW_WAR_MACHINES\PUTSTACK.CPP
/c /Zi /nologo /W3 /WX- /diagnostics:classic /sdl /O2 /Oi /Oy- /D _USING_V110_SDK71_ /D _WINDLL /D _MBCS /Gm- /EHsc /MT /GS /Gy /fp:precise /Zc:wchar_t /Zc:forScope /Zc:inline /Fo"RELEASE\\" /Fd"RELEASE\VC141.PDB" /Gd /TP /wd4996 /analyze- /FC E:\DEV\__REPOSITORY__\_H3ERA_PLUGINS_\NEW_WAR_MACHINES\PUTSTACK.CPP
^E:\DEV\__REPOSITORY__\_H3ERA_PLUGINS_\NEW_WAR_MACHINES\HEROES.CPP
/c /Zi /nologo /W3 /WX- /diagnostics:classic /sdl /O2 /Oi /Oy- /D _USING_V110_SDK71_ /D _WINDLL /D _MBCS /Gm- /EHsc /MT /GS /Gy /fp:precise /Zc:wchar_t /Zc:forScope /Zc:inline /Fo"RELEASE\\" /Fd"RELEASE\VC141.PDB" /Gd /TP /wd4996 /analyze- /FC E:\DEV\__REPOSITORY__\_H3ERA_PLUGINS_\NEW_WAR_MACHINES\HEROES.CPP
^E:\DEV\__REPOSITORY__\_H3ERA_PLUGINS_\NEW_WAR_MACHINES\MACHINES.CPP
/c /Zi /nologo /W3 /WX- /diagnostics:classic /sdl /O2 /Oi /Oy- /D _USING_V110_SDK71_ /D _WINDLL /D _MBCS /Gm- /EHsc /MT /GS /Gy /fp:precise /Zc:wchar_t /Zc:forScope /Zc:inline /Fo"RELEASE\\" /Fd"RELEASE\VC141.PDB" /Gd /TP /wd4996 /analyze- /FC E:\DEV\__REPOSITORY__\_H3ERA_PLUGINS_\NEW_WAR_MACHINES\MACHINES.CPP
^E:\DEV\__REPOSITORY__\_H3ERA_PLUGINS_\NEW_WAR_MACHINES\PROJECT1\ARTCONFIG.CPP
/c /Zi /nologo /W3 /WX- /diagnostics:classic /sdl /O2 /Oi /Oy- /D _USING_V110_SDK71_ /D _WINDLL /D _MBCS /Gm- /EHsc /MT /GS /Gy /fp:precise /Zc:wchar_t /Zc:forScope /Zc:inline /Fo"RELEASE\\" /Fd"RELEASE\VC141.PDB" /Gd /TP /wd4996 /analyze- /FC E:\DEV\__REPOSITORY__\_H3ERA_PLUGINS_\NEW_WAR_MACHINES\PROJECT1\ARTCONFIG.CPP
