^C:\DEV\__REPOSITORY__\_H3ERA_PLUGINS_\NEW_WAR_MACHINES\PROJECT1\RELEASE\HEROES.OBJ|C:\DEV\__REPOSITORY__\_H3ERA_PLUGINS_\NEW_WAR_MACHINES\PROJECT1\RELEASE\MACHINES.OBJ|C:\DEV\__REPOSITORY__\_H3ERA_PLUGINS_\NEW_WAR_MACHINES\PROJECT1\RELEASE\PUTSTACK.OBJ
/OUT:"C:\DEV\__REPOSITORY__\_H3ERA_PLUGINS_\NEW_WAR_MACHINES\PROJECT1\RELEASE\KNIGHTMARE WAR MACHINES.ERA" /NOLOGO KERNEL32.LIB USER32.LIB GDI32.LIB WINSPOOL.LIB COMDLG32.LIB ADVAPI32.LIB SHELL32.LIB OLE32.LIB OLEAUT32.LIB UUID.LIB ODBC32.LIB ODBCCP32.LIB /MANIFEST /MANIFESTUAC:"level='asInvoker' uiAccess='false'" /manifest:embed /DEBUG:FULL /PDB:"C:\DEV\__REPOSITORY__\_H3ERA_PLUGINS_\NEW_WAR_MACHINES\PROJECT1\RELEASE\KNIGHTMARE WAR MACHINES.PDB" /MAP:"Knightmare War Machines.map" /MAPINFO:EXPORTS /OPT:REF /OPT:ICF /TLBID:1 /DYNAMICBASE /NXCOMPAT:NO /IMPLIB:"C:\DEV\__REPOSITORY__\_H3ERA_PLUGINS_\NEW_WAR_MACHINES\PROJECT1\RELEASE\KNIGHTMARE WAR MACHINES.LIB" /MACHINE:X86 /SAFESEH /DLL RELEASE\HEROES.OBJRELEASE\MACHINES.OBJRELEASE\PUTSTACK.OBJ
^E:\DEV\__REPOSITORY__\_H3ERA_PLUGINS_\NEW_WAR_MACHINES\PROJECT1\RELEASE\ARTCONFIG.OBJ|E:\DEV\__REPOSITORY__\_H3ERA_PLUGINS_\NEW_WAR_MACHINES\PROJECT1\RELEASE\HEROES.OBJ|E:\DEV\__REPOSITORY__\_H3ERA_PLUGINS_\NEW_WAR_MACHINES\PROJECT1\RELEASE\MACHINES.OBJ|E:\DEV\__REPOSITORY__\_H3ERA_PLUGINS_\NEW_WAR_MACHINES\PROJECT1\RELEASE\PUTSTACK.OBJ
/OUT:"E:\DEV\__REPOSITORY__\_H3ERA_PLUGINS_\NEW_WAR_MACHINES\PROJECT1\RELEASE\KNIGHTMARE WAR MACHINES.ERA" /NOLOGO KERNEL32.LIB USER32.LIB GDI32.LIB WINSPOOL.LIB COMDLG32.LIB ADVAPI32.LIB SHELL32.LIB OLE32.LIB OLEAUT32.LIB UUID.LIB ODBC32.LIB ODBCCP32.LIB /MANIFEST /MANIFESTUAC:"level='asInvoker' uiAccess='false'" /manifest:embed /DEBUG:FULL /PDB:"E:\DEV\__REPOSITORY__\_H3ERA_PLUGINS_\NEW_WAR_MACHINES\PROJECT1\RELEASE\KNIGHTMARE WAR MACHINES.PDB" /MAP:"Knightmare War Machines.map" /MAPINFO:EXPORTS /OPT:REF /OPT:ICF /TLBID:1 /DYNAMICBASE /NXCOMPAT:NO /IMPLIB:"E:\DEV\__REPOSITORY__\_H3ERA_PLUGINS_\NEW_WAR_MACHINES\PROJECT1\RELEASE\KNIGHTMARE WAR MACHINES.LIB" /MACHINE:X86 /SAFESEH /DLL RELEASE\HEROES.OBJRELEASE\MACHINES.OBJRELEASE\PUTSTACK.OBJRELEASE\ARTCONFIG.OBJ
