^F:\__REPOSITORY__\_h3era_Plugins_\new_war_machines\Project1\Project1.vcxproj
F:\__REPOSITORY__\_h3era_Plugins_\new_war_machines\Project1\Release\Knightmare War Machines.lib
F:\__REPOSITORY__\_h3era_Plugins_\new_war_machines\Project1\Release\Knightmare War Machines.exp
^F:\__REPOSITORY__\_h3era_Plugins_\new_war_machines\Project1\Project1.vcxproj
F:\__REPOSITORY__\_h3era_Plugins_\new_war_machines\Project1\Release\Knightmare War Machines.lib
F:\__REPOSITORY__\_h3era_Plugins_\new_war_machines\Project1\Release\Knightmare War Machines.exp
^F:\__REPOSITORY__\_h3era_Plugins_\new_war_machines\Project1\Project1.vcxproj
F:\__REPOSITORY__\_h3era_Plugins_\new_war_machines\Project1\Release\Knightmare War Machines.lib
F:\__REPOSITORY__\_h3era_Plugins_\new_war_machines\Project1\Release\Knightmare War Machines.exp
^F:\__REPOSITORY__\_h3era_Plugins_\new_war_machines\Project1\Project1.vcxproj
F:\__REPOSITORY__\_h3era_Plugins_\new_war_machines\Project1\Release\Knightmare War Machines.lib
F:\__REPOSITORY__\_h3era_Plugins_\new_war_machines\Project1\Release\Knightmare War Machines.exp
^F:\__REPOSITORY__\_h3era_Plugins_\new_war_machines\Project1\Project1.vcxproj
F:\__REPOSITORY__\_h3era_Plugins_\new_war_machines\Project1\Release\Knightmare War Machines.lib
F:\__REPOSITORY__\_h3era_Plugins_\new_war_machines\Project1\Release\Knightmare War Machines.exp
^F:\__REPOSITORY__\_h3era_Plugins_\new_war_machines\Project1\Project1.vcxproj
F:\__REPOSITORY__\_h3era_Plugins_\new_war_machines\Project1\Release\Knightmare War Machines.lib
F:\__REPOSITORY__\_h3era_Plugins_\new_war_machines\Project1\Release\Knightmare War Machines.exp
^F:\__REPOSITORY__\_h3era_Plugins_\new_war_machines\Project1\Project1.vcxproj
F:\__REPOSITORY__\_h3era_Plugins_\new_war_machines\Project1\Release\Knightmare War Machines.lib
F:\__REPOSITORY__\_h3era_Plugins_\new_war_machines\Project1\Release\Knightmare War Machines.exp
^F:\__REPOSITORY__\_h3era_Plugins_\new_war_machines\Project1\Project1.vcxproj
F:\__REPOSITORY__\_h3era_Plugins_\new_war_machines\Project1\Release\Knightmare War Machines.lib
F:\__REPOSITORY__\_h3era_Plugins_\new_war_machines\Project1\Release\Knightmare War Machines.exp
