^E:\DEV\__REPOSITORY__\_H3ERA_PLUGINS_\NEW_TOWNS\NEW_TOWNS\PCH.CPP
E:\DEV\__REPOSITORY__\_H3ERA_PLUGINS_\NEW_TOWNS\NEW_TOWNS\DEBUG\NEW_TOWNS.PCH
E:\DEV\__REPOSITORY__\_H3ERA_PLUGINS_\NEW_TOWNS\NEW_TOWNS\DEBUG\VC142.PDB
E:\DEV\__REPOSITORY__\_H3ERA_PLUGINS_\NEW_TOWNS\NEW_TOWNS\DEBUG\VC142.IDB
^E:\DEV\__REPOSITORY__\_H3ERA_PLUGINS_\NEW_TOWNS\NEW_TOWNS\ADVENTURETOWNS.CPP|E:\DEV\__REPOSITORY__\_H3ERA_PLUGINS_\NEW_TOWNS\NEW_TOWNS\BUILDINGSINTOWNS.CPP|E:\DEV\__REPOSITORY__\_H3ERA_PLUGINS_\NEW_TOWNS\NEW_TOWNS\CONFIG.CPP|E:\DEV\__REPOSITORY__\_H3ERA_PLUGINS_\NEW_TOWNS\NEW_TOWNS\HD_MOD_HOOKS.CPP|E:\DEV\__REPOSITORY__\_H3ERA_PLUGINS_\NEW_TOWNS\NEW_TOWNS\MAIN.CPP|E:\DEV\__REPOSITORY__\_H3ERA_PLUGINS_\NEW_TOWNS\NEW_TOWNS\MARKET_OF_TIME_DEFAULT.CPP|E:\DEV\__REPOSITORY__\_H3ERA_PLUGINS_\NEW_TOWNS\NEW_TOWNS\MONSTERSINTOWNS.CPP|E:\DEV\__REPOSITORY__\_H3ERA_PLUGINS_\NEW_TOWNS\NEW_TOWNS\PUTSTACK.CPP|E:\DEV\__REPOSITORY__\_H3ERA_PLUGINS_\NEW_TOWNS\NEW_TOWNS\QUICKUPGRADEINTOWNS.CPP|E:\DEV\__REPOSITORY__\_H3ERA_PLUGINS_\NEW_TOWNS\NEW_TOWNS\REMAPBUILDINGS.CPP|E:\DEV\__REPOSITORY__\_H3ERA_PLUGINS_\NEW_TOWNS\NEW_TOWNS\SIEGEINTOWNS.CPP|E:\DEV\__REPOSITORY__\_H3ERA_PLUGINS_\NEW_TOWNS\NEW_TOWNS\TOWNDEFENDER.CPP|E:\DEV\__REPOSITORY__\_H3ERA_PLUGINS_\NEW_TOWNS\NEW_TOWNS\TOWNDEPENDENCIES.CPP|E:\DEV\__REPOSITORY__\_H3ERA_PLUGINS_\NEW_TOWNS\NEW_TOWNS\TOWNINFODLG.CPP|E:\DEV\__REPOSITORY__\_H3ERA_PLUGINS_\NEW_TOWNS\NEW_TOWNS\TOWNSHOOKS.CPP|E:\DEV\__REPOSITORY__\_H3ERA_PLUGINS_\NEW_TOWNS\NEW_TOWNS\TOWNSNUMTABLES.CPP|E:\DEV\__REPOSITORY__\_H3ERA_PLUGINS_\NEW_TOWNS\NEW_TOWNS\TOWNSTEXT.CPP|E:\DEV\__REPOSITORY__\_H3ERA_PLUGINS_\NEW_TOWNS\NEW_TOWNS\TOWN_CLICKER.CPP
E:\DEV\__REPOSITORY__\_H3ERA_PLUGINS_\NEW_TOWNS\NEW_TOWNS\DEBUG\VC141.PDB
E:\DEV\__REPOSITORY__\_H3ERA_PLUGINS_\NEW_TOWNS\NEW_TOWNS\DEBUG\VC141.IDB
E:\DEV\__REPOSITORY__\_H3ERA_PLUGINS_\NEW_TOWNS\NEW_TOWNS\DEBUG\TOWN_CLICKER.OBJ
E:\DEV\__REPOSITORY__\_H3ERA_PLUGINS_\NEW_TOWNS\NEW_TOWNS\DEBUG\TOWNSTEXT.OBJ
E:\DEV\__REPOSITORY__\_H3ERA_PLUGINS_\NEW_TOWNS\NEW_TOWNS\DEBUG\TOWNSNUMTABLES.OBJ
E:\DEV\__REPOSITORY__\_H3ERA_PLUGINS_\NEW_TOWNS\NEW_TOWNS\DEBUG\TOWNSHOOKS.OBJ
E:\DEV\__REPOSITORY__\_H3ERA_PLUGINS_\NEW_TOWNS\NEW_TOWNS\DEBUG\TOWNINFODLG.OBJ
E:\DEV\__REPOSITORY__\_H3ERA_PLUGINS_\NEW_TOWNS\NEW_TOWNS\DEBUG\TOWNDEPENDENCIES.OBJ
E:\DEV\__REPOSITORY__\_H3ERA_PLUGINS_\NEW_TOWNS\NEW_TOWNS\DEBUG\TOWNDEFENDER.OBJ
E:\DEV\__REPOSITORY__\_H3ERA_PLUGINS_\NEW_TOWNS\NEW_TOWNS\DEBUG\SIEGEINTOWNS.OBJ
E:\DEV\__REPOSITORY__\_H3ERA_PLUGINS_\NEW_TOWNS\NEW_TOWNS\DEBUG\REMAPBUILDINGS.OBJ
E:\DEV\__REPOSITORY__\_H3ERA_PLUGINS_\NEW_TOWNS\NEW_TOWNS\DEBUG\QUICKUPGRADEINTOWNS.OBJ
E:\DEV\__REPOSITORY__\_H3ERA_PLUGINS_\NEW_TOWNS\NEW_TOWNS\DEBUG\PUTSTACK.OBJ
E:\DEV\__REPOSITORY__\_H3ERA_PLUGINS_\NEW_TOWNS\NEW_TOWNS\DEBUG\MONSTERSINTOWNS.OBJ
E:\DEV\__REPOSITORY__\_H3ERA_PLUGINS_\NEW_TOWNS\NEW_TOWNS\DEBUG\MARKET_OF_TIME_DEFAULT.OBJ
E:\DEV\__REPOSITORY__\_H3ERA_PLUGINS_\NEW_TOWNS\NEW_TOWNS\DEBUG\MAIN.OBJ
E:\DEV\__REPOSITORY__\_H3ERA_PLUGINS_\NEW_TOWNS\NEW_TOWNS\DEBUG\HD_MOD_HOOKS.OBJ
E:\DEV\__REPOSITORY__\_H3ERA_PLUGINS_\NEW_TOWNS\NEW_TOWNS\DEBUG\CONFIG.OBJ
E:\DEV\__REPOSITORY__\_H3ERA_PLUGINS_\NEW_TOWNS\NEW_TOWNS\DEBUG\BUILDINGSINTOWNS.OBJ
E:\DEV\__REPOSITORY__\_H3ERA_PLUGINS_\NEW_TOWNS\NEW_TOWNS\DEBUG\ADVENTURETOWNS.OBJ
^E:\DEV\__REPOSITORY__\_H3ERA_PLUGINS_\NEW_TOWNS\NEW_TOWNS\ADVENTURETOWNS.CPP
E:\DEV\__REPOSITORY__\_H3ERA_PLUGINS_\NEW_TOWNS\NEW_TOWNS\DEBUG\VC141.PDB
^E:\DEV\__REPOSITORY__\_H3ERA_PLUGINS_\NEW_TOWNS\NEW_TOWNS\BUILDINGSINTOWNS.CPP
E:\DEV\__REPOSITORY__\_H3ERA_PLUGINS_\NEW_TOWNS\NEW_TOWNS\DEBUG\VC141.PDB
^E:\DEV\__REPOSITORY__\_H3ERA_PLUGINS_\NEW_TOWNS\NEW_TOWNS\MAIN.CPP
E:\DEV\__REPOSITORY__\_H3ERA_PLUGINS_\NEW_TOWNS\NEW_TOWNS\DEBUG\VC141.PDB
^E:\DEV\__REPOSITORY__\_H3ERA_PLUGINS_\NEW_TOWNS\NEW_TOWNS\MARKET_OF_TIME_DEFAULT.CPP
E:\DEV\__REPOSITORY__\_H3ERA_PLUGINS_\NEW_TOWNS\NEW_TOWNS\DEBUG\VC141.PDB
^E:\DEV\__REPOSITORY__\_H3ERA_PLUGINS_\NEW_TOWNS\NEW_TOWNS\MONSTERSINTOWNS.CPP
E:\DEV\__REPOSITORY__\_H3ERA_PLUGINS_\NEW_TOWNS\NEW_TOWNS\DEBUG\VC141.PDB
^E:\DEV\__REPOSITORY__\_H3ERA_PLUGINS_\NEW_TOWNS\NEW_TOWNS\PUTSTACK.CPP
E:\DEV\__REPOSITORY__\_H3ERA_PLUGINS_\NEW_TOWNS\NEW_TOWNS\DEBUG\VC141.PDB
^E:\DEV\__REPOSITORY__\_H3ERA_PLUGINS_\NEW_TOWNS\NEW_TOWNS\QUICKUPGRADEINTOWNS.CPP
E:\DEV\__REPOSITORY__\_H3ERA_PLUGINS_\NEW_TOWNS\NEW_TOWNS\DEBUG\VC141.PDB
^E:\DEV\__REPOSITORY__\_H3ERA_PLUGINS_\NEW_TOWNS\NEW_TOWNS\REMAPBUILDINGS.CPP
E:\DEV\__REPOSITORY__\_H3ERA_PLUGINS_\NEW_TOWNS\NEW_TOWNS\DEBUG\VC141.PDB
^E:\DEV\__REPOSITORY__\_H3ERA_PLUGINS_\NEW_TOWNS\NEW_TOWNS\SIEGEINTOWNS.CPP
E:\DEV\__REPOSITORY__\_H3ERA_PLUGINS_\NEW_TOWNS\NEW_TOWNS\DEBUG\VC141.PDB
^E:\DEV\__REPOSITORY__\_H3ERA_PLUGINS_\NEW_TOWNS\NEW_TOWNS\TOWNDEFENDER.CPP
E:\DEV\__REPOSITORY__\_H3ERA_PLUGINS_\NEW_TOWNS\NEW_TOWNS\DEBUG\VC141.PDB
^E:\DEV\__REPOSITORY__\_H3ERA_PLUGINS_\NEW_TOWNS\NEW_TOWNS\TOWNDEPENDENCIES.CPP
E:\DEV\__REPOSITORY__\_H3ERA_PLUGINS_\NEW_TOWNS\NEW_TOWNS\DEBUG\VC141.PDB
^E:\DEV\__REPOSITORY__\_H3ERA_PLUGINS_\NEW_TOWNS\NEW_TOWNS\TOWNSHOOKS.CPP
E:\DEV\__REPOSITORY__\_H3ERA_PLUGINS_\NEW_TOWNS\NEW_TOWNS\DEBUG\VC141.PDB
^E:\DEV\__REPOSITORY__\_H3ERA_PLUGINS_\NEW_TOWNS\NEW_TOWNS\TOWNSNUMTABLES.CPP
E:\DEV\__REPOSITORY__\_H3ERA_PLUGINS_\NEW_TOWNS\NEW_TOWNS\DEBUG\VC141.PDB
^E:\DEV\__REPOSITORY__\_H3ERA_PLUGINS_\NEW_TOWNS\NEW_TOWNS\TOWNSTEXT.CPP
E:\DEV\__REPOSITORY__\_H3ERA_PLUGINS_\NEW_TOWNS\NEW_TOWNS\DEBUG\VC141.PDB
^E:\DEV\__REPOSITORY__\_H3ERA_PLUGINS_\NEW_TOWNS\NEW_TOWNS\TOWN_CLICKER.CPP
E:\DEV\__REPOSITORY__\_H3ERA_PLUGINS_\NEW_TOWNS\NEW_TOWNS\DEBUG\VC141.PDB
^E:\DEV\__REPOSITORY__\_H3ERA_PLUGINS_\NEW_TOWNS\NEW_TOWNS\CONFIG.CPP|E:\DEV\__REPOSITORY__\_H3ERA_PLUGINS_\NEW_TOWNS\NEW_TOWNS\HD_MOD_HOOKS.CPP|E:\DEV\__REPOSITORY__\_H3ERA_PLUGINS_\NEW_TOWNS\NEW_TOWNS\TOWNINFODLG.CPP
E:\DEV\__REPOSITORY__\_H3ERA_PLUGINS_\NEW_TOWNS\NEW_TOWNS\DEBUG\VC141.PDB
E:\DEV\__REPOSITORY__\_H3ERA_PLUGINS_\NEW_TOWNS\NEW_TOWNS\DEBUG\VC141.IDB
E:\DEV\__REPOSITORY__\_H3ERA_PLUGINS_\NEW_TOWNS\NEW_TOWNS\DEBUG\CONFIG.OBJ
E:\DEV\__REPOSITORY__\_H3ERA_PLUGINS_\NEW_TOWNS\NEW_TOWNS\DEBUG\TOWNINFODLG.OBJ
E:\DEV\__REPOSITORY__\_H3ERA_PLUGINS_\NEW_TOWNS\NEW_TOWNS\DEBUG\HD_MOD_HOOKS.OBJ
^E:\DEV\__REPOSITORY__\_H3ERA_PLUGINS_\NEW_TOWNS\NEW_TOWNS\HD_MOD_HOOKS.CPP
E:\DEV\__REPOSITORY__\_H3ERA_PLUGINS_\NEW_TOWNS\NEW_TOWNS\DEBUG\VC141.PDB
^E:\DEV\__REPOSITORY__\_H3ERA_PLUGINS_\NEW_TOWNS\NEW_TOWNS\TOWNINFODLG.CPP
E:\DEV\__REPOSITORY__\_H3ERA_PLUGINS_\NEW_TOWNS\NEW_TOWNS\DEBUG\VC141.PDB
^E:\DEV\__REPOSITORY__\_H3ERA_PLUGINS_\NEW_TOWNS\NEW_TOWNS\CONFIG.CPP
E:\DEV\__REPOSITORY__\_H3ERA_PLUGINS_\NEW_TOWNS\NEW_TOWNS\DEBUG\VC141.PDB
