^E:\DEV\__REPOSITORY__\_H3ERA_PLUGINS_\NEW_TOWNS\NEW_TOWNS\DEBUG\ADVENTURETOWNS.OBJ|E:\DEV\__REPOSITORY__\_H3ERA_PLUGINS_\NEW_TOWNS\NEW_TOWNS\DEBUG\BUILDINGSINTOWNS.OBJ|E:\DEV\__REPOSITORY__\_H3ERA_PLUGINS_\NEW_TOWNS\NEW_TOWNS\DEBUG\CONFIG.OBJ|E:\DEV\__REPOSITORY__\_H3ERA_PLUGINS_\NEW_TOWNS\NEW_TOWNS\DEBUG\HD_MOD_HOOKS.OBJ|E:\DEV\__REPOSITORY__\_H3ERA_PLUGINS_\NEW_TOWNS\NEW_TOWNS\DEBUG\MAIN.OBJ|E:\DEV\__REPOSITORY__\_H3ERA_PLUGINS_\NEW_TOWNS\NEW_TOWNS\DEBUG\MARKET_OF_TIME_DEFAULT.OBJ|E:\DEV\__REPOSITORY__\_H3ERA_PLUGINS_\NEW_TOWNS\NEW_TOWNS\DEBUG\MONSTERSINTOWNS.OBJ|E:\DEV\__REPOSITORY__\_H3ERA_PLUGINS_\NEW_TOWNS\NEW_TOWNS\DEBUG\PUTSTACK.OBJ|E:\DEV\__REPOSITORY__\_H3ERA_PLUGINS_\NEW_TOWNS\NEW_TOWNS\DEBUG\QUICKUPGRADEINTOWNS.OBJ|E:\DEV\__REPOSITORY__\_H3ERA_PLUGINS_\NEW_TOWNS\NEW_TOWNS\DEBUG\REMAPBUILDINGS.OBJ|E:\DEV\__REPOSITORY__\_H3ERA_PLUGINS_\NEW_TOWNS\NEW_TOWNS\DEBUG\SIEGEINTOWNS.OBJ|E:\DEV\__REPOSITORY__\_H3ERA_PLUGINS_\NEW_TOWNS\NEW_TOWNS\DEBUG\TOWNDEFENDER.OBJ|E:\DEV\__REPOSITORY__\_H3ERA_PLUGINS_\NEW_TOWNS\NEW_TOWNS\DEBUG\TOWNDEPENDENCIES.OBJ|E:\DEV\__REPOSITORY__\_H3ERA_PLUGINS_\NEW_TOWNS\NEW_TOWNS\DEBUG\TOWNINFODLG.OBJ|E:\DEV\__REPOSITORY__\_H3ERA_PLUGINS_\NEW_TOWNS\NEW_TOWNS\DEBUG\TOWNSHOOKS.OBJ|E:\DEV\__REPOSITORY__\_H3ERA_PLUGINS_\NEW_TOWNS\NEW_TOWNS\DEBUG\TOWNSNUMTABLES.OBJ|E:\DEV\__REPOSITORY__\_H3ERA_PLUGINS_\NEW_TOWNS\NEW_TOWNS\DEBUG\TOWNSTEXT.OBJ|E:\DEV\__REPOSITORY__\_H3ERA_PLUGINS_\NEW_TOWNS\NEW_TOWNS\DEBUG\TOWN_CLICKER.OBJ
C:\PROGRAM FILES (X86)\MICROSOFT SDKS\WINDOWS\V7.1A\LIB\KERNEL32.LIB
C:\PROGRAM FILES (X86)\MICROSOFT SDKS\WINDOWS\V7.1A\LIB\USER32.LIB
C:\PROGRAM FILES (X86)\MICROSOFT SDKS\WINDOWS\V7.1A\LIB\GDI32.LIB
C:\PROGRAM FILES (X86)\MICROSOFT SDKS\WINDOWS\V7.1A\LIB\WINSPOOL.LIB
C:\PROGRAM FILES (X86)\MICROSOFT SDKS\WINDOWS\V7.1A\LIB\COMDLG32.LIB
C:\PROGRAM FILES (X86)\MICROSOFT SDKS\WINDOWS\V7.1A\LIB\ADVAPI32.LIB
C:\PROGRAM FILES (X86)\MICROSOFT SDKS\WINDOWS\V7.1A\LIB\SHELL32.LIB
C:\PROGRAM FILES (X86)\MICROSOFT SDKS\WINDOWS\V7.1A\LIB\OLE32.LIB
C:\PROGRAM FILES (X86)\MICROSOFT SDKS\WINDOWS\V7.1A\LIB\OLEAUT32.LIB
C:\PROGRAM FILES (X86)\MICROSOFT SDKS\WINDOWS\V7.1A\LIB\UUID.LIB
C:\PROGRAM FILES (X86)\MICROSOFT SDKS\WINDOWS\V7.1A\LIB\ODBC32.LIB
C:\PROGRAM FILES (X86)\MICROSOFT SDKS\WINDOWS\V7.1A\LIB\ODBCCP32.LIB
E:\DEV\__REPOSITORY__\_H3ERA_PLUGINS_\NEW_TOWNS\NEW_TOWNS\DEBUG\ADVENTURETOWNS.OBJ
E:\DEV\__REPOSITORY__\_H3ERA_PLUGINS_\NEW_TOWNS\NEW_TOWNS\DEBUG\BUILDINGSINTOWNS.OBJ
E:\DEV\__REPOSITORY__\_H3ERA_PLUGINS_\NEW_TOWNS\NEW_TOWNS\DEBUG\CONFIG.OBJ
E:\DEV\__REPOSITORY__\_H3ERA_PLUGINS_\NEW_TOWNS\NEW_TOWNS\DEBUG\HD_MOD_HOOKS.OBJ
E:\DEV\__REPOSITORY__\_H3ERA_PLUGINS_\NEW_TOWNS\NEW_TOWNS\DEBUG\MAIN.OBJ
E:\DEV\__REPOSITORY__\_H3ERA_PLUGINS_\NEW_TOWNS\NEW_TOWNS\DEBUG\MARKET_OF_TIME_DEFAULT.OBJ
E:\DEV\__REPOSITORY__\_H3ERA_PLUGINS_\NEW_TOWNS\NEW_TOWNS\DEBUG\MONSTERSINTOWNS.OBJ
E:\DEV\__REPOSITORY__\_H3ERA_PLUGINS_\NEW_TOWNS\NEW_TOWNS\DEBUG\PUTSTACK.OBJ
E:\DEV\__REPOSITORY__\_H3ERA_PLUGINS_\NEW_TOWNS\NEW_TOWNS\DEBUG\QUICKUPGRADEINTOWNS.OBJ
E:\DEV\__REPOSITORY__\_H3ERA_PLUGINS_\NEW_TOWNS\NEW_TOWNS\DEBUG\REMAPBUILDINGS.OBJ
E:\DEV\__REPOSITORY__\_H3ERA_PLUGINS_\NEW_TOWNS\NEW_TOWNS\DEBUG\SIEGEINTOWNS.OBJ
E:\DEV\__REPOSITORY__\_H3ERA_PLUGINS_\NEW_TOWNS\NEW_TOWNS\DEBUG\TOWNDEFENDER.OBJ
E:\DEV\__REPOSITORY__\_H3ERA_PLUGINS_\NEW_TOWNS\NEW_TOWNS\DEBUG\TOWNDEPENDENCIES.OBJ
E:\DEV\__REPOSITORY__\_H3ERA_PLUGINS_\NEW_TOWNS\NEW_TOWNS\DEBUG\TOWNINFODLG.OBJ
E:\DEV\__REPOSITORY__\_H3ERA_PLUGINS_\NEW_TOWNS\NEW_TOWNS\DEBUG\TOWNSHOOKS.OBJ
E:\DEV\__REPOSITORY__\_H3ERA_PLUGINS_\NEW_TOWNS\NEW_TOWNS\DEBUG\TOWNSNUMTABLES.OBJ
E:\DEV\__REPOSITORY__\_H3ERA_PLUGINS_\NEW_TOWNS\NEW_TOWNS\DEBUG\TOWNSTEXT.OBJ
E:\DEV\__REPOSITORY__\_H3ERA_PLUGINS_\NEW_TOWNS\NEW_TOWNS\DEBUG\TOWN_CLICKER.OBJ
C:\WINDOWS\SYSTEM32\TZRES.DLL
C:\WINDOWS\GLOBALIZATION\SORTING\SORTDEFAULT.NLS
C:\PROGRAM FILES\MICROSOFT VISUAL STUDIO\2022\COMMUNITY\VC\TOOLS\MSVC\14.16.27023\LIB\X86\LIBCPMTD.LIB
C:\PROGRAM FILES\MICROSOFT VISUAL STUDIO\2022\COMMUNITY\VC\TOOLS\MSVC\14.16.27023\LIB\X86\LIBCMTD.LIB
C:\PROGRAM FILES\MICROSOFT VISUAL STUDIO\2022\COMMUNITY\VC\TOOLS\MSVC\14.16.27023\LIB\X86\OLDNAMES.LIB
C:\PROGRAM FILES\MICROSOFT VISUAL STUDIO\2022\COMMUNITY\VC\TOOLS\MSVC\14.16.27023\LIB\X86\LIBVCRUNTIMED.LIB
D:\WINDOWS KITS\10\LIB\10.0.10240.0\UCRT\X86\LIBUCRTD.LIB
C:\PROGRAM FILES\MICROSOFT VISUAL STUDIO\2022\COMMUNITY\VC\TOOLS\MSVC\14.16.27023\BIN\HOSTX86\X86\MSPDBSRV.EXE
