^E:\DEV\__REPOSITORY__\_H3ERA_PLUGINS_\NEW_CHEATS\NEW_CHEATS\CHEATS.CPP|E:\DEV\__REPOSITORY__\_H3ERA_PLUGINS_\NEW_CHEATS\__INCLUDE\HEROES.CPP
E:\DEV\__REPOSITORY__\_H3ERA_PLUGINS_\NEW_CHEATS\PROJECT1\RELEASE\VC142.PDB
E:\DEV\__REPOSITORY__\_H3ERA_PLUGINS_\NEW_CHEATS\PROJECT1\RELEASE\HEROES.OBJ
E:\DEV\__REPOSITORY__\_H3ERA_PLUGINS_\NEW_CHEATS\PROJECT1\RELEASE\CHEATS.OBJ
^E:\DEV\__REPOSITORY__\_H3ERA_PLUGINS_\NEW_CHEATS\NEW_CHEATS\CHEATS.CPP|E:\DEV\__REPOSITORY__\_H3ERA_PLUGINS_\NEW_CHEATS\NEW_CHEATS\DLL_MAIN.CPP|E:\DEV\__REPOSITORY__\_H3ERA_PLUGINS_\NEW_CHEATS\__INCLUDE\ERA.CPP|E:\DEV\__REPOSITORY__\_H3ERA_PLUGINS_\NEW_CHEATS\__INCLUDE\HEROES.CPP
E:\DEV\__REPOSITORY__\_H3ERA_PLUGINS_\NEW_CHEATS\PROJECT1\RELEASE\VC141.PDB
E:\DEV\__REPOSITORY__\_H3ERA_PLUGINS_\NEW_CHEATS\PROJECT1\RELEASE\CHEATS.OBJ
E:\DEV\__REPOSITORY__\_H3ERA_PLUGINS_\NEW_CHEATS\PROJECT1\RELEASE\DLL_MAIN.OBJ
E:\DEV\__REPOSITORY__\_H3ERA_PLUGINS_\NEW_CHEATS\PROJECT1\RELEASE\HEROES.OBJ
E:\DEV\__REPOSITORY__\_H3ERA_PLUGINS_\NEW_CHEATS\PROJECT1\RELEASE\ERA.OBJ
^E:\DEV\__REPOSITORY__\_H3ERA_PLUGINS_\NEW_CHEATS\__INCLUDE\ERA.CPP
E:\DEV\__REPOSITORY__\_H3ERA_PLUGINS_\NEW_CHEATS\PROJECT1\RELEASE\VC141.PDB
^E:\DEV\__REPOSITORY__\_H3ERA_PLUGINS_\NEW_CHEATS\__INCLUDE\HEROES.CPP
E:\DEV\__REPOSITORY__\_H3ERA_PLUGINS_\NEW_CHEATS\PROJECT1\RELEASE\VC141.PDB
^E:\DEV\__REPOSITORY__\_H3ERA_PLUGINS_\NEW_CHEATS\NEW_CHEATS\DLL_MAIN.CPP
E:\DEV\__REPOSITORY__\_H3ERA_PLUGINS_\NEW_CHEATS\PROJECT1\RELEASE\VC141.PDB
^E:\DEV\__REPOSITORY__\_H3ERA_PLUGINS_\NEW_CHEATS\NEW_CHEATS\CHEATS.CPP
E:\DEV\__REPOSITORY__\_H3ERA_PLUGINS_\NEW_CHEATS\PROJECT1\RELEASE\VC141.PDB
