^E:\DEV\__REPOSITORY__\_H3ERA_PLUGINS_\NEW_CHEATS\PROJECT1\RELEASE\CHEATS.OBJ|E:\DEV\__REPOSITORY__\_H3ERA_PLUGINS_\NEW_CHEATS\PROJECT1\RELEASE\DLL_MAIN.OBJ|E:\DEV\__REPOSITORY__\_H3ERA_PLUGINS_\NEW_CHEATS\PROJECT1\RELEASE\ERA.OBJ|E:\DEV\__REPOSITORY__\_H3ERA_PLUGINS_\NEW_CHEATS\PROJECT1\RELEASE\HEROES.OBJ
E:\DEV\__REPOSITORY__\_H3ERA_PLUGINS_\NEW_CHEATS\PROJECT1\RELEASE\CUSTOM_CHEATS.ERA
E:\DEV\__REPOSITORY__\_H3ERA_PLUGINS_\NEW_CHEATS\PROJECT1\RELEASE\CUSTOM_CHEATS.PDB
