^E:\DEV\__REPOSITORY__\_H3ERA_PLUGINS_\_HD_MOD_\SAMPLE_DLL\SAMPLE_DLL\PCH.CPP
E:\DEV\__REPOSITORY__\_H3ERA_PLUGINS_\_HD_MOD_\SAMPLE_DLL\SAMPLE_DLL\RELEASE\SAMPLE_DLL.PCH
E:\DEV\__REPOSITORY__\_H3ERA_PLUGINS_\_HD_MOD_\SAMPLE_DLL\SAMPLE_DLL\RELEASE\VC141.PDB
E:\DEV\__REPOSITORY__\_H3ERA_PLUGINS_\_HD_MOD_\SAMPLE_DLL\SAMPLE_DLL\RELEASE\PCH.OBJ
^E:\DEV\__REPOSITORY__\_H3ERA_PLUGINS_\_HD_MOD_\SAMPLE_DLL\SAMPLE_DLL\DLLMAIN.CPP
E:\DEV\__REPOSITORY__\_H3ERA_PLUGINS_\_HD_MOD_\SAMPLE_DLL\SAMPLE_DLL\RELEASE\VC141.PDB
E:\DEV\__REPOSITORY__\_H3ERA_PLUGINS_\_HD_MOD_\SAMPLE_DLL\SAMPLE_DLL\RELEASE\DLLMAIN.OBJ
