^F:\__REPOSITORY__\KNIGHTMARE_KINGDOMS\_PLUGINS_\SKIRMISH\PROJECT1\RELEASE\PROJECT1.RES|F:\__REPOSITORY__\KNIGHTMARE_KINGDOMS\_PLUGINS_\SKIRMISH\PROJECT1\RELEASE\SKIRMISH_PLUGIN.OBJ
F:\__REPOSITORY__\KNIGHTMARE_KINGDOMS\_PLUGINS_\SKIRMISH\PROJECT1\RELEASE\SKIRMISH.ERA
F:\__REPOSITORY__\KNIGHTMARE_KINGDOMS\_PLUGINS_\SKIRMISH\PROJECT1\RELEASE\SKIRMISH.IPDB
F:\__REPOSITORY__\KNIGHTMARE_KINGDOMS\_PLUGINS_\SKIRMISH\PROJECT1\RELEASE\SKIRMISH.IOBJ
F:\__REPOSITORY__\KNIGHTMARE_KINGDOMS\_PLUGINS_\SKIRMISH\PROJECT1\RELEASE\SKIRMISH.PDB
