^E:\DEV\__REPOSITORY__\_H3ERA_PLUGINS_\EMERALD3\EMERALD\ARTIFACTAI.CPP|E:\DEV\__REPOSITORY__\_H3ERA_PLUGINS_\EMERALD3\EMERALD\ARTIFACTCOMBOS.CPP|E:\DEV\__REPOSITORY__\_H3ERA_PLUGINS_\EMERALD3\EMERALD\CLEANBEGIN.CPP|E:\DEV\__REPOSITORY__\_H3ERA_PLUGINS_\EMERALD3\EMERALD\CONFIG.CPP|E:\DEV\__REPOSITORY__\_H3ERA_PLUGINS_\EMERALD3\EMERALD\DEBUGWINDOW.CPP|E:\DEV\__REPOSITORY__\_H3ERA_PLUGINS_\EMERALD3\EMERALD\DUPLICATE.CPP|E:\DEV\__REPOSITORY__\_H3ERA_PLUGINS_\EMERALD3\EMERALD\EMERALD.CPP|E:\DEV\__REPOSITORY__\_H3ERA_PLUGINS_\EMERALD3\EMERALD\ERA.CPP|E:\DEV\__REPOSITORY__\_H3ERA_PLUGINS_\EMERALD3\EMERALD\EVENTS.CPP|E:\DEV\__REPOSITORY__\_H3ERA_PLUGINS_\EMERALD3\EMERALD\EXTERNAL.CPP|E:\DEV\__REPOSITORY__\_H3ERA_PLUGINS_\EMERALD3\EMERALD\HEROARTDESCRIPTION.CPP|E:\DEV\__REPOSITORY__\_H3ERA_PLUGINS_\EMERALD3\EMERALD\LUCKMORALE.CPP|E:\DEV\__REPOSITORY__\_H3ERA_PLUGINS_\EMERALD3\EMERALD\PROPERTIES.CPP|E:\DEV\__REPOSITORY__\_H3ERA_PLUGINS_\EMERALD3\EMERALD\RANDOM.CPP|E:\DEV\__REPOSITORY__\_H3ERA_PLUGINS_\EMERALD3\EMERALD\RESISTANCE.CPP|E:\DEV\__REPOSITORY__\_H3ERA_PLUGINS_\EMERALD3\EMERALD\SPELLSET.CPP|E:\DEV\__REPOSITORY__\_H3ERA_PLUGINS_\EMERALD3\EMERALD\SSKILL_BONUS.CPP|E:\DEV\__REPOSITORY__\_H3ERA_PLUGINS_\EMERALD3\__INCLUDE\HEROES.CPP
E:\DEV\__REPOSITORY__\_H3ERA_PLUGINS_\EMERALD3\EMERALD\RELEASE\VC141.PDB
E:\DEV\__REPOSITORY__\_H3ERA_PLUGINS_\EMERALD3\EMERALD\RELEASE\SSKILL_BONUS.OBJ
E:\DEV\__REPOSITORY__\_H3ERA_PLUGINS_\EMERALD3\EMERALD\RELEASE\SPELLSET.OBJ
E:\DEV\__REPOSITORY__\_H3ERA_PLUGINS_\EMERALD3\EMERALD\RELEASE\RESISTANCE.OBJ
E:\DEV\__REPOSITORY__\_H3ERA_PLUGINS_\EMERALD3\EMERALD\RELEASE\RANDOM.OBJ
E:\DEV\__REPOSITORY__\_H3ERA_PLUGINS_\EMERALD3\EMERALD\RELEASE\PROPERTIES.OBJ
E:\DEV\__REPOSITORY__\_H3ERA_PLUGINS_\EMERALD3\EMERALD\RELEASE\LUCKMORALE.OBJ
E:\DEV\__REPOSITORY__\_H3ERA_PLUGINS_\EMERALD3\EMERALD\RELEASE\HEROARTDESCRIPTION.OBJ
E:\DEV\__REPOSITORY__\_H3ERA_PLUGINS_\EMERALD3\EMERALD\RELEASE\EXTERNAL.OBJ
E:\DEV\__REPOSITORY__\_H3ERA_PLUGINS_\EMERALD3\EMERALD\RELEASE\EVENTS.OBJ
E:\DEV\__REPOSITORY__\_H3ERA_PLUGINS_\EMERALD3\EMERALD\RELEASE\ERA.OBJ
E:\DEV\__REPOSITORY__\_H3ERA_PLUGINS_\EMERALD3\EMERALD\RELEASE\EMERALD.OBJ
E:\DEV\__REPOSITORY__\_H3ERA_PLUGINS_\EMERALD3\EMERALD\RELEASE\DUPLICATE.OBJ
E:\DEV\__REPOSITORY__\_H3ERA_PLUGINS_\EMERALD3\EMERALD\RELEASE\DEBUGWINDOW.OBJ
E:\DEV\__REPOSITORY__\_H3ERA_PLUGINS_\EMERALD3\EMERALD\RELEASE\CONFIG.OBJ
E:\DEV\__REPOSITORY__\_H3ERA_PLUGINS_\EMERALD3\EMERALD\RELEASE\CLEANBEGIN.OBJ
E:\DEV\__REPOSITORY__\_H3ERA_PLUGINS_\EMERALD3\EMERALD\RELEASE\ARTIFACTCOMBOS.OBJ
E:\DEV\__REPOSITORY__\_H3ERA_PLUGINS_\EMERALD3\EMERALD\RELEASE\ARTIFACTAI.OBJ
E:\DEV\__REPOSITORY__\_H3ERA_PLUGINS_\EMERALD3\EMERALD\RELEASE\HEROES.OBJ
^E:\DEV\__REPOSITORY__\_H3ERA_PLUGINS_\EMERALD3\__INCLUDE\HEROES.CPP
E:\DEV\__REPOSITORY__\_H3ERA_PLUGINS_\EMERALD3\EMERALD\RELEASE\VC141.PDB
^E:\DEV\__REPOSITORY__\_H3ERA_PLUGINS_\EMERALD3\EMERALD\ERA.CPP
E:\DEV\__REPOSITORY__\_H3ERA_PLUGINS_\EMERALD3\EMERALD\RELEASE\VC141.PDB
^E:\DEV\__REPOSITORY__\_H3ERA_PLUGINS_\EMERALD3\EMERALD\SPELLSET.CPP
E:\DEV\__REPOSITORY__\_H3ERA_PLUGINS_\EMERALD3\EMERALD\RELEASE\VC141.PDB
^E:\DEV\__REPOSITORY__\_H3ERA_PLUGINS_\EMERALD3\EMERALD\ARTIFACTAI.CPP|E:\DEV\__REPOSITORY__\_H3ERA_PLUGINS_\EMERALD3\EMERALD\ARTIFACTCOMBOS.CPP|E:\DEV\__REPOSITORY__\_H3ERA_PLUGINS_\EMERALD3\EMERALD\CLEANBEGIN.CPP|E:\DEV\__REPOSITORY__\_H3ERA_PLUGINS_\EMERALD3\EMERALD\CONFIG.CPP|E:\DEV\__REPOSITORY__\_H3ERA_PLUGINS_\EMERALD3\EMERALD\DEBUGWINDOW.CPP|E:\DEV\__REPOSITORY__\_H3ERA_PLUGINS_\EMERALD3\EMERALD\DUPLICATE.CPP|E:\DEV\__REPOSITORY__\_H3ERA_PLUGINS_\EMERALD3\EMERALD\EMERALD.CPP|E:\DEV\__REPOSITORY__\_H3ERA_PLUGINS_\EMERALD3\EMERALD\EVENTS.CPP|E:\DEV\__REPOSITORY__\_H3ERA_PLUGINS_\EMERALD3\EMERALD\EXTERNAL.CPP|E:\DEV\__REPOSITORY__\_H3ERA_PLUGINS_\EMERALD3\EMERALD\HEROARTDESCRIPTION.CPP|E:\DEV\__REPOSITORY__\_H3ERA_PLUGINS_\EMERALD3\EMERALD\LUCKMORALE.CPP|E:\DEV\__REPOSITORY__\_H3ERA_PLUGINS_\EMERALD3\EMERALD\PROPERTIES.CPP|E:\DEV\__REPOSITORY__\_H3ERA_PLUGINS_\EMERALD3\EMERALD\RANDOM.CPP|E:\DEV\__REPOSITORY__\_H3ERA_PLUGINS_\EMERALD3\EMERALD\RESISTANCE.CPP|E:\DEV\__REPOSITORY__\_H3ERA_PLUGINS_\EMERALD3\EMERALD\SSKILL_BONUS.CPP
E:\DEV\__REPOSITORY__\_H3ERA_PLUGINS_\EMERALD3\EMERALD\RELEASE\VC141.PDB
E:\DEV\__REPOSITORY__\_H3ERA_PLUGINS_\EMERALD3\EMERALD\RELEASE\RESISTANCE.OBJ
E:\DEV\__REPOSITORY__\_H3ERA_PLUGINS_\EMERALD3\EMERALD\RELEASE\RANDOM.OBJ
E:\DEV\__REPOSITORY__\_H3ERA_PLUGINS_\EMERALD3\EMERALD\RELEASE\PROPERTIES.OBJ
E:\DEV\__REPOSITORY__\_H3ERA_PLUGINS_\EMERALD3\EMERALD\RELEASE\LUCKMORALE.OBJ
E:\DEV\__REPOSITORY__\_H3ERA_PLUGINS_\EMERALD3\EMERALD\RELEASE\EVENTS.OBJ
E:\DEV\__REPOSITORY__\_H3ERA_PLUGINS_\EMERALD3\EMERALD\RELEASE\EMERALD.OBJ
E:\DEV\__REPOSITORY__\_H3ERA_PLUGINS_\EMERALD3\EMERALD\RELEASE\DUPLICATE.OBJ
E:\DEV\__REPOSITORY__\_H3ERA_PLUGINS_\EMERALD3\EMERALD\RELEASE\CONFIG.OBJ
E:\DEV\__REPOSITORY__\_H3ERA_PLUGINS_\EMERALD3\EMERALD\RELEASE\SSKILL_BONUS.OBJ
E:\DEV\__REPOSITORY__\_H3ERA_PLUGINS_\EMERALD3\EMERALD\RELEASE\HEROARTDESCRIPTION.OBJ
E:\DEV\__REPOSITORY__\_H3ERA_PLUGINS_\EMERALD3\EMERALD\RELEASE\EXTERNAL.OBJ
E:\DEV\__REPOSITORY__\_H3ERA_PLUGINS_\EMERALD3\EMERALD\RELEASE\DEBUGWINDOW.OBJ
E:\DEV\__REPOSITORY__\_H3ERA_PLUGINS_\EMERALD3\EMERALD\RELEASE\CLEANBEGIN.OBJ
E:\DEV\__REPOSITORY__\_H3ERA_PLUGINS_\EMERALD3\EMERALD\RELEASE\ARTIFACTCOMBOS.OBJ
E:\DEV\__REPOSITORY__\_H3ERA_PLUGINS_\EMERALD3\EMERALD\RELEASE\ARTIFACTAI.OBJ
^E:\DEV\__REPOSITORY__\_H3ERA_PLUGINS_\EMERALD3\EMERALD\ARTIFACTAI.CPP
E:\DEV\__REPOSITORY__\_H3ERA_PLUGINS_\EMERALD3\EMERALD\RELEASE\VC141.PDB
^E:\DEV\__REPOSITORY__\_H3ERA_PLUGINS_\EMERALD3\EMERALD\ARTIFACTCOMBOS.CPP
E:\DEV\__REPOSITORY__\_H3ERA_PLUGINS_\EMERALD3\EMERALD\RELEASE\VC141.PDB
^E:\DEV\__REPOSITORY__\_H3ERA_PLUGINS_\EMERALD3\EMERALD\CLEANBEGIN.CPP
E:\DEV\__REPOSITORY__\_H3ERA_PLUGINS_\EMERALD3\EMERALD\RELEASE\VC141.PDB
^E:\DEV\__REPOSITORY__\_H3ERA_PLUGINS_\EMERALD3\EMERALD\DEBUGWINDOW.CPP
E:\DEV\__REPOSITORY__\_H3ERA_PLUGINS_\EMERALD3\EMERALD\RELEASE\VC141.PDB
^E:\DEV\__REPOSITORY__\_H3ERA_PLUGINS_\EMERALD3\EMERALD\EXTERNAL.CPP
E:\DEV\__REPOSITORY__\_H3ERA_PLUGINS_\EMERALD3\EMERALD\RELEASE\VC141.PDB
^E:\DEV\__REPOSITORY__\_H3ERA_PLUGINS_\EMERALD3\EMERALD\HEROARTDESCRIPTION.CPP
E:\DEV\__REPOSITORY__\_H3ERA_PLUGINS_\EMERALD3\EMERALD\RELEASE\VC141.PDB
^E:\DEV\__REPOSITORY__\_H3ERA_PLUGINS_\EMERALD3\EMERALD\SSKILL_BONUS.CPP
E:\DEV\__REPOSITORY__\_H3ERA_PLUGINS_\EMERALD3\EMERALD\RELEASE\VC141.PDB
^E:\DEV\__REPOSITORY__\_H3ERA_PLUGINS_\EMERALD3\EMERALD\CONFIG.CPP
E:\DEV\__REPOSITORY__\_H3ERA_PLUGINS_\EMERALD3\EMERALD\RELEASE\VC141.PDB
^E:\DEV\__REPOSITORY__\_H3ERA_PLUGINS_\EMERALD3\EMERALD\EMERALD.CPP
E:\DEV\__REPOSITORY__\_H3ERA_PLUGINS_\EMERALD3\EMERALD\RELEASE\VC141.PDB
^E:\DEV\__REPOSITORY__\_H3ERA_PLUGINS_\EMERALD3\EMERALD\EVENTS.CPP
E:\DEV\__REPOSITORY__\_H3ERA_PLUGINS_\EMERALD3\EMERALD\RELEASE\VC141.PDB
^E:\DEV\__REPOSITORY__\_H3ERA_PLUGINS_\EMERALD3\EMERALD\LUCKMORALE.CPP
E:\DEV\__REPOSITORY__\_H3ERA_PLUGINS_\EMERALD3\EMERALD\RELEASE\VC141.PDB
^E:\DEV\__REPOSITORY__\_H3ERA_PLUGINS_\EMERALD3\EMERALD\PROPERTIES.CPP
E:\DEV\__REPOSITORY__\_H3ERA_PLUGINS_\EMERALD3\EMERALD\RELEASE\VC141.PDB
^E:\DEV\__REPOSITORY__\_H3ERA_PLUGINS_\EMERALD3\EMERALD\RESISTANCE.CPP
E:\DEV\__REPOSITORY__\_H3ERA_PLUGINS_\EMERALD3\EMERALD\RELEASE\VC141.PDB
^E:\DEV\__REPOSITORY__\_H3ERA_PLUGINS_\EMERALD3\EMERALD\RANDOM.CPP
E:\DEV\__REPOSITORY__\_H3ERA_PLUGINS_\EMERALD3\EMERALD\RELEASE\VC141.PDB
E:\DEV\__REPOSITORY__\_H3ERA_PLUGINS_\EMERALD3\EMERALD\RELEASE\RANDOM.OBJ
^E:\DEV\__REPOSITORY__\_H3ERA_PLUGINS_\EMERALD3\EMERALD\DLLMAIN.CPP
E:\DEV\__REPOSITORY__\_H3ERA_PLUGINS_\EMERALD3\EMERALD\RELEASE\VC141.PDB
E:\DEV\__REPOSITORY__\_H3ERA_PLUGINS_\EMERALD3\EMERALD\RELEASE\DLLMAIN.OBJ
^E:\DEV\__REPOSITORY__\_H3ERA_PLUGINS_\EMERALD3\EMERALD\DUPLICATE.CPP
E:\DEV\__REPOSITORY__\_H3ERA_PLUGINS_\EMERALD3\EMERALD\RELEASE\VC141.PDB
E:\DEV\__REPOSITORY__\_H3ERA_PLUGINS_\EMERALD3\EMERALD\RELEASE\DUPLICATE.OBJ
